%!PS-Adobe-2.0 EPSF-2.0
%%Title: /home/filipe/UFPA/aulas/inteligencia-artificial/1-introducao/3-buscas/a-3.dia
%%Creator: Dia v0.97.3
%%CreationDate: Thu Sep  8 17:31:06 2022
%%For: filipe
%%Orientation: Portrait
%%Magnification: 1.0000
%%BoundingBox: 0 0 758 353
%%BeginSetup
%%EndSetup
%%EndComments
%%BeginProlog
[ /.notdef /.notdef /.notdef /.notdef /.notdef /.notdef /.notdef /.notdef /.notdef /.notdef
/.notdef /.notdef /.notdef /.notdef /.notdef /.notdef /.notdef /.notdef /.notdef /.notdef
/.notdef /.notdef /.notdef /.notdef /.notdef /.notdef /.notdef /.notdef /.notdef /.notdef
/.notdef /.notdef /space /exclam /quotedbl /numbersign /dollar /percent /ampersand /quoteright
/parenleft /parenright /asterisk /plus /comma /hyphen /period /slash /zero /one
/two /three /four /five /six /seven /eight /nine /colon /semicolon
/less /equal /greater /question /at /A /B /C /D /E
/F /G /H /I /J /K /L /M /N /O
/P /Q /R /S /T /U /V /W /X /Y
/Z /bracketleft /backslash /bracketright /asciicircum /underscore /quoteleft /a /b /c
/d /e /f /g /h /i /j /k /l /m
/n /o /p /q /r /s /t /u /v /w
/x /y /z /braceleft /bar /braceright /asciitilde /.notdef /.notdef /.notdef
/.notdef /.notdef /.notdef /.notdef /.notdef /.notdef /.notdef /.notdef /.notdef /.notdef
/.notdef /.notdef /.notdef /.notdef /.notdef /.notdef /.notdef /.notdef /.notdef /.notdef
/.notdef /.notdef /.notdef /.notdef /.notdef /.notdef /.notdef /.notdef /.notdef /.notdef
/space /exclamdown /cent /sterling /currency /yen /brokenbar /section /dieresis /copyright
/ordfeminine /guillemotleft /logicalnot /hyphen /registered /macron /degree /plusminus /twosuperior /threesuperior
/acute /mu /paragraph /periodcentered /cedilla /onesuperior /ordmasculine /guillemotright /onequarter /onehalf
/threequarters /questiondown /Agrave /Aacute /Acircumflex /Atilde /Adieresis /Aring /AE /Ccedilla
/Egrave /Eacute /Ecircumflex /Edieresis /Igrave /Iacute /Icircumflex /Idieresis /Eth /Ntilde
/Ograve /Oacute /Ocircumflex /Otilde /Odieresis /multiply /Oslash /Ugrave /Uacute /Ucircumflex
/Udieresis /Yacute /Thorn /germandbls /agrave /aacute /acircumflex /atilde /adieresis /aring
/ae /ccedilla /egrave /eacute /ecircumflex /edieresis /igrave /iacute /icircumflex /idieresis
/eth /ntilde /ograve /oacute /ocircumflex /otilde /odieresis /divide /oslash /ugrave
/uacute /ucircumflex /udieresis /yacute /thorn /ydieresis] /isolatin1encoding exch def
/cp {closepath} bind def
/c {curveto} bind def
/f {fill} bind def
/a {arc} bind def
/ef {eofill} bind def
/ex {exch} bind def
/gr {grestore} bind def
/gs {gsave} bind def
/sa {save} bind def
/rs {restore} bind def
/l {lineto} bind def
/m {moveto} bind def
/rm {rmoveto} bind def
/n {newpath} bind def
/s {stroke} bind def
/sh {show} bind def
/slc {setlinecap} bind def
/slj {setlinejoin} bind def
/slw {setlinewidth} bind def
/srgb {setrgbcolor} bind def
/rot {rotate} bind def
/sc {scale} bind def
/sd {setdash} bind def
/ff {findfont} bind def
/sf {setfont} bind def
/scf {scalefont} bind def
/sw {stringwidth pop} bind def
/tr {translate} bind def

/ellipsedict 8 dict def
ellipsedict /mtrx matrix put
/ellipse
{ ellipsedict begin
   /endangle exch def
   /startangle exch def
   /yrad exch def
   /xrad exch def
   /y exch def
   /x exch def   /savematrix mtrx currentmatrix def
   x y tr xrad yrad sc
   0 0 1 startangle endangle arc
   savematrix setmatrix
   end
} def

/mergeprocs {
dup length
3 -1 roll
dup
length
dup
5 1 roll
3 -1 roll
add
array cvx
dup
3 -1 roll
0 exch
putinterval
dup
4 2 roll
putinterval
} bind def
/Times-Roman-latin1
    /Times-Roman findfont
    dup length dict begin
	{1 index /FID ne {def} {pop pop} ifelse} forall
	/Encoding isolatin1encoding def
    currentdict end
definefont pop
/Times-Italic-latin1
    /Times-Italic findfont
    dup length dict begin
	{1 index /FID ne {def} {pop pop} ifelse} forall
	/Encoding isolatin1encoding def
    currentdict end
definefont pop
/Times-Bold-latin1
    /Times-Bold findfont
    dup length dict begin
	{1 index /FID ne {def} {pop pop} ifelse} forall
	/Encoding isolatin1encoding def
    currentdict end
definefont pop
/Times-BoldItalic-latin1
    /Times-BoldItalic findfont
    dup length dict begin
	{1 index /FID ne {def} {pop pop} ifelse} forall
	/Encoding isolatin1encoding def
    currentdict end
definefont pop
/AvantGarde-Gothic-latin1
    /AvantGarde-Gothic findfont
    dup length dict begin
	{1 index /FID ne {def} {pop pop} ifelse} forall
	/Encoding isolatin1encoding def
    currentdict end
definefont pop
/AvantGarde-BookOblique-latin1
    /AvantGarde-BookOblique findfont
    dup length dict begin
	{1 index /FID ne {def} {pop pop} ifelse} forall
	/Encoding isolatin1encoding def
    currentdict end
definefont pop
/AvantGarde-Demi-latin1
    /AvantGarde-Demi findfont
    dup length dict begin
	{1 index /FID ne {def} {pop pop} ifelse} forall
	/Encoding isolatin1encoding def
    currentdict end
definefont pop
/AvantGarde-DemiOblique-latin1
    /AvantGarde-DemiOblique findfont
    dup length dict begin
	{1 index /FID ne {def} {pop pop} ifelse} forall
	/Encoding isolatin1encoding def
    currentdict end
definefont pop
/Bookman-Light-latin1
    /Bookman-Light findfont
    dup length dict begin
	{1 index /FID ne {def} {pop pop} ifelse} forall
	/Encoding isolatin1encoding def
    currentdict end
definefont pop
/Bookman-LightItalic-latin1
    /Bookman-LightItalic findfont
    dup length dict begin
	{1 index /FID ne {def} {pop pop} ifelse} forall
	/Encoding isolatin1encoding def
    currentdict end
definefont pop
/Bookman-Demi-latin1
    /Bookman-Demi findfont
    dup length dict begin
	{1 index /FID ne {def} {pop pop} ifelse} forall
	/Encoding isolatin1encoding def
    currentdict end
definefont pop
/Bookman-DemiItalic-latin1
    /Bookman-DemiItalic findfont
    dup length dict begin
	{1 index /FID ne {def} {pop pop} ifelse} forall
	/Encoding isolatin1encoding def
    currentdict end
definefont pop
/Courier-latin1
    /Courier findfont
    dup length dict begin
	{1 index /FID ne {def} {pop pop} ifelse} forall
	/Encoding isolatin1encoding def
    currentdict end
definefont pop
/Courier-Oblique-latin1
    /Courier-Oblique findfont
    dup length dict begin
	{1 index /FID ne {def} {pop pop} ifelse} forall
	/Encoding isolatin1encoding def
    currentdict end
definefont pop
/Courier-Bold-latin1
    /Courier-Bold findfont
    dup length dict begin
	{1 index /FID ne {def} {pop pop} ifelse} forall
	/Encoding isolatin1encoding def
    currentdict end
definefont pop
/Courier-BoldOblique-latin1
    /Courier-BoldOblique findfont
    dup length dict begin
	{1 index /FID ne {def} {pop pop} ifelse} forall
	/Encoding isolatin1encoding def
    currentdict end
definefont pop
/Helvetica-latin1
    /Helvetica findfont
    dup length dict begin
	{1 index /FID ne {def} {pop pop} ifelse} forall
	/Encoding isolatin1encoding def
    currentdict end
definefont pop
/Helvetica-Oblique-latin1
    /Helvetica-Oblique findfont
    dup length dict begin
	{1 index /FID ne {def} {pop pop} ifelse} forall
	/Encoding isolatin1encoding def
    currentdict end
definefont pop
/Helvetica-Bold-latin1
    /Helvetica-Bold findfont
    dup length dict begin
	{1 index /FID ne {def} {pop pop} ifelse} forall
	/Encoding isolatin1encoding def
    currentdict end
definefont pop
/Helvetica-BoldOblique-latin1
    /Helvetica-BoldOblique findfont
    dup length dict begin
	{1 index /FID ne {def} {pop pop} ifelse} forall
	/Encoding isolatin1encoding def
    currentdict end
definefont pop
/Helvetica-Narrow-latin1
    /Helvetica-Narrow findfont
    dup length dict begin
	{1 index /FID ne {def} {pop pop} ifelse} forall
	/Encoding isolatin1encoding def
    currentdict end
definefont pop
/Helvetica-Narrow-Oblique-latin1
    /Helvetica-Narrow-Oblique findfont
    dup length dict begin
	{1 index /FID ne {def} {pop pop} ifelse} forall
	/Encoding isolatin1encoding def
    currentdict end
definefont pop
/Helvetica-Narrow-Bold-latin1
    /Helvetica-Narrow-Bold findfont
    dup length dict begin
	{1 index /FID ne {def} {pop pop} ifelse} forall
	/Encoding isolatin1encoding def
    currentdict end
definefont pop
/Helvetica-Narrow-BoldOblique-latin1
    /Helvetica-Narrow-BoldOblique findfont
    dup length dict begin
	{1 index /FID ne {def} {pop pop} ifelse} forall
	/Encoding isolatin1encoding def
    currentdict end
definefont pop
/NewCenturySchlbk-Roman-latin1
    /NewCenturySchlbk-Roman findfont
    dup length dict begin
	{1 index /FID ne {def} {pop pop} ifelse} forall
	/Encoding isolatin1encoding def
    currentdict end
definefont pop
/NewCenturySchlbk-Italic-latin1
    /NewCenturySchlbk-Italic findfont
    dup length dict begin
	{1 index /FID ne {def} {pop pop} ifelse} forall
	/Encoding isolatin1encoding def
    currentdict end
definefont pop
/NewCenturySchlbk-Bold-latin1
    /NewCenturySchlbk-Bold findfont
    dup length dict begin
	{1 index /FID ne {def} {pop pop} ifelse} forall
	/Encoding isolatin1encoding def
    currentdict end
definefont pop
/NewCenturySchlbk-BoldItalic-latin1
    /NewCenturySchlbk-BoldItalic findfont
    dup length dict begin
	{1 index /FID ne {def} {pop pop} ifelse} forall
	/Encoding isolatin1encoding def
    currentdict end
definefont pop
/Palatino-Roman-latin1
    /Palatino-Roman findfont
    dup length dict begin
	{1 index /FID ne {def} {pop pop} ifelse} forall
	/Encoding isolatin1encoding def
    currentdict end
definefont pop
/Palatino-Italic-latin1
    /Palatino-Italic findfont
    dup length dict begin
	{1 index /FID ne {def} {pop pop} ifelse} forall
	/Encoding isolatin1encoding def
    currentdict end
definefont pop
/Palatino-Bold-latin1
    /Palatino-Bold findfont
    dup length dict begin
	{1 index /FID ne {def} {pop pop} ifelse} forall
	/Encoding isolatin1encoding def
    currentdict end
definefont pop
/Palatino-BoldItalic-latin1
    /Palatino-BoldItalic findfont
    dup length dict begin
	{1 index /FID ne {def} {pop pop} ifelse} forall
	/Encoding isolatin1encoding def
    currentdict end
definefont pop
/Symbol-latin1
    /Symbol findfont
definefont pop
/ZapfChancery-MediumItalic-latin1
    /ZapfChancery-MediumItalic findfont
    dup length dict begin
	{1 index /FID ne {def} {pop pop} ifelse} forall
	/Encoding isolatin1encoding def
    currentdict end
definefont pop
/ZapfDingbats-latin1
    /ZapfDingbats findfont
    dup length dict begin
	{1 index /FID ne {def} {pop pop} ifelse} forall
	/Encoding isolatin1encoding def
    currentdict end
definefont pop
28.346000 -28.346000 scale
-6.709600 -15.187517 translate
%%EndProlog


1.000000 1.000000 1.000000 srgb
n 23.338512 4.936116 1.917912 0.958956 0 360 ellipse f
0.100000 slw
[] 0 sd
[] 0 sd
0 slj
0.000000 0.000000 0.000000 srgb
n 23.338512 4.936116 1.917912 0.958956 0 360 ellipse cp s
/Helvetica-latin1 ff 0.560000 scf sf
(Arad) dup sw 2 div 23.338512 ex sub 5.032737 m
 gs 1 -1 sc sh gr
1.000000 1.000000 1.000000 srgb
n 16.244405 9.639863 1.933405 0.966703 0 360 ellipse f
0.100000 slw
[] 0 sd
[] 0 sd
0 slj
0.000000 0.000000 0.000000 srgb
n 16.244405 9.639863 1.933405 0.966703 0 360 ellipse cp s
/Helvetica-latin1 ff 0.560000 scf sf
(Sibiu) dup sw 2 div 16.244405 ex sub 9.736484 m
 gs 1 -1 sc sh gr
1.000000 1.000000 1.000000 srgb
n 23.299971 9.601306 2.508071 1.254036 0 360 ellipse f
0.100000 slw
[] 0 sd
[] 0 sd
0 slj
0.000000 0.000000 0.000000 srgb
n 23.299971 9.601306 2.508071 1.254036 0 360 ellipse cp s
/Helvetica-latin1 ff 0.560000 scf sf
(Timesoara) dup sw 2 div 23.299971 ex sub 9.697927 m
 gs 1 -1 sc sh gr
1.000000 1.000000 1.000000 srgb
n 31.088180 9.562750 2.076480 1.038240 0 360 ellipse f
0.100000 slw
[] 0 sd
[] 0 sd
0 slj
0.000000 0.000000 0.000000 srgb
n 31.088180 9.562750 2.076480 1.038240 0 360 ellipse cp s
/Helvetica-latin1 ff 0.560000 scf sf
(Zerind) dup sw 2 div 31.088180 ex sub 9.659371 m
 gs 1 -1 sc sh gr
0.100000 slw
[] 0 sd
[] 0 sd
0 slc
n 23.338600 5.895070 m 16.756532 8.472609 l s
0 slj
n 16.665373 8.239822 m 16.290957 8.654928 l 16.847692 8.705396 l ef
0.100000 slw
[] 0 sd
0 slj
n 16.665373 8.239822 m 16.290957 8.654928 l 16.847692 8.705396 l cp s
0.100000 slw
[] 0 sd
[] 0 sd
0 slc
n 23.338600 5.895070 m 23.308656 7.797338 l s
0 slj
n 23.058687 7.793403 m 23.300787 8.297276 l 23.558625 7.801273 l ef
0.100000 slw
[] 0 sd
0 slj
n 23.058687 7.793403 m 23.300787 8.297276 l 23.558625 7.801273 l cp s
0.100000 slw
[] 0 sd
[] 0 sd
0 slc
n 23.338600 5.895070 m 30.567364 8.347790 l s
0 slj
n 30.487037 8.584534 m 31.040851 8.508445 l 30.647691 8.111047 l ef
0.100000 slw
[] 0 sd
0 slj
n 30.487037 8.584534 m 31.040851 8.508445 l 30.647691 8.111047 l cp s
1.000000 1.000000 1.000000 srgb
n 9.150222 13.071256 1.917912 0.958956 0 360 ellipse f
0.100000 slw
[] 0 sd
[] 0 sd
0 slj
0.000000 0.000000 0.000000 srgb
n 9.150222 13.071256 1.917912 0.958956 0 360 ellipse cp s
/Helvetica-latin1 ff 0.560000 scf sf
(Arad) dup sw 2 div 9.150222 ex sub 13.167877 m
 gs 1 -1 sc sh gr
1.000000 1.000000 1.000000 srgb
n 14.316629 13.186964 2.217929 1.108964 0 360 ellipse f
0.100000 slw
[] 0 sd
[] 0 sd
0 slj
0.000000 0.000000 0.000000 srgb
n 14.316629 13.186964 2.217929 1.108964 0 360 ellipse cp s
/Helvetica-latin1 ff 0.560000 scf sf
(Fagaras) dup sw 2 div 14.316629 ex sub 13.283586 m
 gs 1 -1 sc sh gr
1.000000 1.000000 1.000000 srgb
n 19.830006 13.186903 2.170006 1.085003 0 360 ellipse f
0.100000 slw
[] 0 sd
[] 0 sd
0 slj
0.000000 0.000000 0.000000 srgb
n 19.830006 13.186903 2.170006 1.085003 0 360 ellipse cp s
/Helvetica-latin1 ff 0.560000 scf sf
(Oradea) dup sw 2 div 19.830006 ex sub 13.283524 m
 gs 1 -1 sc sh gr
1.000000 1.000000 1.000000 srgb
n 25.767532 13.186966 2.879932 1.439966 0 360 ellipse f
0.100000 slw
[] 0 sd
[] 0 sd
0 slj
0.000000 0.000000 0.000000 srgb
n 25.767532 13.186966 2.879932 1.439966 0 360 ellipse cp s
/Helvetica-latin1 ff 0.560000 scf sf
(Rimnicu) dup sw 2 div 25.767532 ex sub 12.883587 m
 gs 1 -1 sc sh gr
(Vicea) dup sw 2 div 25.767532 ex sub 13.683587 m
 gs 1 -1 sc sh gr
0.100000 slw
[] 0 sd
[] 0 sd
0 slc
n 16.244400 10.606600 m 11.031534 12.229693 l s
0 slj
n 10.957212 11.990996 m 10.554139 12.378336 l 11.105855 12.468390 l ef
0.100000 slw
[] 0 sd
0 slj
n 10.957212 11.990996 m 10.554139 12.378336 l 11.105855 12.468390 l cp s
0.100000 slw
[] 0 sd
[] 0 sd
0 slc
n 16.244400 10.606600 m 15.478840 11.710454 l s
0 slj
n 15.273410 11.567981 m 15.193895 12.121314 l 15.684270 11.852927 l ef
0.100000 slw
[] 0 sd
0 slj
n 15.273410 11.567981 m 15.193895 12.121314 l 15.684270 11.852927 l cp s
0.100000 slw
[] 0 sd
[] 0 sd
0 slc
n 16.244400 10.606600 m 17.883510 12.055445 l s
0 slj
n 17.717939 12.242758 m 18.258137 12.386586 l 18.049081 11.868131 l ef
0.100000 slw
[] 0 sd
0 slj
n 17.717939 12.242758 m 18.258137 12.386586 l 18.049081 11.868131 l cp s
0.100000 slw
[] 0 sd
[] 0 sd
0 slc
n 16.244400 10.606600 m 23.192695 12.056362 l s
0 slj
n 23.141632 12.301091 m 23.682154 12.158487 l 23.243758 11.811632 l ef
0.100000 slw
[] 0 sd
0 slj
n 23.141632 12.301091 m 23.682154 12.158487 l 23.243758 11.811632 l cp s
/Helvetica-latin1 ff 0.560000 scf sf
(366 = 0 + 366) 21.395000 3.256621 m
 gs 1 -1 sc sh gr
/Helvetica-latin1 ff 0.560000 scf sf
(393 = 140 + 253) 11.495000 7.906621 m
 gs 1 -1 sc sh gr
/Helvetica-latin1 ff 0.560000 scf sf
(447 = 118 + 329) 21.245000 11.256621 m
 gs 1 -1 sc sh gr
/Helvetica-latin1 ff 0.560000 scf sf
(449 = 75 + 374) 29.104600 11.106621 m
 gs 1 -1 sc sh gr
/Helvetica-latin1 ff 0.560000 scf sf
(646 = 280+366) 6.709600 14.612500 m
 gs 1 -1 sc sh gr
(415 =239 +176) 12.009600 14.812500 m
 gs 1 -1 sc sh gr
(671 =291 + 280) 17.409600 14.712500 m
 gs 1 -1 sc sh gr
(413 = 220+193) 28.359600 14.112500 m
 gs 1 -1 sc sh gr
showpage
