%!PS-Adobe-2.0 EPSF-2.0
%%Title: /home/filipe/UFPA/aulas/inteligencia-artificial/1-introducao/3-buscas/guloso-4.dia
%%Creator: Dia v0.97.3
%%CreationDate: Thu Sep  8 17:12:37 2022
%%For: filipe
%%Orientation: Portrait
%%Magnification: 1.0000
%%BoundingBox: 0 0 764 416
%%BeginSetup
%%EndSetup
%%EndComments
%%BeginProlog
[ /.notdef /.notdef /.notdef /.notdef /.notdef /.notdef /.notdef /.notdef /.notdef /.notdef
/.notdef /.notdef /.notdef /.notdef /.notdef /.notdef /.notdef /.notdef /.notdef /.notdef
/.notdef /.notdef /.notdef /.notdef /.notdef /.notdef /.notdef /.notdef /.notdef /.notdef
/.notdef /.notdef /space /exclam /quotedbl /numbersign /dollar /percent /ampersand /quoteright
/parenleft /parenright /asterisk /plus /comma /hyphen /period /slash /zero /one
/two /three /four /five /six /seven /eight /nine /colon /semicolon
/less /equal /greater /question /at /A /B /C /D /E
/F /G /H /I /J /K /L /M /N /O
/P /Q /R /S /T /U /V /W /X /Y
/Z /bracketleft /backslash /bracketright /asciicircum /underscore /quoteleft /a /b /c
/d /e /f /g /h /i /j /k /l /m
/n /o /p /q /r /s /t /u /v /w
/x /y /z /braceleft /bar /braceright /asciitilde /.notdef /.notdef /.notdef
/.notdef /.notdef /.notdef /.notdef /.notdef /.notdef /.notdef /.notdef /.notdef /.notdef
/.notdef /.notdef /.notdef /.notdef /.notdef /.notdef /.notdef /.notdef /.notdef /.notdef
/.notdef /.notdef /.notdef /.notdef /.notdef /.notdef /.notdef /.notdef /.notdef /.notdef
/space /exclamdown /cent /sterling /currency /yen /brokenbar /section /dieresis /copyright
/ordfeminine /guillemotleft /logicalnot /hyphen /registered /macron /degree /plusminus /twosuperior /threesuperior
/acute /mu /paragraph /periodcentered /cedilla /onesuperior /ordmasculine /guillemotright /onequarter /onehalf
/threequarters /questiondown /Agrave /Aacute /Acircumflex /Atilde /Adieresis /Aring /AE /Ccedilla
/Egrave /Eacute /Ecircumflex /Edieresis /Igrave /Iacute /Icircumflex /Idieresis /Eth /Ntilde
/Ograve /Oacute /Ocircumflex /Otilde /Odieresis /multiply /Oslash /Ugrave /Uacute /Ucircumflex
/Udieresis /Yacute /Thorn /germandbls /agrave /aacute /acircumflex /atilde /adieresis /aring
/ae /ccedilla /egrave /eacute /ecircumflex /edieresis /igrave /iacute /icircumflex /idieresis
/eth /ntilde /ograve /oacute /ocircumflex /otilde /odieresis /divide /oslash /ugrave
/uacute /ucircumflex /udieresis /yacute /thorn /ydieresis] /isolatin1encoding exch def
/cp {closepath} bind def
/c {curveto} bind def
/f {fill} bind def
/a {arc} bind def
/ef {eofill} bind def
/ex {exch} bind def
/gr {grestore} bind def
/gs {gsave} bind def
/sa {save} bind def
/rs {restore} bind def
/l {lineto} bind def
/m {moveto} bind def
/rm {rmoveto} bind def
/n {newpath} bind def
/s {stroke} bind def
/sh {show} bind def
/slc {setlinecap} bind def
/slj {setlinejoin} bind def
/slw {setlinewidth} bind def
/srgb {setrgbcolor} bind def
/rot {rotate} bind def
/sc {scale} bind def
/sd {setdash} bind def
/ff {findfont} bind def
/sf {setfont} bind def
/scf {scalefont} bind def
/sw {stringwidth pop} bind def
/tr {translate} bind def

/ellipsedict 8 dict def
ellipsedict /mtrx matrix put
/ellipse
{ ellipsedict begin
   /endangle exch def
   /startangle exch def
   /yrad exch def
   /xrad exch def
   /y exch def
   /x exch def   /savematrix mtrx currentmatrix def
   x y tr xrad yrad sc
   0 0 1 startangle endangle arc
   savematrix setmatrix
   end
} def

/mergeprocs {
dup length
3 -1 roll
dup
length
dup
5 1 roll
3 -1 roll
add
array cvx
dup
3 -1 roll
0 exch
putinterval
dup
4 2 roll
putinterval
} bind def
/Times-Roman-latin1
    /Times-Roman findfont
    dup length dict begin
	{1 index /FID ne {def} {pop pop} ifelse} forall
	/Encoding isolatin1encoding def
    currentdict end
definefont pop
/Times-Italic-latin1
    /Times-Italic findfont
    dup length dict begin
	{1 index /FID ne {def} {pop pop} ifelse} forall
	/Encoding isolatin1encoding def
    currentdict end
definefont pop
/Times-Bold-latin1
    /Times-Bold findfont
    dup length dict begin
	{1 index /FID ne {def} {pop pop} ifelse} forall
	/Encoding isolatin1encoding def
    currentdict end
definefont pop
/Times-BoldItalic-latin1
    /Times-BoldItalic findfont
    dup length dict begin
	{1 index /FID ne {def} {pop pop} ifelse} forall
	/Encoding isolatin1encoding def
    currentdict end
definefont pop
/AvantGarde-Gothic-latin1
    /AvantGarde-Gothic findfont
    dup length dict begin
	{1 index /FID ne {def} {pop pop} ifelse} forall
	/Encoding isolatin1encoding def
    currentdict end
definefont pop
/AvantGarde-BookOblique-latin1
    /AvantGarde-BookOblique findfont
    dup length dict begin
	{1 index /FID ne {def} {pop pop} ifelse} forall
	/Encoding isolatin1encoding def
    currentdict end
definefont pop
/AvantGarde-Demi-latin1
    /AvantGarde-Demi findfont
    dup length dict begin
	{1 index /FID ne {def} {pop pop} ifelse} forall
	/Encoding isolatin1encoding def
    currentdict end
definefont pop
/AvantGarde-DemiOblique-latin1
    /AvantGarde-DemiOblique findfont
    dup length dict begin
	{1 index /FID ne {def} {pop pop} ifelse} forall
	/Encoding isolatin1encoding def
    currentdict end
definefont pop
/Bookman-Light-latin1
    /Bookman-Light findfont
    dup length dict begin
	{1 index /FID ne {def} {pop pop} ifelse} forall
	/Encoding isolatin1encoding def
    currentdict end
definefont pop
/Bookman-LightItalic-latin1
    /Bookman-LightItalic findfont
    dup length dict begin
	{1 index /FID ne {def} {pop pop} ifelse} forall
	/Encoding isolatin1encoding def
    currentdict end
definefont pop
/Bookman-Demi-latin1
    /Bookman-Demi findfont
    dup length dict begin
	{1 index /FID ne {def} {pop pop} ifelse} forall
	/Encoding isolatin1encoding def
    currentdict end
definefont pop
/Bookman-DemiItalic-latin1
    /Bookman-DemiItalic findfont
    dup length dict begin
	{1 index /FID ne {def} {pop pop} ifelse} forall
	/Encoding isolatin1encoding def
    currentdict end
definefont pop
/Courier-latin1
    /Courier findfont
    dup length dict begin
	{1 index /FID ne {def} {pop pop} ifelse} forall
	/Encoding isolatin1encoding def
    currentdict end
definefont pop
/Courier-Oblique-latin1
    /Courier-Oblique findfont
    dup length dict begin
	{1 index /FID ne {def} {pop pop} ifelse} forall
	/Encoding isolatin1encoding def
    currentdict end
definefont pop
/Courier-Bold-latin1
    /Courier-Bold findfont
    dup length dict begin
	{1 index /FID ne {def} {pop pop} ifelse} forall
	/Encoding isolatin1encoding def
    currentdict end
definefont pop
/Courier-BoldOblique-latin1
    /Courier-BoldOblique findfont
    dup length dict begin
	{1 index /FID ne {def} {pop pop} ifelse} forall
	/Encoding isolatin1encoding def
    currentdict end
definefont pop
/Helvetica-latin1
    /Helvetica findfont
    dup length dict begin
	{1 index /FID ne {def} {pop pop} ifelse} forall
	/Encoding isolatin1encoding def
    currentdict end
definefont pop
/Helvetica-Oblique-latin1
    /Helvetica-Oblique findfont
    dup length dict begin
	{1 index /FID ne {def} {pop pop} ifelse} forall
	/Encoding isolatin1encoding def
    currentdict end
definefont pop
/Helvetica-Bold-latin1
    /Helvetica-Bold findfont
    dup length dict begin
	{1 index /FID ne {def} {pop pop} ifelse} forall
	/Encoding isolatin1encoding def
    currentdict end
definefont pop
/Helvetica-BoldOblique-latin1
    /Helvetica-BoldOblique findfont
    dup length dict begin
	{1 index /FID ne {def} {pop pop} ifelse} forall
	/Encoding isolatin1encoding def
    currentdict end
definefont pop
/Helvetica-Narrow-latin1
    /Helvetica-Narrow findfont
    dup length dict begin
	{1 index /FID ne {def} {pop pop} ifelse} forall
	/Encoding isolatin1encoding def
    currentdict end
definefont pop
/Helvetica-Narrow-Oblique-latin1
    /Helvetica-Narrow-Oblique findfont
    dup length dict begin
	{1 index /FID ne {def} {pop pop} ifelse} forall
	/Encoding isolatin1encoding def
    currentdict end
definefont pop
/Helvetica-Narrow-Bold-latin1
    /Helvetica-Narrow-Bold findfont
    dup length dict begin
	{1 index /FID ne {def} {pop pop} ifelse} forall
	/Encoding isolatin1encoding def
    currentdict end
definefont pop
/Helvetica-Narrow-BoldOblique-latin1
    /Helvetica-Narrow-BoldOblique findfont
    dup length dict begin
	{1 index /FID ne {def} {pop pop} ifelse} forall
	/Encoding isolatin1encoding def
    currentdict end
definefont pop
/NewCenturySchlbk-Roman-latin1
    /NewCenturySchlbk-Roman findfont
    dup length dict begin
	{1 index /FID ne {def} {pop pop} ifelse} forall
	/Encoding isolatin1encoding def
    currentdict end
definefont pop
/NewCenturySchlbk-Italic-latin1
    /NewCenturySchlbk-Italic findfont
    dup length dict begin
	{1 index /FID ne {def} {pop pop} ifelse} forall
	/Encoding isolatin1encoding def
    currentdict end
definefont pop
/NewCenturySchlbk-Bold-latin1
    /NewCenturySchlbk-Bold findfont
    dup length dict begin
	{1 index /FID ne {def} {pop pop} ifelse} forall
	/Encoding isolatin1encoding def
    currentdict end
definefont pop
/NewCenturySchlbk-BoldItalic-latin1
    /NewCenturySchlbk-BoldItalic findfont
    dup length dict begin
	{1 index /FID ne {def} {pop pop} ifelse} forall
	/Encoding isolatin1encoding def
    currentdict end
definefont pop
/Palatino-Roman-latin1
    /Palatino-Roman findfont
    dup length dict begin
	{1 index /FID ne {def} {pop pop} ifelse} forall
	/Encoding isolatin1encoding def
    currentdict end
definefont pop
/Palatino-Italic-latin1
    /Palatino-Italic findfont
    dup length dict begin
	{1 index /FID ne {def} {pop pop} ifelse} forall
	/Encoding isolatin1encoding def
    currentdict end
definefont pop
/Palatino-Bold-latin1
    /Palatino-Bold findfont
    dup length dict begin
	{1 index /FID ne {def} {pop pop} ifelse} forall
	/Encoding isolatin1encoding def
    currentdict end
definefont pop
/Palatino-BoldItalic-latin1
    /Palatino-BoldItalic findfont
    dup length dict begin
	{1 index /FID ne {def} {pop pop} ifelse} forall
	/Encoding isolatin1encoding def
    currentdict end
definefont pop
/Symbol-latin1
    /Symbol findfont
definefont pop
/ZapfChancery-MediumItalic-latin1
    /ZapfChancery-MediumItalic findfont
    dup length dict begin
	{1 index /FID ne {def} {pop pop} ifelse} forall
	/Encoding isolatin1encoding def
    currentdict end
definefont pop
/ZapfDingbats-latin1
    /ZapfDingbats findfont
    dup length dict begin
	{1 index /FID ne {def} {pop pop} ifelse} forall
	/Encoding isolatin1encoding def
    currentdict end
definefont pop
28.346000 -28.346000 scale
-7.182315 -18.577746 translate
%%EndProlog


1.000000 1.000000 1.000000 srgb
n 23.338555 4.936119 1.917912 0.958956 0 360 ellipse f
0.100000 slw
[] 0 sd
[] 0 sd
0 slj
0.000000 0.000000 0.000000 srgb
n 23.338555 4.936119 1.917912 0.958956 0 360 ellipse cp s
/Helvetica-latin1 ff 0.560000 scf sf
(Arad) dup sw 2 div 23.338555 ex sub 5.032769 m
 gs 1 -1 sc sh gr
(366) 21.297564 6.099271 m
 gs 1 -1 sc sh gr
1.000000 1.000000 1.000000 srgb
n 16.244391 9.639859 1.933405 0.966703 0 360 ellipse f
0.100000 slw
[] 0 sd
[] 0 sd
0 slj
0.000000 0.000000 0.000000 srgb
n 16.244391 9.639859 1.933405 0.966703 0 360 ellipse cp s
(Sibiu) dup sw 2 div 16.244391 ex sub 9.736509 m
 gs 1 -1 sc sh gr
1.000000 1.000000 1.000000 srgb
n 23.300000 9.601303 2.508071 1.254036 0 360 ellipse f
0.100000 slw
[] 0 sd
[] 0 sd
0 slj
0.000000 0.000000 0.000000 srgb
n 23.300000 9.601303 2.508071 1.254036 0 360 ellipse cp s
(Timesoara) dup sw 2 div 23.300000 ex sub 9.697954 m
 gs 1 -1 sc sh gr
1.000000 1.000000 1.000000 srgb
n 31.088159 9.562748 2.076480 1.038240 0 360 ellipse f
0.100000 slw
[] 0 sd
[] 0 sd
0 slj
0.000000 0.000000 0.000000 srgb
n 31.088159 9.562748 2.076480 1.038240 0 360 ellipse cp s
(Zerind) dup sw 2 div 31.088159 ex sub 9.659398 m
 gs 1 -1 sc sh gr
0.100000 slw
[] 0 sd
[] 0 sd
0 slc
n 23.338555 5.895075 m 16.756523 8.472604 l s
0 slj
n 16.665363 8.239817 m 16.290948 8.654924 l 16.847682 8.705392 l ef
0.100000 slw
[] 0 sd
0 slj
n 16.665363 8.239817 m 16.290948 8.654924 l 16.847682 8.705392 l cp s
0.100000 slw
[] 0 sd
[] 0 sd
0 slc
n 23.338555 5.895075 m 23.308646 7.797336 l s
0 slj
n 23.058677 7.793405 m 23.300786 8.297274 l 23.558616 7.801266 l ef
0.100000 slw
[] 0 sd
0 slj
n 23.058677 7.793405 m 23.300786 8.297274 l 23.558616 7.801266 l cp s
0.100000 slw
[] 0 sd
[] 0 sd
0 slc
n 23.338555 5.895075 m 30.567323 8.347789 l s
0 slj
n 30.486996 8.584532 m 31.040810 8.508442 l 30.647650 8.111045 l ef
0.100000 slw
[] 0 sd
0 slj
n 30.486996 8.584532 m 31.040810 8.508442 l 30.647650 8.111045 l cp s
(253) 18.031935 10.303515 m
 gs 1 -1 sc sh gr
(329) 25.060555 11.124741 m
 gs 1 -1 sc sh gr
(374) 33.014502 10.596534 m
 gs 1 -1 sc sh gr
1.000000 1.000000 1.000000 srgb
n 9.150226 13.071275 1.917912 0.958956 0 360 ellipse f
0.100000 slw
[] 0 sd
[] 0 sd
0 slj
0.000000 0.000000 0.000000 srgb
n 9.150226 13.071275 1.917912 0.958956 0 360 ellipse cp s
(Arad) dup sw 2 div 9.150226 ex sub 13.167925 m
 gs 1 -1 sc sh gr
1.000000 1.000000 1.000000 srgb
n 14.316629 13.186941 2.217929 1.108964 0 360 ellipse f
0.100000 slw
[] 0 sd
[] 0 sd
0 slj
0.000000 0.000000 0.000000 srgb
n 14.316629 13.186941 2.217929 1.108964 0 360 ellipse cp s
(Fagaras) dup sw 2 div 14.316629 ex sub 13.283591 m
 gs 1 -1 sc sh gr
1.000000 1.000000 1.000000 srgb
n 19.830028 13.186941 2.170006 1.085003 0 360 ellipse f
0.100000 slw
[] 0 sd
[] 0 sd
0 slj
0.000000 0.000000 0.000000 srgb
n 19.830028 13.186941 2.170006 1.085003 0 360 ellipse cp s
(Oradea) dup sw 2 div 19.830028 ex sub 13.283591 m
 gs 1 -1 sc sh gr
1.000000 1.000000 1.000000 srgb
n 25.767536 13.186941 2.879932 1.439966 0 360 ellipse f
0.100000 slw
[] 0 sd
[] 0 sd
0 slj
0.000000 0.000000 0.000000 srgb
n 25.767536 13.186941 2.879932 1.439966 0 360 ellipse cp s
(Rimnicu) dup sw 2 div 25.767536 ex sub 12.883591 m
 gs 1 -1 sc sh gr
(Vicea) dup sw 2 div 25.767536 ex sub 13.683591 m
 gs 1 -1 sc sh gr
0.100000 slw
[] 0 sd
[] 0 sd
0 slc
n 16.244391 10.606561 m 11.031527 12.229681 l s
0 slj
n 10.957205 11.990984 m 10.554134 12.378326 l 11.105850 12.468378 l ef
0.100000 slw
[] 0 sd
0 slj
n 10.957205 11.990984 m 10.554134 12.378326 l 11.105850 12.468378 l cp s
0.100000 slw
[] 0 sd
[] 0 sd
0 slc
n 16.244391 10.606561 m 15.478829 11.710442 l s
0 slj
n 15.273397 11.567971 m 15.193887 12.121305 l 15.684260 11.852912 l ef
0.100000 slw
[] 0 sd
0 slj
n 15.273397 11.567971 m 15.193887 12.121305 l 15.684260 11.852912 l cp s
0.100000 slw
[] 0 sd
[] 0 sd
0 slc
n 16.244391 10.606561 m 17.883518 12.055466 l s
0 slj
n 17.717945 12.242777 m 18.258140 12.386613 l 18.049092 11.868155 l ef
0.100000 slw
[] 0 sd
0 slj
n 17.717945 12.242777 m 18.258140 12.386613 l 18.049092 11.868155 l cp s
0.100000 slw
[] 0 sd
[] 0 sd
0 slc
n 16.244391 10.606561 m 23.192712 12.056388 l s
0 slj
n 23.141647 12.301118 m 23.682170 12.158518 l 23.243777 11.811659 l ef
0.100000 slw
[] 0 sd
0 slj
n 23.141647 12.301118 m 23.682170 12.158518 l 23.243777 11.811659 l cp s
(366) 9.511226 14.737367 m
 gs 1 -1 sc sh gr
(176) 15.730187 14.594713 m
 gs 1 -1 sc sh gr
(380) 21.293708 14.529169 m
 gs 1 -1 sc sh gr
(193) 28.437995 14.309404 m
 gs 1 -1 sc sh gr
1.000000 1.000000 1.000000 srgb
n 11.338236 16.840050 1.933405 0.966703 0 360 ellipse f
0.100000 slw
[] 0 sd
[] 0 sd
0 slj
0.000000 0.000000 0.000000 srgb
n 11.338236 16.840050 1.933405 0.966703 0 360 ellipse cp s
(Sibiu) dup sw 2 div 11.338236 ex sub 16.936700 m
 gs 1 -1 sc sh gr
1.000000 1.000000 1.000000 srgb
n 17.198633 16.647274 2.447363 1.223682 0 360 ellipse f
0.100000 slw
[] 0 sd
[] 0 sd
0 slj
0.000000 0.000000 0.000000 srgb
n 17.198633 16.647274 2.447363 1.223682 0 360 ellipse cp s
(Bucareste) dup sw 2 div 17.198633 ex sub 16.743924 m
 gs 1 -1 sc sh gr
0.100000 slw
[] 0 sd
[] 0 sd
0 slc
n 14.316629 14.295905 m 12.520748 15.620469 l s
0 slj
n 12.372355 15.419273 m 12.118357 15.917255 l 12.669141 15.821664 l ef
0.100000 slw
[] 0 sd
0 slj
n 12.372355 15.419273 m 12.118357 15.917255 l 12.669141 15.821664 l cp s
0.100000 slw
[] 0 sd
[] 0 sd
0 slc
n 14.316629 14.295905 m 14.772438 15.516369 l s
0 slj
n 14.538238 15.603836 m 14.947372 15.984768 l 15.006637 15.428902 l ef
0.100000 slw
[] 0 sd
0 slj
n 14.538238 15.603836 m 14.947372 15.984768 l 15.006637 15.428902 l cp s
(176) 12.547451 18.159145 m
 gs 1 -1 sc sh gr
(0) 19.151964 17.785159 m
 gs 1 -1 sc sh gr
showpage
