%!PS-Adobe-3.0 EPSF-3.0
%%Title: /home/filipe/UFPA/aulas/analise-de-algoritmos/notacao-assintotica/x-xlnx.eps
%%Creator: matplotlib version 1.5.1, http://matplotlib.org/
%%CreationDate: Wed Jan 25 15:45:55 2017
%%Orientation: portrait
%%BoundingBox: 18 180 594 612
%%EndComments
%%BeginProlog
/mpldict 10 dict def
mpldict begin
/m { moveto } bind def
/l { lineto } bind def
/r { rlineto } bind def
/c { curveto } bind def
/cl { closepath } bind def
/box {
m
1 index 0 r
0 exch r
neg 0 r
cl
} bind def
/clipbox {
box
clip
newpath
} bind def
%!PS-Adobe-3.0 Resource-Font
%%Title: cmmi10
%%Copyright: Copyright (C) 1994, Basil K. Malyshev. All Rights Reserved.012BaKoMa Fonts Collection, Level-B.
%%Creator: Converted from TrueType to type 3 by PPR
25 dict begin
/_d{bind def}bind def
/_m{moveto}_d
/_l{lineto}_d
/_cl{closepath eofill}_d
/_c{curveto}_d
/_sc{7 -1 roll{setcachedevice}{pop pop pop pop pop pop}ifelse}_d
/_e{exec}_d
/FontName /Cmmi10 def
/PaintType 0 def
/FontMatrix[.001 0 0 .001 0 0]def
/FontBBox[-34 -250 1048 750]def
/FontType 3 def
/Encoding [ /x /f ] def
/FontInfo 10 dict dup begin
/FamilyName (cmmi10) def
/FullName (cmmi10) def
/Notice (Copyright (C) 1994, Basil K. Malyshev. All Rights Reserved.012BaKoMa Fonts Collection, Level-B. ) def
/Weight (Regular) def
/Version (1.1/12-Nov-94) def
/ItalicAngle 0.0 def
/isFixedPitch false def
/UnderlinePosition -133 def
/UnderlineThickness 20 def
end readonly def
/CharStrings 2 dict dup begin
/x{{571 0 31 -10 526 442 _sc
78 29 _m
90 19 106 15 128 15 _c
148 15 167 25 183 45 _c
199 65 210 87 216 111 _c
261 288 _l
268 320 272 342 272 354 _c
272 370 267 385 258 397 _c
248 409 235 416 219 416 _c
198 416 178 409 160 396 _c
141 382 125 365 113 345 _c
100 325 91 304 86 284 _c
84 280 82 278 78 278 _c
66 278 _l
60 278 58 281 58 287 _c
58 290 _l
}_e{64 314 75 338 91 362 _c
107 386 126 405 149 420 _c
171 434 195 442 221 442 _c
245 442 267 435 287 422 _c
307 409 321 391 329 369 _c
340 389 354 407 372 421 _c
390 435 409 442 431 442 _c
445 442 460 439 475 434 _c
490 429 502 421 512 411 _c
521 401 526 388 526 372 _c
526 355 520 340 509 328 _c
498 316 484 310 468 310 _c
457 310 448 313 441 320 _c
}_e{433 327 430 336 430 346 _c
430 360 434 372 444 383 _c
454 393 465 400 479 402 _c
467 411 450 416 429 416 _c
407 416 389 406 373 386 _c
357 366 346 344 340 320 _c
296 143 _l
288 116 285 94 285 77 _c
285 60 289 45 299 33 _c
309 21 322 15 338 15 _c
369 15 397 28 421 56 _c
445 84 462 114 470 147 _c
471 151 474 153 478 153 _c
490 153 _l
492 153 494 152 496 150 _c
}_e{498 148 499 146 499 144 _c
499 143 498 142 498 141 _c
488 101 468 66 438 36 _c
408 5 374 -10 336 -10 _c
311 -10 289 -3 269 9 _c
249 21 236 39 228 62 _c
217 42 202 25 184 11 _c
166 -3 146 -10 126 -10 _c
111 -10 96 -7 81 -3 _c
66 1 54 9 45 19 _c
35 29 31 43 31 59 _c
31 75 36 89 47 102 _c
57 114 71 121 88 121 _c
}_e{98 121 107 117 115 111 _c
123 104 127 95 127 85 _c
127 71 122 58 113 48 _c
103 38 92 31 78 29 _c
_cl}_e}_d
/f{{489 0 53 -204 552 705 _sc
97 -164 _m
109 -173 124 -178 142 -178 _c
166 -178 185 -151 200 -99 _c
206 -73 223 9 251 151 _c
297 396 _l
211 396 _l
204 396 201 400 201 409 _c
203 423 208 431 214 431 _c
303 431 _l
315 496 _l
319 516 322 533 326 548 _c
329 562 332 576 336 588 _c
340 600 345 614 353 630 _c
364 652 379 670 399 684 _c
418 698 439 705 462 705 _c
476 705 490 702 504 697 _c
}_e{518 691 529 683 538 673 _c
547 662 552 649 552 635 _c
552 617 546 602 535 590 _c
523 578 510 572 494 572 _c
483 572 474 575 466 582 _c
458 588 455 597 455 608 _c
455 622 460 635 470 646 _c
480 657 492 663 507 665 _c
494 674 479 679 461 679 _c
451 679 441 674 432 665 _c
423 655 417 645 415 635 _c
411 617 401 571 387 497 _c
375 431 _l
478 431 _l
484 431 488 426 488 418 _c
}_e{487 416 486 413 485 409 _c
484 405 483 401 481 399 _c
479 397 477 396 475 396 _c
368 396 _l
322 152 _l
316 116 309 80 301 44 _c
293 8 283 -29 269 -68 _c
255 -106 238 -139 216 -165 _c
194 -191 169 -204 140 -204 _c
117 -204 97 -197 79 -185 _c
61 -172 53 -155 53 -134 _c
53 -116 58 -101 69 -89 _c
80 -77 94 -71 111 -71 _c
121 -71 130 -74 138 -81 _c
146 -87 150 -96 150 -107 _c
}_e{150 -121 144 -134 134 -146 _c
123 -158 111 -164 97 -164 _c
_cl}_e}_d
end readonly def

/BuildGlyph
 {exch begin
 CharStrings exch
 2 copy known not{pop /.notdef}if
 true 3 1 roll get exec
 end}_d

/BuildChar {
 1 index /Encoding get exch get
 1 index /BuildGlyph get exec
}_d

FontName currentdict end definefont pop
%!PS-Adobe-3.0 Resource-Font
%%Title: Bitstream Vera Sans
%%Copyright: Copyright (c) 2003 by Bitstream, Inc. All Rights Reserved.
%%Creator: Converted from TrueType to type 3 by PPR
25 dict begin
/_d{bind def}bind def
/_m{moveto}_d
/_l{lineto}_d
/_cl{closepath eofill}_d
/_c{curveto}_d
/_sc{7 -1 roll{setcachedevice}{pop pop pop pop pop pop}ifelse}_d
/_e{exec}_d
/FontName /BitstreamVeraSans-Roman def
/PaintType 0 def
/FontMatrix[.001 0 0 .001 0 0]def
/FontBBox[-183 -236 1287 928]def
/FontType 3 def
/Encoding [ /period /zero /one /two /three /four /five /six /seven /eight /nine ] def
/FontInfo 10 dict dup begin
/FamilyName (Bitstream Vera Sans) def
/FullName (Bitstream Vera Sans) def
/Notice (Copyright (c) 2003 by Bitstream, Inc. All Rights Reserved. Bitstream Vera is a trademark of Bitstream, Inc.) def
/Weight (Roman) def
/Version (Release 1.10) def
/ItalicAngle 0.0 def
/isFixedPitch false def
/UnderlinePosition -213 def
/UnderlineThickness 143 def
end readonly def
/CharStrings 11 dict dup begin
/period{318 0 107 0 210 124 _sc
107 124 _m
210 124 _l
210 0 _l
107 0 _l
107 124 _l
_cl}_d
/zero{636 0 66 -13 570 742 _sc
318 664 _m
267 664 229 639 203 589 _c
177 539 165 464 165 364 _c
165 264 177 189 203 139 _c
229 89 267 64 318 64 _c
369 64 407 89 433 139 _c
458 189 471 264 471 364 _c
471 464 458 539 433 589 _c
407 639 369 664 318 664 _c
318 742 _m
399 742 461 709 505 645 _c
548 580 570 486 570 364 _c
570 241 548 147 505 83 _c
461 19 399 -13 318 -13 _c
236 -13 173 19 130 83 _c
87 147 66 241 66 364 _c
66 486 87 580 130 645 _c
173 709 236 742 318 742 _c
_cl}_d
/one{636 0 110 0 544 729 _sc
124 83 _m
285 83 _l
285 639 _l
110 604 _l
110 694 _l
284 729 _l
383 729 _l
383 83 _l
544 83 _l
544 0 _l
124 0 _l
124 83 _l
_cl}_d
/two{{636 0 73 0 536 742 _sc
192 83 _m
536 83 _l
536 0 _l
73 0 _l
73 83 _l
110 121 161 173 226 239 _c
290 304 331 346 348 365 _c
380 400 402 430 414 455 _c
426 479 433 504 433 528 _c
433 566 419 598 392 622 _c
365 646 330 659 286 659 _c
255 659 222 653 188 643 _c
154 632 117 616 78 594 _c
78 694 _l
118 710 155 722 189 730 _c
223 738 255 742 284 742 _c
}_e{359 742 419 723 464 685 _c
509 647 532 597 532 534 _c
532 504 526 475 515 449 _c
504 422 484 390 454 354 _c
446 344 420 317 376 272 _c
332 227 271 164 192 83 _c
_cl}_e}_d
/three{{636 0 76 -13 556 742 _sc
406 393 _m
453 383 490 362 516 330 _c
542 298 556 258 556 212 _c
556 140 531 84 482 45 _c
432 6 362 -13 271 -13 _c
240 -13 208 -10 176 -4 _c
144 1 110 10 76 22 _c
76 117 _l
103 101 133 89 166 81 _c
198 73 232 69 268 69 _c
330 69 377 81 409 105 _c
441 129 458 165 458 212 _c
458 254 443 288 413 312 _c
383 336 341 349 287 349 _c
}_e{202 349 _l
202 430 _l
291 430 _l
339 430 376 439 402 459 _c
428 478 441 506 441 543 _c
441 580 427 609 401 629 _c
374 649 336 659 287 659 _c
260 659 231 656 200 650 _c
169 644 135 635 98 623 _c
98 711 _l
135 721 170 729 203 734 _c
235 739 266 742 296 742 _c
370 742 429 725 473 691 _c
517 657 539 611 539 553 _c
539 513 527 479 504 451 _c
481 423 448 403 406 393 _c
_cl}_e}_d
/four{636 0 49 0 580 729 _sc
378 643 _m
129 254 _l
378 254 _l
378 643 _l
352 729 _m
476 729 _l
476 254 _l
580 254 _l
580 172 _l
476 172 _l
476 0 _l
378 0 _l
378 172 _l
49 172 _l
49 267 _l
352 729 _l
_cl}_d
/five{{636 0 77 -13 549 729 _sc
108 729 _m
495 729 _l
495 646 _l
198 646 _l
198 467 _l
212 472 227 476 241 478 _c
255 480 270 482 284 482 _c
365 482 429 459 477 415 _c
525 370 549 310 549 234 _c
549 155 524 94 475 51 _c
426 8 357 -13 269 -13 _c
238 -13 207 -10 175 -6 _c
143 -1 111 6 77 17 _c
77 116 _l
106 100 136 88 168 80 _c
199 72 232 69 267 69 _c
}_e{323 69 368 83 401 113 _c
433 143 450 183 450 234 _c
450 284 433 324 401 354 _c
368 384 323 399 267 399 _c
241 399 214 396 188 390 _c
162 384 135 375 108 363 _c
108 729 _l
_cl}_e}_d
/six{{636 0 70 -13 573 742 _sc
330 404 _m
286 404 251 388 225 358 _c
199 328 186 286 186 234 _c
186 181 199 139 225 109 _c
251 79 286 64 330 64 _c
374 64 409 79 435 109 _c
461 139 474 181 474 234 _c
474 286 461 328 435 358 _c
409 388 374 404 330 404 _c
526 713 _m
526 623 _l
501 635 476 644 451 650 _c
425 656 400 659 376 659 _c
310 659 260 637 226 593 _c
}_e{192 549 172 482 168 394 _c
187 422 211 444 240 459 _c
269 474 301 482 336 482 _c
409 482 467 459 509 415 _c
551 371 573 310 573 234 _c
573 159 550 99 506 54 _c
462 9 403 -13 330 -13 _c
246 -13 181 19 137 83 _c
92 147 70 241 70 364 _c
70 479 97 571 152 639 _c
206 707 280 742 372 742 _c
396 742 421 739 447 735 _c
472 730 498 723 526 713 _c
_cl}_e}_d
/seven{636 0 82 0 551 729 _sc
82 729 _m
551 729 _l
551 687 _l
286 0 _l
183 0 _l
432 646 _l
82 646 _l
82 729 _l
_cl}_d
/eight{{636 0 68 -13 568 742 _sc
318 346 _m
271 346 234 333 207 308 _c
180 283 167 249 167 205 _c
167 161 180 126 207 101 _c
234 76 271 64 318 64 _c
364 64 401 76 428 102 _c
455 127 469 161 469 205 _c
469 249 455 283 429 308 _c
402 333 365 346 318 346 _c
219 388 _m
177 398 144 418 120 447 _c
96 476 85 511 85 553 _c
85 611 105 657 147 691 _c
188 725 245 742 318 742 _c
}_e{390 742 447 725 489 691 _c
530 657 551 611 551 553 _c
551 511 539 476 515 447 _c
491 418 459 398 417 388 _c
464 377 501 355 528 323 _c
554 291 568 251 568 205 _c
568 134 546 80 503 43 _c
459 5 398 -13 318 -13 _c
237 -13 175 5 132 43 _c
89 80 68 134 68 205 _c
68 251 81 291 108 323 _c
134 355 171 377 219 388 _c
183 544 _m
183 506 194 476 218 455 _c
}_e{242 434 275 424 318 424 _c
360 424 393 434 417 455 _c
441 476 453 506 453 544 _c
453 582 441 611 417 632 _c
393 653 360 664 318 664 _c
275 664 242 653 218 632 _c
194 611 183 582 183 544 _c
_cl}_e}_d
/nine{{636 0 63 -13 566 742 _sc
110 15 _m
110 105 _l
134 93 159 84 185 78 _c
210 72 235 69 260 69 _c
324 69 374 90 408 134 _c
442 178 462 244 468 334 _c
448 306 424 284 396 269 _c
367 254 335 247 300 247 _c
226 247 168 269 126 313 _c
84 357 63 417 63 494 _c
63 568 85 628 129 674 _c
173 719 232 742 306 742 _c
390 742 455 709 499 645 _c
543 580 566 486 566 364 _c
}_e{566 248 538 157 484 89 _c
429 21 356 -13 264 -13 _c
239 -13 214 -10 189 -6 _c
163 -2 137 5 110 15 _c
306 324 _m
350 324 385 339 411 369 _c
437 399 450 441 450 494 _c
450 546 437 588 411 618 _c
385 648 350 664 306 664 _c
262 664 227 648 201 618 _c
175 588 162 546 162 494 _c
162 441 175 399 201 369 _c
227 339 262 324 306 324 _c
_cl}_e}_d
end readonly def

/BuildGlyph
 {exch begin
 CharStrings exch
 2 copy known not{pop /.notdef}if
 true 3 1 roll get exec
 end}_d

/BuildChar {
 1 index /Encoding get exch get
 1 index /BuildGlyph get exec
}_d

FontName currentdict end definefont pop
%!PS-Adobe-3.0 Resource-Font
%%Title: cmr10
%%Copyright: Copyright (C) 1994, Basil K. Malyshev. All Rights Reserved.012BaKoMa Fonts Collection, Level-B.
%%Creator: Converted from TrueType to type 3 by PPR
25 dict begin
/_d{bind def}bind def
/_m{moveto}_d
/_l{lineto}_d
/_cl{closepath eofill}_d
/_c{curveto}_d
/_sc{7 -1 roll{setcachedevice}{pop pop pop pop pop pop}ifelse}_d
/_e{exec}_d
/FontName /Cmr10 def
/PaintType 0 def
/FontMatrix[.001 0 0 .001 0 0]def
/FontBBox[-44 -250 1009 750]def
/FontType 3 def
/Encoding [ /equal /two /parenright /parenleft ] def
/FontInfo 10 dict dup begin
/FamilyName (cmr10) def
/FullName (cmr10) def
/Notice (Copyright (C) 1994, Basil K. Malyshev. All Rights Reserved.012BaKoMa Fonts Collection, Level-B. ) def
/Weight (Regular) def
/Version (1.1/12-Nov-94) def
/ItalicAngle 0.0 def
/isFixedPitch false def
/UnderlinePosition -133 def
/UnderlineThickness 20 def
end readonly def
/CharStrings 4 dict dup begin
/equal{{777 0 56 133 721 367 _sc
75 133 _m
69 133 65 135 61 139 _c
57 143 56 148 56 153 _c
56 158 57 163 61 167 _c
65 171 69 173 75 173 _c
703 173 _l
707 173 711 171 715 167 _c
719 163 721 158 721 153 _c
721 148 719 143 715 139 _c
711 135 707 133 703 133 _c
75 133 _l
75 327 _m
69 327 65 329 61 333 _c
57 337 56 341 56 347 _c
56 351 57 356 61 360 _c
}_e{65 364 69 367 75 367 _c
703 367 _l
707 367 711 364 715 360 _c
719 356 721 351 721 347 _c
721 341 719 337 715 333 _c
711 329 707 327 703 327 _c
75 327 _l
_cl}_e}_d
/two{{500 0 50 0 449 666 _sc
50 0 _m
50 27 _l
50 28 50 30 52 32 _c
207 204 _l
230 229 249 250 264 268 _c
278 285 293 305 307 327 _c
321 349 333 372 341 396 _c
349 419 354 444 354 470 _c
354 497 349 523 339 548 _c
329 573 314 593 294 608 _c
274 623 249 631 221 631 _c
192 631 166 622 143 605 _c
119 587 103 565 94 537 _c
96 537 100 538 105 538 _c
}_e{119 538 132 533 143 523 _c
153 513 159 500 159 484 _c
159 468 153 455 143 445 _c
132 434 119 429 105 429 _c
89 429 76 434 66 445 _c
55 456 50 469 50 484 _c
50 508 54 532 64 554 _c
73 576 86 595 104 613 _c
122 630 142 643 164 652 _c
186 661 210 666 236 666 _c
274 666 309 658 342 642 _c
375 626 401 603 420 573 _c
439 543 449 509 449 470 _c
}_e{449 441 442 414 430 388 _c
417 362 401 338 381 317 _c
361 295 336 271 305 244 _c
274 217 254 199 244 190 _c
131 81 _l
227 81 _l
274 81 313 81 345 82 _c
377 82 394 84 396 86 _c
404 94 412 125 420 178 _c
449 178 _l
421 0 _l
50 0 _l
_cl}_e}_d
/parenright{{388 0 56 -249 291 750 _sc
65 -249 _m
59 -249 56 -246 56 -240 _c
56 -237 56 -235 58 -234 _c
172 -122 229 38 229 250 _c
229 462 172 623 60 733 _c
57 734 56 737 56 741 _c
56 743 57 745 59 747 _c
61 749 63 750 65 750 _c
74 750 _l
76 750 77 749 79 748 _c
127 710 167 664 199 610 _c
231 556 254 498 269 437 _c
283 376 291 314 291 250 _c
291 202 287 156 279 110 _c
}_e{271 64 258 20 241 -24 _c
223 -68 201 -108 175 -146 _c
148 -184 116 -217 79 -247 _c
77 -248 76 -249 74 -249 _c
65 -249 _l
_cl}_e}_d
/parenleft{{388 0 97 -249 332 750 _sc
310 -247 _m
272 -217 240 -184 214 -146 _c
187 -108 165 -67 148 -25 _c
131 17 118 62 110 109 _c
101 155 97 202 97 250 _c
97 298 101 345 110 392 _c
118 438 131 483 149 527 _c
166 570 188 611 215 649 _c
242 687 274 720 310 748 _c
310 749 311 750 315 750 _c
324 750 _l
326 750 327 749 329 747 _c
331 745 332 743 332 741 _c
332 738 331 736 330 735 _c
}_e{297 703 270 668 248 632 _c
226 596 209 557 196 516 _c
183 474 174 432 168 388 _c
162 344 159 298 159 250 _c
159 38 215 -122 329 -232 _c
331 -234 332 -236 332 -240 _c
332 -242 331 -244 329 -246 _c
327 -248 326 -249 324 -249 _c
315 -249 _l
311 -249 310 -248 310 -247 _c
_cl}_e}_d
end readonly def

/BuildGlyph
 {exch begin
 CharStrings exch
 2 copy known not{pop /.notdef}if
 true 3 1 roll get exec
 end}_d

/BuildChar {
 1 index /Encoding get exch get
 1 index /BuildGlyph get exec
}_d

FontName currentdict end definefont pop
end
%%EndProlog
mpldict begin
18 180 translate
576 432 0 0 clipbox
100000 setmiterlimit
gsave
0 0 m
576 0 l
576 432 l
0 432 l
cl
1.000 setgray
fill
grestore
gsave
72 43.2 m
518.4 43.2 l
518.4 388.8 l
72 388.8 l
cl
1.000 setgray
fill
grestore
1.000 setlinewidth
1 setlinejoin
2 setlinecap
[] 0 setdash
0.000 0.000 1.000 setrgbcolor
gsave
446.4 345.6 72 43.2 clipbox
72 43.2 m
518.4 158.4 l
518.4 158.4 l
stroke
grestore
0.000 0.500 0.000 setrgbcolor
gsave
446.4 345.6 72 43.2 clipbox
72 43.2 m
80.043243 43.312199 l
88.086486 43.648795 l
96.12973 44.209788 l
104.172973 44.995179 l
112.216216 46.004967 l
120.259459 47.239153 l
128.302703 48.697736 l
136.345946 50.380716 l
144.389189 52.288093 l
152.432432 54.419869 l
160.475676 56.776041 l
168.518919 59.356611 l
176.562162 62.161578 l
184.605405 65.190942 l
193.095495 68.632048 l
201.585586 72.323177 l
210.075676 76.264329 l
218.565766 80.455504 l
227.055856 84.896702 l
235.545946 89.587923 l
244.036036 94.529167 l
252.526126 99.720434 l
261.016216 105.161724 l
269.953153 111.159505 l
278.89009 117.434321 l
287.827027 123.98617 l
296.763964 130.815053 l
305.700901 137.92097 l
314.637838 145.30392 l
323.574775 152.963904 l
332.958559 161.305046 l
342.342342 169.951616 l
351.726126 178.903617 l
361.10991 188.161048 l
370.493694 197.723908 l
380.324324 208.069735 l
390.154955 218.750772 l
399.985586 229.767021 l
409.816216 241.118481 l
419.646847 252.805151 l
429.477477 264.827032 l
439.754955 277.753775 l
450.032432 291.046896 l
460.30991 304.706393 l
470.587387 318.732267 l
480.864865 333.124519 l
491.589189 348.533139 l
502.313514 364.340687 l
513.037838 380.547163 l
518.4 388.8 l
518.4 388.8 l
stroke
grestore
0 setlinejoin
0.000 setgray
gsave
72 43.2 m
72 388.8 l
stroke
grestore
gsave
72 43.2 m
518.4 43.2 l
stroke
grestore
gsave
72 388.8 m
518.4 388.8 l
stroke
grestore
gsave
518.4 43.2 m
518.4 388.8 l
stroke
grestore
0.500 setlinewidth
1 setlinejoin
0 setlinecap
gsave
/o {
gsave
newpath
translate
0.5 setlinewidth
1 setlinejoin
0 setlinecap
0 0 m
0 4 l

gsave
0.000 setgray
fill
grestore
stroke
grestore
} bind def
72 43.2 o
grestore
gsave
/o {
gsave
newpath
translate
0.5 setlinewidth
1 setlinejoin
0 setlinecap
0 0 m
0 -4 l

gsave
0.000 setgray
fill
grestore
stroke
grestore
} bind def
72 388.8 o
grestore
/BitstreamVeraSans-Roman findfont
12.000 scalefont
setfont
gsave
62.453125 30.075000 translate
0.000000 rotate
0.000000 0.000000 m /zero glyphshow
7.634766 0.000000 m /period glyphshow
11.449219 0.000000 m /zero glyphshow
grestore
gsave
/o {
gsave
newpath
translate
0.5 setlinewidth
1 setlinejoin
0 setlinecap
0 0 m
0 4 l

gsave
0.000 setgray
fill
grestore
stroke
grestore
} bind def
146.4 43.2 o
grestore
gsave
/o {
gsave
newpath
translate
0.5 setlinewidth
1 setlinejoin
0 setlinecap
0 0 m
0 -4 l

gsave
0.000 setgray
fill
grestore
stroke
grestore
} bind def
146.4 388.8 o
grestore
gsave
136.853125 30.075000 translate
0.000000 rotate
0.000000 0.000000 m /zero glyphshow
7.634766 0.000000 m /period glyphshow
11.449219 0.000000 m /five glyphshow
grestore
gsave
/o {
gsave
newpath
translate
0.5 setlinewidth
1 setlinejoin
0 setlinecap
0 0 m
0 4 l

gsave
0.000 setgray
fill
grestore
stroke
grestore
} bind def
220.8 43.2 o
grestore
gsave
/o {
gsave
newpath
translate
0.5 setlinewidth
1 setlinejoin
0 setlinecap
0 0 m
0 -4 l

gsave
0.000 setgray
fill
grestore
stroke
grestore
} bind def
220.8 388.8 o
grestore
gsave
211.253125 30.075000 translate
0.000000 rotate
0.000000 0.000000 m /one glyphshow
7.634766 0.000000 m /period glyphshow
11.449219 0.000000 m /zero glyphshow
grestore
gsave
/o {
gsave
newpath
translate
0.5 setlinewidth
1 setlinejoin
0 setlinecap
0 0 m
0 4 l

gsave
0.000 setgray
fill
grestore
stroke
grestore
} bind def
295.2 43.2 o
grestore
gsave
/o {
gsave
newpath
translate
0.5 setlinewidth
1 setlinejoin
0 setlinecap
0 0 m
0 -4 l

gsave
0.000 setgray
fill
grestore
stroke
grestore
} bind def
295.2 388.8 o
grestore
gsave
285.653125 30.075000 translate
0.000000 rotate
0.000000 0.000000 m /one glyphshow
7.634766 0.000000 m /period glyphshow
11.449219 0.000000 m /five glyphshow
grestore
gsave
/o {
gsave
newpath
translate
0.5 setlinewidth
1 setlinejoin
0 setlinecap
0 0 m
0 4 l

gsave
0.000 setgray
fill
grestore
stroke
grestore
} bind def
369.6 43.2 o
grestore
gsave
/o {
gsave
newpath
translate
0.5 setlinewidth
1 setlinejoin
0 setlinecap
0 0 m
0 -4 l

gsave
0.000 setgray
fill
grestore
stroke
grestore
} bind def
369.6 388.8 o
grestore
gsave
360.053125 30.075000 translate
0.000000 rotate
0.000000 0.000000 m /two glyphshow
7.634766 0.000000 m /period glyphshow
11.449219 0.000000 m /zero glyphshow
grestore
gsave
/o {
gsave
newpath
translate
0.5 setlinewidth
1 setlinejoin
0 setlinecap
0 0 m
0 4 l

gsave
0.000 setgray
fill
grestore
stroke
grestore
} bind def
444 43.2 o
grestore
gsave
/o {
gsave
newpath
translate
0.5 setlinewidth
1 setlinejoin
0 setlinecap
0 0 m
0 -4 l

gsave
0.000 setgray
fill
grestore
stroke
grestore
} bind def
444 388.8 o
grestore
gsave
434.453125 30.075000 translate
0.000000 rotate
0.000000 0.000000 m /two glyphshow
7.634766 0.000000 m /period glyphshow
11.449219 0.000000 m /five glyphshow
grestore
gsave
/o {
gsave
newpath
translate
0.5 setlinewidth
1 setlinejoin
0 setlinecap
0 0 m
0 4 l

gsave
0.000 setgray
fill
grestore
stroke
grestore
} bind def
518.4 43.2 o
grestore
gsave
/o {
gsave
newpath
translate
0.5 setlinewidth
1 setlinejoin
0 setlinecap
0 0 m
0 -4 l

gsave
0.000 setgray
fill
grestore
stroke
grestore
} bind def
518.4 388.8 o
grestore
gsave
508.853125 30.075000 translate
0.000000 rotate
0.000000 0.000000 m /three glyphshow
7.634766 0.000000 m /period glyphshow
11.449219 0.000000 m /zero glyphshow
grestore
gsave
/o {
gsave
newpath
translate
0.5 setlinewidth
1 setlinejoin
0 setlinecap
0 0 m
4 0 l

gsave
0.000 setgray
fill
grestore
stroke
grestore
} bind def
72 43.2 o
grestore
gsave
/o {
gsave
newpath
translate
0.5 setlinewidth
1 setlinejoin
0 setlinecap
0 0 m
-4 0 l

gsave
0.000 setgray
fill
grestore
stroke
grestore
} bind def
518.4 43.2 o
grestore
gsave
60.359375 39.887500 translate
0.000000 rotate
0.000000 0.000000 m /zero glyphshow
grestore
gsave
/o {
gsave
newpath
translate
0.5 setlinewidth
1 setlinejoin
0 setlinecap
0 0 m
4 0 l

gsave
0.000 setgray
fill
grestore
stroke
grestore
} bind def
72 81.6 o
grestore
gsave
/o {
gsave
newpath
translate
0.5 setlinewidth
1 setlinejoin
0 setlinecap
0 0 m
-4 0 l

gsave
0.000 setgray
fill
grestore
stroke
grestore
} bind def
518.4 81.6 o
grestore
gsave
60.359375 78.287500 translate
0.000000 rotate
0.000000 0.000000 m /one glyphshow
grestore
gsave
/o {
gsave
newpath
translate
0.5 setlinewidth
1 setlinejoin
0 setlinecap
0 0 m
4 0 l

gsave
0.000 setgray
fill
grestore
stroke
grestore
} bind def
72 120 o
grestore
gsave
/o {
gsave
newpath
translate
0.5 setlinewidth
1 setlinejoin
0 setlinecap
0 0 m
-4 0 l

gsave
0.000 setgray
fill
grestore
stroke
grestore
} bind def
518.4 120 o
grestore
gsave
60.359375 116.687500 translate
0.000000 rotate
0.000000 0.000000 m /two glyphshow
grestore
gsave
/o {
gsave
newpath
translate
0.5 setlinewidth
1 setlinejoin
0 setlinecap
0 0 m
4 0 l

gsave
0.000 setgray
fill
grestore
stroke
grestore
} bind def
72 158.4 o
grestore
gsave
/o {
gsave
newpath
translate
0.5 setlinewidth
1 setlinejoin
0 setlinecap
0 0 m
-4 0 l

gsave
0.000 setgray
fill
grestore
stroke
grestore
} bind def
518.4 158.4 o
grestore
gsave
60.359375 155.087500 translate
0.000000 rotate
0.000000 0.000000 m /three glyphshow
grestore
gsave
/o {
gsave
newpath
translate
0.5 setlinewidth
1 setlinejoin
0 setlinecap
0 0 m
4 0 l

gsave
0.000 setgray
fill
grestore
stroke
grestore
} bind def
72 196.8 o
grestore
gsave
/o {
gsave
newpath
translate
0.5 setlinewidth
1 setlinejoin
0 setlinecap
0 0 m
-4 0 l

gsave
0.000 setgray
fill
grestore
stroke
grestore
} bind def
518.4 196.8 o
grestore
gsave
60.359375 193.487500 translate
0.000000 rotate
0.000000 0.000000 m /four glyphshow
grestore
gsave
/o {
gsave
newpath
translate
0.5 setlinewidth
1 setlinejoin
0 setlinecap
0 0 m
4 0 l

gsave
0.000 setgray
fill
grestore
stroke
grestore
} bind def
72 235.2 o
grestore
gsave
/o {
gsave
newpath
translate
0.5 setlinewidth
1 setlinejoin
0 setlinecap
0 0 m
-4 0 l

gsave
0.000 setgray
fill
grestore
stroke
grestore
} bind def
518.4 235.2 o
grestore
gsave
60.359375 231.887500 translate
0.000000 rotate
0.000000 0.000000 m /five glyphshow
grestore
gsave
/o {
gsave
newpath
translate
0.5 setlinewidth
1 setlinejoin
0 setlinecap
0 0 m
4 0 l

gsave
0.000 setgray
fill
grestore
stroke
grestore
} bind def
72 273.6 o
grestore
gsave
/o {
gsave
newpath
translate
0.5 setlinewidth
1 setlinejoin
0 setlinecap
0 0 m
-4 0 l

gsave
0.000 setgray
fill
grestore
stroke
grestore
} bind def
518.4 273.6 o
grestore
gsave
60.359375 270.287500 translate
0.000000 rotate
0.000000 0.000000 m /six glyphshow
grestore
gsave
/o {
gsave
newpath
translate
0.5 setlinewidth
1 setlinejoin
0 setlinecap
0 0 m
4 0 l

gsave
0.000 setgray
fill
grestore
stroke
grestore
} bind def
72 312 o
grestore
gsave
/o {
gsave
newpath
translate
0.5 setlinewidth
1 setlinejoin
0 setlinecap
0 0 m
-4 0 l

gsave
0.000 setgray
fill
grestore
stroke
grestore
} bind def
518.4 312 o
grestore
gsave
60.359375 308.687500 translate
0.000000 rotate
0.000000 0.000000 m /seven glyphshow
grestore
gsave
/o {
gsave
newpath
translate
0.5 setlinewidth
1 setlinejoin
0 setlinecap
0 0 m
4 0 l

gsave
0.000 setgray
fill
grestore
stroke
grestore
} bind def
72 350.4 o
grestore
gsave
/o {
gsave
newpath
translate
0.5 setlinewidth
1 setlinejoin
0 setlinecap
0 0 m
-4 0 l

gsave
0.000 setgray
fill
grestore
stroke
grestore
} bind def
518.4 350.4 o
grestore
gsave
60.359375 347.087500 translate
0.000000 rotate
0.000000 0.000000 m /eight glyphshow
grestore
gsave
/o {
gsave
newpath
translate
0.5 setlinewidth
1 setlinejoin
0 setlinecap
0 0 m
4 0 l

gsave
0.000 setgray
fill
grestore
stroke
grestore
} bind def
72 388.8 o
grestore
gsave
/o {
gsave
newpath
translate
0.5 setlinewidth
1 setlinejoin
0 setlinecap
0 0 m
-4 0 l

gsave
0.000 setgray
fill
grestore
stroke
grestore
} bind def
518.4 388.8 o
grestore
gsave
60.359375 385.487500 translate
0.000000 rotate
0.000000 0.000000 m /nine glyphshow
grestore
1.000 setlinewidth
0 setlinejoin
gsave
401.36 330.88 m
511.2 330.88 l
511.2 381.6 l
401.36 381.6 l
cl
gsave
1.000 setgray
fill
grestore
stroke
grestore
1 setlinejoin
2 setlinecap
0.000 0.000 1.000 setrgbcolor
gsave
411.44 369.88 m
431.6 369.88 l
stroke
grestore
0.000 setgray
gsave
447.440000 364.840000 translate
0.000000 rotate
/Cmmi10 findfont
14.399999999999999 scalefont
setfont
0.000000 0.203125 moveto
/f glyphshow

/Cmr10 findfont
14.399999999999999 scalefont
setfont
7.033691 0.203125 moveto
/parenleft glyphshow

/Cmmi10 findfont
14.399999999999999 scalefont
setfont
12.619888 0.203125 moveto
/x glyphshow

/Cmr10 findfont
14.399999999999999 scalefont
setfont
20.834061 0.203125 moveto
/parenright glyphshow

28.947049 0.203125 moveto
/equal glyphshow

/Cmmi10 findfont
14.399999999999999 scalefont
setfont
42.653268 0.203125 moveto
/x glyphshow


grestore
0.000 0.500 0.000 setrgbcolor
gsave
411.44 345.68 m
431.6 345.68 l
stroke
grestore
0.000 setgray
gsave
447.440000 340.640000 translate
0.000000 rotate
/Cmmi10 findfont
14.399999999999999 scalefont
setfont
0.000000 0.785288 moveto
/f glyphshow

/Cmr10 findfont
14.399999999999999 scalefont
setfont
7.033691 0.785288 moveto
/parenleft glyphshow

/Cmmi10 findfont
14.399999999999999 scalefont
setfont
12.619888 0.785288 moveto
/x glyphshow

/Cmr10 findfont
14.399999999999999 scalefont
setfont
20.834061 0.785288 moveto
/parenright glyphshow

28.947049 0.785288 moveto
/equal glyphshow

/Cmmi10 findfont
14.399999999999999 scalefont
setfont
42.653268 0.785288 moveto
/x glyphshow

/Cmr10 findfont
10.079999999999998 scalefont
setfont
51.774352 6.295313 moveto
/two glyphshow


grestore

end
showpage
