%!PS-Adobe-3.0 EPSF-3.0 
%%BoundingBox: 0 0 451 278
%%Pages: 0
%%Creator: LibreOffice 5.3
%%Title: none
%%CreationDate: none
%%LanguageLevel: 2
%%EndComments
%%BeginProlog
%%BeginResource: procset SDRes-Prolog 1.0 0
/b4_inc_state save def
/dict_count countdictstack def
/op_count count 1 sub def
userdict begin
0 setgray 0 setlinecap 1 setlinewidth 0 setlinejoin 10 setmiterlimit[] 0 setdash newpath
/languagelevel where {pop languagelevel 1 ne {false setstrokeadjust false setoverprint} if} if
/bdef {bind def} bind def
/c {setgray} bdef
/l {neg lineto} bdef
/rl {neg rlineto} bdef
/lc {setlinecap} bdef
/lj {setlinejoin} bdef
/lw {setlinewidth} bdef
/ml {setmiterlimit} bdef
/ld {setdash} bdef
/m {neg moveto} bdef
/ct {6 2 roll neg 6 2 roll neg 6 2 roll neg curveto} bdef
/r {rotate} bdef
/t {neg translate} bdef
/s {scale} bdef
/sw {show} bdef
/gs {gsave} bdef
/gr {grestore} bdef
/f {findfont dup length dict begin
{1 index /FID ne {def} {pop pop} ifelse} forall /Encoding ISOLatin1Encoding def
currentdict end /NFont exch definefont pop /NFont findfont} bdef
/p {closepath} bdef
/sf {scalefont setfont} bdef
/ef {eofill}bdef
/pc {closepath stroke}bdef
/ps {stroke}bdef
/pum {matrix currentmatrix}bdef
/pom {setmatrix}bdef
/bs {/aString exch def /nXOfs exch def /nWidth exch def currentpoint nXOfs 0 rmoveto pum nWidth aString stringwidth pop div 1 scale aString show pom moveto} bdef
%%EndResource
%%EndProlog
%%BeginSetup
%%EndSetup
%%Page: 1 1
%%BeginPageSetup
%%EndPageSetup
pum
0.02836 0.02836 s 
0 -9801 t
/tm matrix currentmatrix def
tm setmatrix
-3899 -11197 t 
1 1 s 
0.996 c 10399 12797 m  8499 12797 l  8499 11198 l  12298 11198 l  12298 12797 l 
10399 12797 l  p ef
0 lw 1 lj 0.000 c 10398 12797 m  8498 12797 l  8498 11197 l  12298 11197 l 
12298 12797 l  10398 12797 l  pc
pum
9591 12125 t
188 0 m  141 0 l  2 -339 l  51 -339 l  144 -100 l  165 -40 l  185 -100 l 
278 -339 l  327 -339 l  188 0 l  p ef
367 -121 m  367 -91 374 -68 386 -52 ct 398 -36 416 -27 440 -27 ct 459 -27 474 -31 485 -39 ct 
497 -46 504 -56 508 -67 ct 546 -57 l  531 -16 495 5 440 5 ct 402 5 372 -6 352 -29 ct 
332 -52 322 -86 322 -132 ct 322 -175 332 -208 352 -231 ct 372 -254 401 -265 438 -265 ct 
515 -265 553 -219 553 -127 ct 553 -121 l  367 -121 l  p
509 -154 m  506 -181 499 -201 488 -214 ct 476 -227 459 -233 438 -233 ct 417 -233 400 -226 388 -212 ct 
376 -198 369 -179 368 -154 ct 509 -154 l  p ef
623 0 m  623 -260 l  666 -260 l  666 0 l  623 0 l  p
609 -289 m  609 -294 l  661 -363 l  711 -363 l  711 -356 l  631 -289 l 
609 -289 l  p ef
777 -131 m  777 -97 783 -71 794 -54 ct 804 -38 821 -29 843 -29 ct 858 -29 871 -33 882 -42 ct 
892 -50 898 -63 901 -80 ct 945 -77 l  941 -52 930 -32 912 -17 ct 895 -2 872 5 844 5 ct 
808 5 780 -7 761 -30 ct 742 -53 732 -86 732 -130 ct 732 -174 742 -207 761 -230 ct 
780 -253 808 -265 844 -265 ct 870 -265 892 -258 910 -244 ct 928 -230 939 -211 943 -187 ct 
899 -184 l  896 -198 891 -210 881 -218 ct 872 -227 859 -231 842 -231 ct 819 -231 803 -223 793 -208 ct 
782 -193 777 -167 777 -131 ct p ef
1033 -260 m  1033 -95 l  1033 -78 1034 -65 1038 -55 ct 1041 -46 1046 -39 1054 -35 ct 
1061 -31 1072 -28 1086 -28 ct 1107 -28 1124 -36 1136 -50 ct 1148 -64 1154 -84 1154 -109 ct 
1154 -260 l  1197 -260 l  1197 -55 l  1197 -25 1197 -7 1198 0 ct 1158 0 l 
1157 -1 1157 -3 1157 -6 ct 1157 -10 1157 -14 1156 -18 ct 1156 -23 1156 -32 1156 -44 ct 
1155 -44 l  1145 -26 1133 -14 1120 -6 ct 1107 1 1091 5 1072 5 ct 1043 5 1022 -2 1009 -16 ct 
996 -30 989 -54 989 -87 ct 989 -260 l  1033 -260 l  p ef
1265 0 m  1265 -357 l  1309 -357 l  1309 0 l  1265 0 l  p ef
1595 -130 m  1595 -85 1585 -51 1565 -28 ct 1545 -6 1516 5 1478 5 ct 1440 5 1411 -7 1392 -30 ct 
1372 -53 1363 -86 1363 -130 ct 1363 -220 1402 -265 1479 -265 ct 1519 -265 1549 -254 1567 -232 ct 
1586 -210 1595 -176 1595 -130 ct p
1550 -130 m  1550 -166 1545 -192 1534 -209 ct 1523 -225 1505 -233 1480 -233 ct 
1455 -233 1436 -225 1425 -208 ct 1414 -191 1408 -166 1408 -130 ct 1408 -96 1414 -70 1425 -53 ct 
1436 -36 1454 -27 1478 -27 ct 1504 -27 1522 -35 1533 -52 ct 1544 -69 1550 -95 1550 -130 ct 
p ef
pom
0.996 c 10399 15997 m  8499 15997 l  8499 14397 l  12298 14397 l  12298 15997 l 
10399 15997 l  p ef
0.000 c 10398 15996 m  8498 15996 l  8498 14397 l  12298 14397 l  12298 15996 l 
10398 15996 l  pc
pum
9440 15324 t
281 0 m  242 -99 l  88 -99 l  49 0 l  1 0 l  139 -339 l  192 -339 l  328 0 l 
281 0 l  p
165 -304 m  163 -297 l  159 -284 153 -267 145 -246 ct 102 -135 l  228 -135 l 
185 -247 l  180 -258 176 -270 171 -284 ct 165 -304 l  p ef
443 4 m  409 4 385 -7 370 -29 ct 354 -51 347 -85 347 -129 ct 347 -220 379 -265 443 -265 ct 
462 -265 479 -262 491 -255 ct 504 -248 515 -236 524 -220 ct 524 -220 l  524 -225 524 -233 525 -245 ct 
526 -257 526 -263 527 -263 ct 569 -263 l  568 -253 567 -230 567 -192 ct 567 102 l 
524 102 l  524 -4 l  525 -43 l  524 -43 l  515 -26 505 -14 492 -7 ct 479 1 463 4 443 4 ct 
p
524 -133 m  524 -167 518 -192 507 -209 ct 496 -225 478 -233 454 -233 ct 432 -233 416 -225 407 -209 ct 
397 -192 392 -166 392 -131 ct 392 -94 397 -68 407 -53 ct 416 -37 432 -29 454 -29 ct 
478 -29 496 -38 507 -55 ct 518 -73 524 -99 524 -133 ct p ef
677 -260 m  677 -95 l  677 -78 678 -65 682 -55 ct 685 -46 690 -39 698 -35 ct 
705 -31 716 -28 730 -28 ct 751 -28 768 -36 780 -50 ct 792 -64 798 -84 798 -109 ct 
798 -260 l  841 -260 l  841 -55 l  841 -25 841 -7 842 0 ct 802 0 l  801 -1 801 -3 801 -6 ct 
801 -10 801 -14 800 -18 ct 800 -23 800 -32 800 -44 ct 799 -44 l  789 -26 777 -14 764 -6 ct 
751 1 735 5 716 5 ct 687 5 666 -2 653 -16 ct 640 -30 633 -54 633 -87 ct 633 -260 l 
677 -260 l  p ef
976 5 m  950 5 930 -2 917 -16 ct 904 -29 897 -48 897 -72 ct 897 -99 906 -120 924 -135 ct 
941 -149 970 -157 1009 -158 ct 1068 -159 l  1068 -173 l  1068 -194 1063 -209 1054 -218 ct 
1045 -227 1031 -232 1012 -232 ct 993 -232 978 -229 970 -222 ct 961 -216 956 -205 954 -191 ct 
909 -195 l  916 -242 951 -265 1013 -265 ct 1046 -265 1070 -257 1087 -242 ct 
1103 -227 1112 -206 1112 -177 ct 1112 -65 l  1112 -52 1113 -42 1117 -36 ct 1120 -29 1127 -26 1136 -26 ct 
1140 -26 1145 -27 1150 -28 ct 1150 -1 l  1139 2 1128 3 1117 3 ct 1101 3 1089 -1 1082 -10 ct 
1074 -18 1070 -32 1069 -50 ct 1068 -50 l  1057 -30 1044 -16 1029 -7 ct 1015 1 997 5 976 5 ct 
p
986 -27 m  1001 -27 1016 -31 1028 -38 ct 1040 -46 1050 -55 1057 -68 ct 1064 -81 1068 -94 1068 -107 ct 
1068 -128 l  1020 -127 l  1000 -127 985 -125 974 -121 ct 964 -117 956 -111 950 -103 ct 
944 -95 941 -85 941 -72 ct 941 -58 945 -47 953 -39 ct 961 -31 971 -27 986 -27 ct 
p
975 -289 m  975 -293 l  1027 -363 l  1077 -363 l  1077 -356 l  998 -289 l 
975 -289 l  p ef
1284 -2 m  1270 2 1255 4 1241 4 ct 1206 4 1189 -16 1189 -55 ct 1189 -229 l  1158 -229 l 
1158 -260 l  1190 -260 l  1203 -318 l  1232 -318 l  1232 -260 l  1280 -260 l 
1280 -229 l  1232 -229 l  1232 -64 l  1232 -52 1234 -43 1238 -38 ct 1242 -33 1249 -30 1259 -30 ct 
1265 -30 1273 -32 1284 -34 ct 1284 -2 l  p ef
1320 -316 m  1320 -357 l  1363 -357 l  1363 -316 l  1320 -316 l  p
1320 0 m  1320 -260 l  1363 -260 l  1363 0 l  1320 0 l  p ef
1463 -131 m  1463 -97 1469 -71 1480 -54 ct 1490 -38 1507 -29 1529 -29 ct 1544 -29 1557 -33 1568 -42 ct 
1578 -50 1584 -63 1587 -80 ct 1631 -77 l  1627 -52 1616 -32 1598 -17 ct 1581 -2 1558 5 1530 5 ct 
1494 5 1466 -7 1447 -30 ct 1428 -53 1418 -86 1418 -130 ct 1418 -174 1428 -207 1447 -230 ct 
1466 -253 1494 -265 1530 -265 ct 1556 -265 1578 -258 1596 -244 ct 1614 -230 1625 -211 1629 -187 ct 
1585 -184 l  1582 -198 1577 -210 1567 -218 ct 1558 -227 1545 -231 1528 -231 ct 
1505 -231 1489 -223 1479 -208 ct 1468 -193 1463 -167 1463 -131 ct p ef
1896 -130 m  1896 -85 1886 -51 1866 -28 ct 1846 -6 1817 5 1779 5 ct 1741 5 1712 -7 1693 -30 ct 
1673 -53 1664 -86 1664 -130 ct 1664 -220 1703 -265 1780 -265 ct 1820 -265 1850 -254 1868 -232 ct 
1887 -210 1896 -176 1896 -130 ct p
1851 -130 m  1851 -166 1846 -192 1835 -209 ct 1824 -225 1806 -233 1781 -233 ct 
1756 -233 1737 -225 1726 -208 ct 1715 -191 1709 -166 1709 -130 ct 1709 -96 1715 -70 1726 -53 ct 
1737 -36 1755 -27 1779 -27 ct 1805 -27 1823 -35 1834 -52 ct 1845 -69 1851 -95 1851 -130 ct 
p ef
pom
0.996 c 5799 15997 m  3900 15997 l  3900 14397 l  7699 14397 l  7699 15997 l 
5799 15997 l  p ef
0.000 c 5799 15996 m  3899 15996 l  3899 14397 l  7699 14397 l  7699 15996 l 
5799 15996 l  pc
pum
5141 15324 t
281 0 m  242 -99 l  88 -99 l  49 0 l  1 0 l  139 -339 l  192 -339 l  328 0 l 
281 0 l  p
165 -304 m  163 -297 l  159 -284 153 -267 145 -246 ct 102 -135 l  228 -135 l 
185 -247 l  180 -258 176 -270 171 -284 ct 165 -304 l  p ef
392 -121 m  392 -91 399 -68 411 -52 ct 423 -36 441 -27 465 -27 ct 484 -27 499 -31 510 -39 ct 
522 -46 529 -56 533 -67 ct 571 -57 l  556 -16 520 5 465 5 ct 427 5 397 -6 377 -29 ct 
357 -52 347 -86 347 -132 ct 347 -175 357 -208 377 -231 ct 397 -254 426 -265 463 -265 ct 
540 -265 578 -219 578 -127 ct 578 -121 l  392 -121 l  p
534 -154 m  531 -181 524 -201 513 -214 ct 501 -227 484 -233 463 -233 ct 442 -233 425 -226 413 -212 ct 
401 -198 394 -179 393 -154 ct 534 -154 l  p
432 -289 m  432 -293 l  484 -363 l  534 -363 l  534 -356 l  455 -289 l 
432 -289 l  p ef
635 0 m  635 -200 l  635 -218 635 -238 634 -260 ct 675 -260 l  676 -231 677 -213 677 -207 ct 
678 -207 l  684 -229 692 -245 701 -253 ct 710 -261 723 -265 739 -265 ct 745 -265 751 -264 757 -263 ct 
757 -223 l  751 -225 744 -225 734 -225 ct 716 -225 702 -218 693 -202 ct 683 -187 679 -164 679 -136 ct 
679 0 l  635 0 l  p ef
832 -121 m  832 -91 839 -68 851 -52 ct 863 -36 881 -27 905 -27 ct 924 -27 939 -31 950 -39 ct 
962 -46 969 -56 973 -67 ct 1011 -57 l  996 -16 960 5 905 5 ct 867 5 837 -6 817 -29 ct 
797 -52 787 -86 787 -132 ct 787 -175 797 -208 817 -231 ct 837 -254 866 -265 903 -265 ct 
980 -265 1018 -219 1018 -127 ct 1018 -121 l  832 -121 l  p
974 -154 m  971 -181 964 -201 953 -214 ct 941 -227 924 -233 903 -233 ct 882 -233 865 -226 853 -212 ct 
841 -198 834 -179 833 -154 ct 974 -154 l  p ef
1294 -130 m  1294 -85 1284 -51 1264 -28 ct 1244 -6 1215 5 1177 5 ct 1139 5 1110 -7 1091 -30 ct 
1071 -53 1062 -86 1062 -130 ct 1062 -220 1101 -265 1178 -265 ct 1218 -265 1248 -254 1266 -232 ct 
1285 -210 1294 -176 1294 -130 ct p
1249 -130 m  1249 -166 1244 -192 1233 -209 ct 1222 -225 1204 -233 1179 -233 ct 
1154 -233 1135 -225 1124 -208 ct 1113 -191 1107 -166 1107 -130 ct 1107 -96 1113 -70 1124 -53 ct 
1135 -36 1153 -27 1177 -27 ct 1203 -27 1221 -35 1232 -52 ct 1243 -69 1249 -95 1249 -130 ct 
p ef
pom
0.996 c 15198 15997 m  13298 15997 l  13298 14397 l  17098 14397 l  17098 15997 l 
15198 15997 l  p ef
0.000 c 15198 15996 m  13298 15996 l  13298 14397 l  17097 14397 l  17097 15996 l 
15198 15996 l  pc
pum
14225 15324 t
173 -301 m  173 1 l  128 1 l  128 -301 l  11 -301 l  11 -339 l  290 -339 l 
290 -301 l  173 -301 l  p ef
312 -121 m  312 -91 319 -68 331 -52 ct 343 -36 361 -27 385 -27 ct 404 -27 419 -31 430 -39 ct 
442 -46 449 -56 453 -67 ct 491 -57 l  476 -16 440 5 385 5 ct 347 5 317 -6 297 -29 ct 
277 -52 267 -86 267 -132 ct 267 -175 277 -208 297 -231 ct 317 -254 346 -265 383 -265 ct 
460 -265 498 -219 498 -127 ct 498 -121 l  312 -121 l  p
454 -154 m  451 -181 444 -201 433 -214 ct 421 -227 404 -233 383 -233 ct 362 -233 345 -226 333 -212 ct 
321 -198 314 -179 313 -154 ct 454 -154 l  p ef
555 0 m  555 -200 l  555 -218 555 -238 554 -260 ct 595 -260 l  596 -231 597 -213 597 -207 ct 
598 -207 l  604 -229 612 -245 621 -253 ct 630 -261 643 -265 659 -265 ct 665 -265 671 -264 677 -263 ct 
677 -223 l  671 -225 664 -225 654 -225 ct 636 -225 622 -218 613 -202 ct 603 -187 599 -164 599 -136 ct 
599 0 l  555 0 l  p ef
720 0 m  720 -200 l  720 -218 720 -238 719 -260 ct 760 -260 l  761 -231 762 -213 762 -207 ct 
763 -207 l  769 -229 777 -245 786 -253 ct 795 -261 808 -265 824 -265 ct 830 -265 836 -264 842 -263 ct 
842 -223 l  836 -225 829 -225 819 -225 ct 801 -225 787 -218 778 -202 ct 768 -187 764 -164 764 -136 ct 
764 0 l  720 0 l  p ef
917 -121 m  917 -91 924 -68 936 -52 ct 948 -36 966 -27 990 -27 ct 1009 -27 1024 -31 1035 -39 ct 
1047 -46 1054 -56 1058 -67 ct 1096 -57 l  1081 -16 1045 5 990 5 ct 952 5 922 -6 902 -29 ct 
882 -52 872 -86 872 -132 ct 872 -175 882 -208 902 -231 ct 922 -254 951 -265 988 -265 ct 
1065 -265 1103 -219 1103 -127 ct 1103 -121 l  917 -121 l  p
1059 -154 m  1056 -181 1049 -201 1038 -214 ct 1026 -227 1009 -233 988 -233 ct 
967 -233 950 -226 938 -212 ct 926 -198 919 -179 918 -154 ct 1059 -154 l  p ef
1355 -72 m  1355 -47 1345 -28 1327 -15 ct 1308 -2 1282 5 1249 5 ct 1217 5 1192 0 1174 -11 ct 
1156 -22 1145 -38 1140 -61 ct 1178 -68 l  1182 -54 1189 -44 1201 -38 ct 1212 -31 1228 -28 1249 -28 ct 
1271 -28 1287 -31 1297 -38 ct 1307 -45 1313 -55 1313 -68 ct 1313 -79 1309 -87 1302 -93 ct 
1295 -100 1284 -105 1268 -109 ct 1237 -117 l  1212 -124 1194 -130 1184 -136 ct 
1173 -142 1165 -150 1159 -159 ct 1153 -168 1150 -178 1150 -191 ct 1150 -215 1159 -233 1175 -245 ct 
1192 -258 1217 -264 1249 -264 ct 1278 -264 1301 -259 1318 -249 ct 1335 -239 1346 -223 1350 -200 ct 
1311 -195 l  1309 -207 1302 -216 1292 -222 ct 1281 -228 1267 -231 1249 -231 ct 
1230 -231 1215 -228 1206 -222 ct 1197 -216 1192 -207 1192 -195 ct 1192 -188 1194 -182 1198 -177 ct 
1202 -172 1208 -168 1215 -165 ct 1223 -162 1239 -157 1263 -151 ct 1286 -145 1302 -140 1312 -135 ct 
1322 -130 1330 -125 1336 -119 ct 1342 -113 1347 -106 1350 -98 ct 1353 -90 1355 -82 1355 -72 ct 
p ef
1505 -2 m  1491 2 1476 4 1462 4 ct 1427 4 1410 -16 1410 -55 ct 1410 -229 l  1379 -229 l 
1379 -260 l  1411 -260 l  1424 -318 l  1453 -318 l  1453 -260 l  1501 -260 l 
1501 -229 l  1453 -229 l  1453 -64 l  1453 -52 1455 -43 1459 -38 ct 1463 -33 1470 -30 1480 -30 ct 
1486 -30 1494 -32 1505 -34 ct 1505 -2 l  p ef
1541 0 m  1541 -200 l  1541 -218 1541 -238 1540 -260 ct 1581 -260 l  1582 -231 1583 -213 1583 -207 ct 
1584 -207 l  1590 -229 1598 -245 1607 -253 ct 1616 -261 1629 -265 1645 -265 ct 
1651 -265 1657 -264 1663 -263 ct 1663 -223 l  1657 -225 1650 -225 1640 -225 ct 
1622 -225 1608 -218 1599 -202 ct 1589 -187 1585 -164 1585 -136 ct 1585 0 l  1541 0 l 
p ef
1738 -121 m  1738 -91 1745 -68 1757 -52 ct 1769 -36 1787 -27 1811 -27 ct 1830 -27 1845 -31 1856 -39 ct 
1868 -46 1875 -56 1879 -67 ct 1917 -57 l  1902 -16 1866 5 1811 5 ct 1773 5 1743 -6 1723 -29 ct 
1703 -52 1693 -86 1693 -132 ct 1693 -175 1703 -208 1723 -231 ct 1743 -254 1772 -265 1809 -265 ct 
1886 -265 1924 -219 1924 -127 ct 1924 -121 l  1738 -121 l  p
1880 -154 m  1877 -181 1870 -201 1859 -214 ct 1847 -227 1830 -233 1809 -233 ct 
1788 -233 1771 -226 1759 -212 ct 1747 -198 1740 -179 1739 -154 ct 1880 -154 l 
p ef
pom
0.996 c 5799 18796 m  3900 18796 l  3900 17196 l  7699 17196 l  7699 18796 l 
5799 18796 l  p ef
0.000 c 5799 18796 m  3899 18796 l  3899 17196 l  7699 17196 l  7699 18796 l 
5799 18796 l  pc
pum
5188 18123 t
281 0 m  242 -99 l  88 -99 l  49 0 l  1 0 l  139 -339 l  192 -339 l  328 0 l 
281 0 l  p
165 -304 m  163 -297 l  159 -284 153 -267 145 -246 ct 102 -135 l  228 -135 l 
185 -247 l  180 -258 176 -270 171 -284 ct 165 -304 l  p ef
466 0 m  414 0 l  320 -260 l  366 -260 l  423 -91 l  425 -84 431 -65 440 -34 ct 
448 -62 l  458 -90 l  517 -260 l  563 -260 l  466 0 l  p ef
596 -316 m  596 -357 l  639 -357 l  639 -316 l  596 -316 l  p
596 0 m  596 -260 l  639 -260 l  639 0 l  596 0 l  p ef
773 5 m  747 5 727 -2 714 -16 ct 701 -29 694 -48 694 -72 ct 694 -99 703 -120 721 -135 ct 
738 -149 767 -157 806 -158 ct 865 -159 l  865 -173 l  865 -194 860 -209 851 -218 ct 
842 -227 828 -232 809 -232 ct 790 -232 775 -229 767 -222 ct 758 -216 753 -205 751 -191 ct 
706 -195 l  713 -242 748 -265 810 -265 ct 843 -265 867 -257 884 -242 ct 900 -227 909 -206 909 -177 ct 
909 -65 l  909 -52 910 -42 914 -36 ct 917 -29 924 -26 933 -26 ct 937 -26 942 -27 947 -28 ct 
947 -1 l  936 2 925 3 914 3 ct 898 3 886 -1 879 -10 ct 871 -18 867 -32 866 -50 ct 
865 -50 l  854 -30 841 -16 826 -7 ct 812 1 794 5 773 5 ct p
783 -27 m  798 -27 813 -31 825 -38 ct 837 -46 847 -55 854 -68 ct 861 -81 865 -94 865 -107 ct 
865 -128 l  817 -127 l  797 -127 782 -125 771 -121 ct 761 -117 753 -111 747 -103 ct 
741 -95 738 -85 738 -72 ct 738 -58 742 -47 750 -39 ct 758 -31 768 -27 783 -27 ct 
p
850 -289 m  844 -289 837 -290 830 -293 ct 823 -296 817 -300 811 -303 ct 804 -307 798 -310 793 -313 ct 
787 -316 782 -317 777 -317 ct 768 -317 761 -315 757 -310 ct 753 -305 750 -298 748 -289 ct 
726 -289 l  728 -305 731 -318 735 -326 ct 739 -334 744 -341 750 -346 ct 757 -351 765 -353 775 -353 ct 
782 -353 789 -352 796 -349 ct 803 -346 809 -342 816 -339 ct 822 -335 828 -332 833 -329 ct 
839 -326 844 -325 849 -325 ct 865 -325 874 -334 877 -353 ct 899 -353 l  896 -329 891 -313 883 -303 ct 
875 -294 864 -289 850 -289 ct p ef
1201 -130 m  1201 -85 1191 -51 1171 -28 ct 1151 -6 1122 5 1084 5 ct 1046 5 1017 -7 998 -30 ct 
978 -53 969 -86 969 -130 ct 969 -220 1008 -265 1085 -265 ct 1125 -265 1155 -254 1173 -232 ct 
1192 -210 1201 -176 1201 -130 ct p
1156 -130 m  1156 -166 1151 -192 1140 -209 ct 1129 -225 1111 -233 1086 -233 ct 
1061 -233 1042 -225 1031 -208 ct 1020 -191 1014 -166 1014 -130 ct 1014 -96 1020 -70 1031 -53 ct 
1042 -36 1060 -27 1084 -27 ct 1110 -27 1128 -35 1139 -52 ct 1150 -69 1156 -95 1156 -130 ct 
p ef
pom
0.996 c 10399 18796 m  8499 18796 l  8499 17196 l  12298 17196 l  12298 18796 l 
10399 18796 l  p ef
0.000 c 10398 18796 m  8498 18796 l  8498 17196 l  12298 17196 l  12298 18796 l 
10398 18796 l  pc
pum
9768 18123 t
260 0 m  79 -289 l  80 -265 l  81 -225 l  81 0 l  40 0 l  40 -339 l  94 -339 l 
277 -48 l  275 -80 274 -103 274 -117 ct 274 -339 l  316 -339 l  316 0 l  260 0 l 
p ef
456 5 m  430 5 410 -2 397 -16 ct 384 -29 377 -48 377 -72 ct 377 -99 386 -120 404 -135 ct 
421 -149 450 -157 489 -158 ct 548 -159 l  548 -173 l  548 -194 543 -209 534 -218 ct 
525 -227 511 -232 492 -232 ct 473 -232 458 -229 450 -222 ct 441 -216 436 -205 434 -191 ct 
389 -195 l  396 -242 431 -265 493 -265 ct 526 -265 550 -257 567 -242 ct 583 -227 592 -206 592 -177 ct 
592 -65 l  592 -52 593 -42 597 -36 ct 600 -29 607 -26 616 -26 ct 620 -26 625 -27 630 -28 ct 
630 -1 l  619 2 608 3 597 3 ct 581 3 569 -1 562 -10 ct 554 -18 550 -32 549 -50 ct 
548 -50 l  537 -30 524 -16 509 -7 ct 495 1 477 5 456 5 ct p
466 -27 m  481 -27 496 -31 508 -38 ct 520 -46 530 -55 537 -68 ct 544 -81 548 -94 548 -107 ct 
548 -128 l  500 -127 l  480 -127 465 -125 454 -121 ct 444 -117 436 -111 430 -103 ct 
424 -95 421 -85 421 -72 ct 421 -58 425 -47 433 -39 ct 441 -31 451 -27 466 -27 ct 
p ef
779 0 m  727 0 l  633 -260 l  679 -260 l  736 -91 l  738 -84 744 -65 753 -34 ct 
761 -62 l  771 -90 l  830 -260 l  876 -260 l  779 0 l  p ef
909 -316 m  909 -357 l  952 -357 l  952 -316 l  909 -316 l  p
909 0 m  909 -260 l  952 -260 l  952 0 l  909 0 l  p ef
1239 -130 m  1239 -85 1229 -51 1209 -28 ct 1189 -6 1160 5 1122 5 ct 1084 5 1055 -7 1036 -30 ct 
1016 -53 1007 -86 1007 -130 ct 1007 -220 1046 -265 1123 -265 ct 1163 -265 1193 -254 1211 -232 ct 
1230 -210 1239 -176 1239 -130 ct p
1194 -130 m  1194 -166 1189 -192 1178 -209 ct 1167 -225 1149 -233 1124 -233 ct 
1099 -233 1080 -225 1069 -208 ct 1058 -191 1052 -166 1052 -130 ct 1052 -96 1058 -70 1069 -53 ct 
1080 -36 1098 -27 1122 -27 ct 1148 -27 1166 -35 1177 -52 ct 1188 -69 1194 -95 1194 -130 ct 
p ef
pom
0.996 c 13398 20996 m  11499 20996 l  11499 19396 l  15298 19396 l  15298 20996 l 
13398 20996 l  p ef
0.000 c 13398 20995 m  11498 20995 l  11498 19396 l  15298 19396 l  15298 20995 l 
13398 20995 l  pc
pum
12850 20323 t
329 0 m  329 -226 l  329 -251 330 -275 331 -298 ct 323 -270 316 -247 310 -231 ct 
222 0 l  190 0 l  101 -231 l  88 -272 l  80 -298 l  80 -272 l  81 -226 l 
81 0 l  40 0 l  40 -339 l  101 -339 l  191 -104 l  194 -94 197 -84 200 -74 ct 
203 -63 205 -55 206 -50 ct 208 -56 210 -66 214 -79 ct 218 -92 221 -101 223 -104 ct 
311 -339 l  370 -339 l  370 0 l  329 0 l  p ef
664 -130 m  664 -85 654 -51 634 -28 ct 614 -6 585 5 547 5 ct 509 5 480 -7 461 -30 ct 
441 -53 432 -86 432 -130 ct 432 -220 471 -265 548 -265 ct 588 -265 618 -254 636 -232 ct 
655 -210 664 -176 664 -130 ct p
619 -130 m  619 -166 614 -192 603 -209 ct 592 -225 574 -233 549 -233 ct 524 -233 505 -225 494 -208 ct 
483 -191 477 -166 477 -130 ct 477 -96 483 -70 494 -53 ct 505 -36 523 -27 547 -27 ct 
573 -27 591 -35 602 -52 ct 613 -69 619 -95 619 -130 ct p ef
819 -2 m  805 2 790 4 776 4 ct 741 4 724 -16 724 -55 ct 724 -229 l  693 -229 l 
693 -260 l  725 -260 l  738 -318 l  767 -318 l  767 -260 l  815 -260 l 
815 -229 l  767 -229 l  767 -64 l  767 -52 769 -43 773 -38 ct 777 -33 784 -30 794 -30 ct 
800 -30 808 -32 819 -34 ct 819 -2 l  p ef
1074 -130 m  1074 -85 1064 -51 1044 -28 ct 1024 -6 995 5 957 5 ct 919 5 890 -7 871 -30 ct 
851 -53 842 -86 842 -130 ct 842 -220 881 -265 958 -265 ct 998 -265 1028 -254 1046 -232 ct 
1065 -210 1074 -176 1074 -130 ct p
1029 -130 m  1029 -166 1024 -192 1013 -209 ct 1002 -225 984 -233 959 -233 ct 
934 -233 915 -225 904 -208 ct 893 -191 887 -166 887 -130 ct 887 -96 893 -70 904 -53 ct 
915 -36 933 -27 957 -27 ct 983 -27 1001 -35 1012 -52 ct 1023 -69 1029 -95 1029 -130 ct 
p ef
pom
0.996 c 17898 20996 m  15998 20996 l  15998 19396 l  19798 19396 l  19798 20996 l 
17898 20996 l  p ef
0.000 c 17897 20995 m  15997 20995 l  15997 19396 l  19797 19396 l  19797 20995 l 
17897 20995 l  pc
pum
17280 20323 t
191 -306 m  153 -306 124 -294 103 -270 ct 82 -246 72 -213 72 -171 ct 72 -129 83 -96 104 -71 ct 
126 -45 156 -33 193 -33 ct 240 -33 276 -56 300 -103 ct 337 -84 l  323 -55 304 -33 278 -18 ct 
253 -3 224 5 190 5 ct 156 5 127 -2 102 -16 ct 77 -30 58 -51 45 -77 ct 32 -103 25 -135 25 -171 ct 
25 -225 40 -267 69 -298 ct 98 -328 139 -344 190 -344 ct 226 -344 256 -336 281 -322 ct 
305 -308 323 -287 334 -260 ct 291 -245 l  283 -265 270 -280 253 -290 ct 235 -301 215 -306 191 -306 ct 
p ef
456 5 m  430 5 410 -2 397 -16 ct 384 -29 377 -48 377 -72 ct 377 -99 386 -120 404 -135 ct 
421 -149 450 -157 489 -158 ct 548 -159 l  548 -173 l  548 -194 543 -209 534 -218 ct 
525 -227 511 -232 492 -232 ct 473 -232 458 -229 450 -222 ct 441 -216 436 -205 434 -191 ct 
389 -195 l  396 -242 431 -265 493 -265 ct 526 -265 550 -257 567 -242 ct 583 -227 592 -206 592 -177 ct 
592 -65 l  592 -52 593 -42 597 -36 ct 600 -29 607 -26 616 -26 ct 620 -26 625 -27 630 -28 ct 
630 -1 l  619 2 608 3 597 3 ct 581 3 569 -1 562 -10 ct 554 -18 550 -32 549 -50 ct 
548 -50 l  537 -30 524 -16 509 -7 ct 495 1 477 5 456 5 ct p
466 -27 m  481 -27 496 -31 508 -38 ct 520 -46 530 -55 537 -68 ct 544 -81 548 -94 548 -107 ct 
548 -128 l  500 -127 l  480 -127 465 -125 454 -121 ct 444 -117 436 -111 430 -103 ct 
424 -95 421 -85 421 -72 ct 421 -58 425 -47 433 -39 ct 441 -31 451 -27 466 -27 ct 
p ef
665 0 m  665 -200 l  665 -218 665 -238 664 -260 ct 705 -260 l  706 -231 707 -213 707 -207 ct 
708 -207 l  714 -229 722 -245 731 -253 ct 740 -261 753 -265 769 -265 ct 775 -265 781 -264 787 -263 ct 
787 -223 l  781 -225 774 -225 764 -225 ct 746 -225 732 -218 723 -202 ct 713 -187 709 -164 709 -136 ct 
709 0 l  665 0 l  p ef
830 0 m  830 -200 l  830 -218 830 -238 829 -260 ct 870 -260 l  871 -231 872 -213 872 -207 ct 
873 -207 l  879 -229 887 -245 896 -253 ct 905 -261 918 -265 934 -265 ct 940 -265 946 -264 952 -263 ct 
952 -223 l  946 -225 939 -225 929 -225 ct 911 -225 897 -218 888 -202 ct 878 -187 874 -164 874 -136 ct 
874 0 l  830 0 l  p ef
1214 -130 m  1214 -85 1204 -51 1184 -28 ct 1164 -6 1135 5 1097 5 ct 1059 5 1030 -7 1011 -30 ct 
991 -53 982 -86 982 -130 ct 982 -220 1021 -265 1098 -265 ct 1138 -265 1168 -254 1186 -232 ct 
1205 -210 1214 -176 1214 -130 ct p
1169 -130 m  1169 -166 1164 -192 1153 -209 ct 1142 -225 1124 -233 1099 -233 ct 
1074 -233 1055 -225 1044 -208 ct 1033 -191 1027 -166 1027 -130 ct 1027 -96 1033 -70 1044 -53 ct 
1055 -36 1073 -27 1097 -27 ct 1123 -27 1141 -35 1152 -52 ct 1163 -69 1169 -95 1169 -130 ct 
p ef
pom
10398 12797 m  10398 14397 l  ps
10398 12797 m  5799 14397 l  ps
10398 12797 m  15198 14397 l  ps
5799 15996 m  5799 17196 l  ps
10398 15996 m  10398 17196 l  ps
15198 15996 m  13398 19396 l  ps
15198 15996 m  17897 19396 l  ps
0 9801 t 
pom
count op_count sub {pop} repeat countdictstack dict_count sub {end} repeat b4_inc_state restore
%%PageTrailer
%%Trailer
%%EOF
