%!PS-Adobe-3.0 EPSF-3.0 
%%BoundingBox: 0 0 485 196
%%Pages: 0
%%Creator: LibreOffice 5.3
%%Title: none
%%CreationDate: none
%%LanguageLevel: 2
%%EndComments
%%BeginProlog
%%BeginResource: procset SDRes-Prolog 1.0 0
/b4_inc_state save def
/dict_count countdictstack def
/op_count count 1 sub def
userdict begin
0 setgray 0 setlinecap 1 setlinewidth 0 setlinejoin 10 setmiterlimit[] 0 setdash newpath
/languagelevel where {pop languagelevel 1 ne {false setstrokeadjust false setoverprint} if} if
/bdef {bind def} bind def
/c {setgray} bdef
/l {neg lineto} bdef
/rl {neg rlineto} bdef
/lc {setlinecap} bdef
/lj {setlinejoin} bdef
/lw {setlinewidth} bdef
/ml {setmiterlimit} bdef
/ld {setdash} bdef
/m {neg moveto} bdef
/ct {6 2 roll neg 6 2 roll neg 6 2 roll neg curveto} bdef
/r {rotate} bdef
/t {neg translate} bdef
/s {scale} bdef
/sw {show} bdef
/gs {gsave} bdef
/gr {grestore} bdef
/f {findfont dup length dict begin
{1 index /FID ne {def} {pop pop} ifelse} forall /Encoding ISOLatin1Encoding def
currentdict end /NFont exch definefont pop /NFont findfont} bdef
/p {closepath} bdef
/sf {scalefont setfont} bdef
/ef {eofill}bdef
/pc {closepath stroke}bdef
/ps {stroke}bdef
/pum {matrix currentmatrix}bdef
/pom {setmatrix}bdef
/bs {/aString exch def /nXOfs exch def /nWidth exch def currentpoint nXOfs 0 rmoveto pum nWidth aString stringwidth pop div 1 scale aString show pom moveto} bdef
%%EndResource
%%EndProlog
%%BeginSetup
%%EndSetup
%%Page: 1 1
%%BeginPageSetup
%%EndPageSetup
pum
0.02834 0.02835 s 
0 -6912 t
/tm matrix currentmatrix def
tm setmatrix
-6990 -10994 t 
1 1 s 
0.996 c 9699 10995 m  10039 10995 10299 11255 10299 11595 ct 10299 11935 10039 12195 9699 12195 ct 
9359 12195 9099 11935 9099 11595 ct 9099 11255 9359 10995 9699 10995 ct p
9099 10995 m  9099 10995 l  p
10300 12196 m  10300 12196 l  p ef
0 lw 1 lj 0.000 c 9698 10995 m  10038 10995 10298 11255 10298 11594 ct 10298 11934 10038 12194 9698 12194 ct 
9358 12194 9098 11934 9098 11594 ct 9098 11255 9358 10995 9698 10995 ct pc
9098 10995 m  9098 10995 l  pc
10299 12195 m  10299 12195 l  pc
pum
9422 11655 t
256 0 m  256 -213 l  256 -235 254 -252 249 -264 ct 245 -277 238 -285 229 -291 ct 
219 -296 205 -299 187 -299 ct 160 -299 139 -290 123 -271 ct 108 -253 100 -227 100 -195 ct 
100 0 l  44 0 l  44 -264 l  44 -303 43 -327 42 -336 ct 95 -336 l  95 -335 95 -332 96 -327 ct 
96 -323 96 -318 96 -312 ct 97 -306 97 -295 97 -278 ct 98 -278 l  111 -302 126 -318 143 -328 ct 
160 -337 181 -342 206 -342 ct 242 -342 269 -333 286 -315 ct 303 -296 312 -266 312 -224 ct 
312 0 l  256 0 l  p ef
pom
pum
9773 11922 t
28 0 m  28 -27 l  93 -27 l  93 -222 l  35 -181 l  35 -212 l  95 -253 l 
125 -253 l  125 -27 l  187 -27 l  187 0 l  28 0 l  p ef
pom
0.996 c 7599 13894 m  7939 13894 8199 14154 8199 14494 ct 8199 14834 7939 15093 7599 15093 ct 
7259 15093 6999 14834 6999 14494 ct 6999 14154 7259 13894 7599 13894 ct p
6999 13894 m  6999 13894 l  p
8200 15094 m  8200 15094 l  p ef
17.99504 lw 0.000 c 7599 13893 m  7939 13893 8199 14153 8199 14493 ct 8199 14833 7939 15093 7599 15093 ct 
7259 15093 6999 14833 6999 14493 ct 6999 14153 7259 13893 7599 13893 ct pc
6999 13893 m  6999 13893 l  pc
8200 15094 m  8200 15094 l  pc
pum
7322 14554 t
256 0 m  256 -213 l  256 -235 254 -252 249 -264 ct 245 -277 238 -285 229 -291 ct 
219 -296 205 -299 187 -299 ct 160 -299 139 -290 123 -271 ct 108 -253 100 -227 100 -195 ct 
100 0 l  44 0 l  44 -264 l  44 -303 43 -327 42 -336 ct 95 -336 l  95 -335 95 -332 96 -327 ct 
96 -323 96 -318 96 -312 ct 97 -306 97 -295 97 -278 ct 98 -278 l  111 -302 126 -318 143 -328 ct 
160 -337 181 -342 206 -342 ct 242 -342 269 -333 286 -315 ct 303 -296 312 -266 312 -224 ct 
312 0 l  256 0 l  p ef
pom
pum
7673 14821 t
19 0 m  19 -23 l  25 -37 32 -49 41 -60 ct 50 -71 59 -80 69 -89 ct 78 -98 88 -106 97 -113 ct 
107 -121 116 -128 123 -136 ct 131 -143 137 -151 142 -159 ct 147 -167 149 -176 149 -187 ct 
149 -200 145 -211 137 -219 ct 129 -227 117 -230 103 -230 ct 89 -230 78 -227 69 -219 ct 
60 -212 55 -201 53 -188 ct 20 -191 l  22 -211 31 -227 46 -239 ct 61 -251 80 -257 103 -257 ct 
128 -257 148 -251 162 -239 ct 175 -227 182 -210 182 -188 ct 182 -178 180 -168 175 -158 ct 
171 -149 164 -139 155 -129 ct 147 -120 130 -104 105 -84 ct 91 -73 80 -63 72 -54 ct 
64 -45 58 -36 54 -27 ct 186 -27 l  186 0 l  19 0 l  p ef
pom
0.996 c 11699 13894 m  12039 13894 12299 14154 12299 14494 ct 12299 14834 12039 15093 11699 15093 ct 
11359 15093 11099 14834 11099 14494 ct 11099 14154 11359 13894 11699 13894 ct 
p
11099 13894 m  11099 13894 l  p
12300 15094 m  12300 15094 l  p ef
0 lw 0.000 c 11698 13893 m  12038 13893 12298 14153 12298 14493 ct 12298 14833 12038 15093 11698 15093 ct 
11358 15093 11098 14833 11098 14493 ct 11098 14153 11358 13893 11698 13893 ct 
pc
11098 13893 m  11098 13893 l  pc
12299 15094 m  12299 15094 l  pc
pum
11422 14554 t
256 0 m  256 -213 l  256 -235 254 -252 249 -264 ct 245 -277 238 -285 229 -291 ct 
219 -296 205 -299 187 -299 ct 160 -299 139 -290 123 -271 ct 108 -253 100 -227 100 -195 ct 
100 0 l  44 0 l  44 -264 l  44 -303 43 -327 42 -336 ct 95 -336 l  95 -335 95 -332 96 -327 ct 
96 -323 96 -318 96 -312 ct 97 -306 97 -295 97 -278 ct 98 -278 l  111 -302 126 -318 143 -328 ct 
160 -337 181 -342 206 -342 ct 242 -342 269 -333 286 -315 ct 303 -296 312 -266 312 -224 ct 
312 0 l  256 0 l  p ef
pom
pum
11773 14821 t
189 -69 m  189 -46 181 -28 166 -15 ct 151 -2 130 4 103 4 ct 77 4 57 -2 41 -13 ct 
26 -25 17 -42 14 -64 ct 47 -67 l  52 -38 70 -23 103 -23 ct 119 -23 132 -27 141 -35 ct 
150 -43 155 -55 155 -70 ct 155 -84 150 -95 139 -102 ct 128 -110 113 -114 93 -114 ct 
75 -114 l  75 -142 l  92 -142 l  110 -142 124 -146 134 -154 ct 143 -161 148 -172 148 -186 ct 
148 -200 144 -210 136 -218 ct 128 -226 117 -230 101 -230 ct 87 -230 75 -226 66 -219 ct 
57 -212 52 -201 51 -188 ct 18 -190 l  21 -211 29 -227 44 -239 ct 59 -251 78 -257 101 -257 ct 
127 -257 146 -251 160 -239 ct 174 -227 181 -210 181 -189 ct 181 -173 177 -160 168 -150 ct 
159 -140 146 -133 128 -129 ct 128 -128 l  147 -126 162 -120 173 -109 ct 183 -99 189 -85 189 -69 ct 
p ef
pom
0.996 c 11700 16694 m  12040 16694 12300 16954 12300 17293 ct 12300 17633 12040 17893 11700 17893 ct 
11360 17893 11100 17633 11100 17293 ct 11100 16954 11360 16694 11700 16694 ct 
p
11100 16694 m  11100 16694 l  p
12301 17894 m  12301 17894 l  p ef
0.000 c 11699 16693 m  12039 16693 12299 16953 12299 17293 ct 12299 17633 12039 17893 11699 17893 ct 
11359 17893 11099 17633 11099 17293 ct 11099 16953 11359 16693 11699 16693 ct 
pc
11099 16693 m  11099 16693 l  pc
12300 17894 m  12300 17894 l  pc
pum
11423 17353 t
256 0 m  256 -213 l  256 -235 254 -252 249 -264 ct 245 -277 238 -285 229 -291 ct 
219 -296 205 -299 187 -299 ct 160 -299 139 -290 123 -271 ct 108 -253 100 -227 100 -195 ct 
100 0 l  44 0 l  44 -264 l  44 -303 43 -327 42 -336 ct 95 -336 l  95 -335 95 -332 96 -327 ct 
96 -323 96 -318 96 -312 ct 97 -306 97 -295 97 -278 ct 98 -278 l  111 -302 126 -318 143 -328 ct 
160 -337 181 -342 206 -342 ct 242 -342 269 -333 286 -315 ct 303 -296 312 -266 312 -224 ct 
312 0 l  256 0 l  p ef
pom
pum
11774 17620 t
189 -82 m  189 -55 181 -34 165 -19 ct 150 -4 128 4 99 4 ct 76 4 57 -1 42 -11 ct 
28 -22 19 -37 15 -56 ct 47 -60 l  54 -35 72 -22 100 -22 ct 117 -22 131 -28 141 -38 ct 
151 -49 156 -63 156 -81 ct 156 -97 151 -110 141 -120 ct 131 -130 118 -135 101 -135 ct 
92 -135 84 -133 76 -130 ct 69 -128 61 -123 54 -116 ct 22 -116 l  31 -253 l  174 -253 l 
174 -226 l  60 -226 l  55 -145 l  69 -156 87 -161 107 -161 ct 132 -161 152 -154 167 -139 ct 
182 -124 189 -105 189 -82 ct p ef
pom
0.996 c 9501 16695 m  9841 16695 10101 16955 10101 17294 ct 10101 17634 9841 17894 9501 17894 ct 
9161 17894 8901 17634 8901 17294 ct 8901 16955 9161 16695 9501 16695 ct p
8901 16695 m  8901 16695 l  p
10102 17895 m  10102 17895 l  p ef
0.000 c 9500 16694 m  9840 16694 10100 16954 10100 17294 ct 10100 17634 9840 17894 9500 17894 ct 
9160 17894 8900 17634 8900 17294 ct 8900 16954 9160 16694 9500 16694 ct pc
8900 16694 m  8900 16694 l  pc
10101 17895 m  10101 17895 l  pc
pum
9224 17354 t
256 0 m  256 -213 l  256 -235 254 -252 249 -264 ct 245 -277 238 -285 229 -291 ct 
219 -296 205 -299 187 -299 ct 160 -299 139 -290 123 -271 ct 108 -253 100 -227 100 -195 ct 
100 0 l  44 0 l  44 -264 l  44 -303 43 -327 42 -336 ct 95 -336 l  95 -335 95 -332 96 -327 ct 
96 -323 96 -318 96 -312 ct 97 -306 97 -295 97 -278 ct 98 -278 l  111 -302 126 -318 143 -328 ct 
160 -337 181 -342 206 -342 ct 242 -342 269 -333 286 -315 ct 303 -296 312 -266 312 -224 ct 
312 0 l  256 0 l  p ef
pom
pum
9575 17621 t
158 -57 m  158 1 l  128 1 l  128 -57 l  8 -57 l  8 -82 l  124 -253 l  158 -253 l 
158 -83 l  194 -83 l  194 -57 l  158 -57 l  p
128 -217 m  128 -216 126 -213 123 -207 ct 120 -201 117 -197 116 -195 ct 51 -99 l 
41 -86 l  38 -83 l  128 -83 l  128 -217 l  p ef
pom
0.996 c 13900 16695 m  14240 16695 14500 16955 14500 17294 ct 14500 17634 14240 17894 13900 17894 ct 
13560 17894 13300 17634 13300 17294 ct 13300 16955 13560 16695 13900 16695 ct 
p
13300 16695 m  13300 16695 l  p
14501 17895 m  14501 17895 l  p ef
0.000 c 13900 16694 m  14240 16694 14500 16954 14500 17294 ct 14500 17634 14240 17894 13900 17894 ct 
13560 17894 13300 17634 13300 17294 ct 13300 16954 13560 16694 13900 16694 ct 
pc
13300 16694 m  13300 16694 l  pc
14501 17895 m  14501 17895 l  pc
pum
13623 17354 t
256 0 m  256 -213 l  256 -235 254 -252 249 -264 ct 245 -277 238 -285 229 -291 ct 
219 -296 205 -299 187 -299 ct 160 -299 139 -290 123 -271 ct 108 -253 100 -227 100 -195 ct 
100 0 l  44 0 l  44 -264 l  44 -303 43 -327 42 -336 ct 95 -336 l  95 -335 95 -332 96 -327 ct 
96 -323 96 -318 96 -312 ct 97 -306 97 -295 97 -278 ct 98 -278 l  111 -302 126 -318 143 -328 ct 
160 -337 181 -342 206 -342 ct 242 -342 269 -333 286 -315 ct 303 -296 312 -266 312 -224 ct 
312 0 l  256 0 l  p ef
pom
pum
13974 17621 t
189 -82 m  189 -56 181 -35 167 -19 ct 152 -4 132 4 107 4 ct 78 4 56 -7 41 -28 ct 
26 -49 19 -80 19 -120 ct 19 -164 27 -198 42 -221 ct 58 -245 80 -256 109 -256 ct 
147 -256 172 -239 181 -205 ct 151 -199 l  144 -220 130 -230 109 -230 ct 90 -230 76 -221 66 -204 ct 
56 -187 51 -162 51 -130 ct 57 -140 65 -149 76 -154 ct 86 -160 99 -163 112 -163 ct 
136 -163 154 -156 168 -141 ct 182 -127 189 -107 189 -82 ct p
156 -81 m  156 -99 151 -113 142 -123 ct 133 -133 121 -138 105 -138 ct 89 -138 77 -134 68 -125 ct 
59 -116 54 -104 54 -89 ct 54 -69 59 -53 69 -41 ct 78 -28 91 -22 106 -22 ct 121 -22 133 -27 142 -38 ct 
151 -48 156 -63 156 -81 ct p ef
pom
9273 12019 m  7599 13893 l  ps
10123 12019 m  11698 13893 l  ps
11273 14918 m  9500 16694 l  ps
11698 15093 m  11699 16693 l  ps
12123 14918 m  13900 16694 l  ps
0.996 c 19295 10996 m  19635 10996 19895 11256 19895 11596 ct 19895 11936 19635 12196 19295 12196 ct 
18955 12196 18695 11936 18695 11596 ct 18695 11256 18955 10996 19295 10996 ct 
p
18695 10996 m  18695 10996 l  p
19896 12197 m  19896 12197 l  p ef
0.000 c 19294 10996 m  19634 10996 19894 11256 19894 11595 ct 19894 11935 19634 12195 19294 12195 ct 
18954 12195 18694 11935 18694 11595 ct 18694 11256 18954 10996 19294 10996 ct 
pc
18694 10996 m  18694 10996 l  pc
19895 12196 m  19895 12196 l  pc
pum
19018 11656 t
256 0 m  256 -213 l  256 -235 254 -252 249 -264 ct 245 -277 238 -285 229 -291 ct 
219 -296 205 -299 187 -299 ct 160 -299 139 -290 123 -271 ct 108 -253 100 -227 100 -195 ct 
100 0 l  44 0 l  44 -264 l  44 -303 43 -327 42 -336 ct 95 -336 l  95 -335 95 -332 96 -327 ct 
96 -323 96 -318 96 -312 ct 97 -306 97 -295 97 -278 ct 98 -278 l  111 -302 126 -318 143 -328 ct 
160 -337 181 -342 206 -342 ct 242 -342 269 -333 286 -315 ct 303 -296 312 -266 312 -224 ct 
312 0 l  256 0 l  p ef
pom
pum
19369 11923 t
186 -227 m  160 -188 142 -157 131 -134 ct 121 -112 113 -90 107 -68 ct 102 -46 99 -24 99 -1 ct 
66 -1 l  66 -33 72 -67 86 -103 ct 100 -138 123 -179 155 -226 ct 19 -226 l  19 -253 l 
186 -253 l  186 -227 l  p ef
pom
0.996 c 17195 13895 m  17535 13895 17795 14155 17795 14495 ct 17795 14835 17535 15094 17195 15094 ct 
16855 15094 16595 14835 16595 14495 ct 16595 14155 16855 13895 17195 13895 ct 
p
16595 13895 m  16595 13895 l  p
17796 15095 m  17796 15095 l  p ef
17.99504 lw 0.000 c 17194 13894 m  17534 13894 17794 14154 17794 14494 ct 
17794 14834 17534 15094 17194 15094 ct 16855 15094 16595 14834 16595 14494 ct 
16595 14154 16855 13894 17194 13894 ct pc
16595 13894 m  16595 13894 l  pc
17795 15095 m  17795 15095 l  pc
pum
16918 14555 t
256 0 m  256 -213 l  256 -235 254 -252 249 -264 ct 245 -277 238 -285 229 -291 ct 
219 -296 205 -299 187 -299 ct 160 -299 139 -290 123 -271 ct 108 -253 100 -227 100 -195 ct 
100 0 l  44 0 l  44 -264 l  44 -303 43 -327 42 -336 ct 95 -336 l  95 -335 95 -332 96 -327 ct 
96 -323 96 -318 96 -312 ct 97 -306 97 -295 97 -278 ct 98 -278 l  111 -302 126 -318 143 -328 ct 
160 -337 181 -342 206 -342 ct 242 -342 269 -333 286 -315 ct 303 -296 312 -266 312 -224 ct 
312 0 l  256 0 l  p ef
pom
pum
17269 14822 t
189 -70 m  189 -47 181 -29 166 -16 ct 152 -3 130 4 102 4 ct 75 4 54 -2 39 -15 ct 
24 -28 16 -46 16 -70 ct 16 -86 21 -100 30 -112 ct 40 -123 52 -130 66 -132 ct 66 -133 l 
53 -136 42 -143 34 -154 ct 26 -164 22 -177 22 -191 ct 22 -211 29 -226 44 -238 ct 
58 -250 77 -256 102 -256 ct 127 -256 146 -250 161 -239 ct 175 -227 182 -211 182 -191 ct 
182 -177 178 -164 170 -153 ct 162 -143 151 -136 137 -133 ct 137 -132 l  154 -130 166 -123 175 -112 ct 
184 -101 189 -87 189 -70 ct p
149 -189 m  149 -218 133 -232 102 -232 ct 87 -232 75 -228 67 -221 ct 59 -214 55 -203 55 -189 ct 
55 -175 59 -164 67 -156 ct 76 -149 87 -145 102 -145 ct 117 -145 129 -148 137 -155 ct 
145 -162 149 -174 149 -189 ct p
155 -73 m  155 -89 150 -101 141 -109 ct 132 -117 119 -121 102 -121 ct 85 -121 72 -116 63 -108 ct 
54 -99 49 -88 49 -73 ct 49 -38 67 -20 103 -20 ct 120 -20 134 -24 142 -33 ct 151 -41 155 -55 155 -73 ct 
p ef
pom
0.996 c 21295 13895 m  21634 13895 21894 14155 21894 14495 ct 21894 14835 21634 15094 21295 15094 ct 
20955 15094 20695 14835 20695 14495 ct 20695 14155 20955 13895 21295 13895 ct 
p
20695 13895 m  20695 13895 l  p
21895 15095 m  21895 15095 l  p ef
0 lw 0.000 c 21294 13894 m  21634 13894 21894 14154 21894 14494 ct 21894 14834 21634 15094 21294 15094 ct 
20954 15094 20694 14834 20694 14494 ct 20694 14154 20954 13894 21294 13894 ct 
pc
20694 13894 m  20694 13894 l  pc
21895 15095 m  21895 15095 l  pc
pum
21018 14555 t
256 0 m  256 -213 l  256 -235 254 -252 249 -264 ct 245 -277 238 -285 229 -291 ct 
219 -296 205 -299 187 -299 ct 160 -299 139 -290 123 -271 ct 108 -253 100 -227 100 -195 ct 
100 0 l  44 0 l  44 -264 l  44 -303 43 -327 42 -336 ct 95 -336 l  95 -335 95 -332 96 -327 ct 
96 -323 96 -318 96 -312 ct 97 -306 97 -295 97 -278 ct 98 -278 l  111 -302 126 -318 143 -328 ct 
160 -337 181 -342 206 -342 ct 242 -342 269 -333 286 -315 ct 303 -296 312 -266 312 -224 ct 
312 0 l  256 0 l  p ef
pom
pum
21369 14822 t
187 -131 m  187 -88 179 -54 163 -31 ct 148 -8 125 4 96 4 ct 76 4 60 0 48 -8 ct 
36 -17 28 -30 22 -49 ct 53 -54 l  60 -33 74 -22 96 -22 ct 115 -22 129 -31 139 -48 ct 
149 -65 155 -90 155 -122 ct 150 -111 142 -102 131 -96 ct 119 -89 106 -86 92 -86 ct 
70 -86 51 -94 38 -109 ct 24 -125 17 -146 17 -171 ct 17 -198 25 -218 40 -234 ct 
54 -249 75 -256 102 -256 ct 130 -256 151 -246 165 -225 ct 180 -204 187 -173 187 -131 ct 
p
152 -162 m  152 -183 147 -199 138 -211 ct 129 -224 116 -230 100 -230 ct 85 -230 73 -225 64 -214 ct 
55 -204 50 -189 50 -171 ct 50 -153 55 -138 64 -128 ct 73 -117 85 -112 100 -112 ct 
109 -112 118 -114 126 -118 ct 134 -122 140 -128 145 -136 ct 150 -144 152 -153 152 -162 ct 
p ef
pom
0.996 c 21296 16695 m  21635 16695 21895 16955 21895 17294 ct 21895 17634 21635 17894 21296 17894 ct 
20956 17894 20696 17634 20696 17294 ct 20696 16955 20956 16695 21296 16695 ct 
p
20696 16695 m  20696 16695 l  p
21896 17895 m  21896 17895 l  p ef
0.000 c 21295 16694 m  21635 16694 21895 16954 21895 17294 ct 21895 17634 21635 17894 21295 17894 ct 
20955 17894 20695 17634 20695 17294 ct 20695 16954 20955 16694 21295 16694 ct 
pc
20695 16694 m  20695 16694 l  pc
21896 17895 m  21896 17895 l  pc
pum
20930 17354 t
256 0 m  256 -213 l  256 -235 254 -252 249 -264 ct 245 -277 238 -285 229 -291 ct 
219 -296 205 -299 187 -299 ct 160 -299 139 -290 123 -271 ct 108 -253 100 -227 100 -195 ct 
100 0 l  44 0 l  44 -264 l  44 -303 43 -327 42 -336 ct 95 -336 l  95 -335 95 -332 96 -327 ct 
96 -323 96 -318 96 -312 ct 97 -306 97 -295 97 -278 ct 98 -278 l  111 -302 126 -318 143 -328 ct 
160 -337 181 -342 206 -342 ct 242 -342 269 -333 286 -315 ct 303 -296 312 -266 312 -224 ct 
312 0 l  256 0 l  p ef
pom
pum
21281 17621 t
28 0 m  28 -27 l  93 -27 l  93 -222 l  35 -181 l  35 -212 l  95 -253 l 
125 -253 l  125 -27 l  187 -27 l  187 0 l  28 0 l  p ef
206 0 m  206 -27 l  271 -27 l  271 -222 l  213 -181 l  213 -212 l  273 -253 l 
303 -253 l  303 -27 l  365 -27 l  365 0 l  206 0 l  p ef
pom
0.996 c 23496 16696 m  23836 16696 24096 16956 24096 17295 ct 24096 17635 23836 17895 23496 17895 ct 
23156 17895 22896 17635 22896 17295 ct 22896 16956 23156 16696 23496 16696 ct 
p
22896 16696 m  22896 16696 l  p
24097 17896 m  24097 17896 l  p ef
0.000 c 23496 16695 m  23836 16695 24096 16955 24096 17295 ct 24096 17635 23836 17895 23496 17895 ct 
23156 17895 22896 17635 22896 17295 ct 22896 16955 23156 16695 23496 16695 ct 
pc
22896 16695 m  22896 16695 l  pc
24097 17896 m  24097 17896 l  pc
pum
23117 17355 t
256 0 m  256 -213 l  256 -235 254 -252 249 -264 ct 245 -277 238 -285 229 -291 ct 
219 -296 205 -299 187 -299 ct 160 -299 139 -290 123 -271 ct 108 -253 100 -227 100 -195 ct 
100 0 l  44 0 l  44 -264 l  44 -303 43 -327 42 -336 ct 95 -336 l  95 -335 95 -332 96 -327 ct 
96 -323 96 -318 96 -312 ct 97 -306 97 -295 97 -278 ct 98 -278 l  111 -302 126 -318 143 -328 ct 
160 -337 181 -342 206 -342 ct 242 -342 269 -333 286 -315 ct 303 -296 312 -266 312 -224 ct 
312 0 l  256 0 l  p ef
pom
pum
23468 17622 t
28 0 m  28 -27 l  93 -27 l  93 -222 l  35 -181 l  35 -212 l  95 -253 l 
125 -253 l  125 -27 l  187 -27 l  187 0 l  28 0 l  p ef
222 0 m  222 -23 l  228 -37 235 -49 244 -60 ct 253 -71 262 -80 272 -89 ct 281 -98 291 -106 300 -113 ct 
310 -121 319 -128 326 -136 ct 334 -143 340 -151 345 -159 ct 350 -167 352 -176 352 -187 ct 
352 -200 348 -211 340 -219 ct 332 -227 320 -230 306 -230 ct 292 -230 281 -227 272 -219 ct 
263 -212 258 -201 256 -188 ct 223 -191 l  225 -211 234 -227 249 -239 ct 264 -251 283 -257 306 -257 ct 
331 -257 351 -251 365 -239 ct 378 -227 385 -210 385 -188 ct 385 -178 383 -168 378 -158 ct 
374 -149 367 -139 358 -129 ct 350 -120 333 -104 308 -84 ct 294 -73 283 -63 275 -54 ct 
267 -45 261 -36 257 -27 ct 389 -27 l  389 0 l  222 0 l  p ef
pom
18869 12020 m  17194 13894 l  ps
19719 12020 m  21294 13894 l  ps
21294 15094 m  21295 16694 l  ps
21719 14919 m  23496 16695 l  ps
0.996 c 17196 16695 m  17536 16695 17796 16955 17796 17294 ct 17796 17634 17536 17894 17196 17894 ct 
16856 17894 16596 17634 16596 17294 ct 16596 16955 16856 16695 17196 16695 ct 
p
16596 16695 m  16596 16695 l  p
17797 17895 m  17797 17895 l  p ef
17.99504 lw 0.000 c 17195 16694 m  17535 16694 17795 16954 17795 17294 ct 
17795 17634 17535 17894 17195 17894 ct 16856 17894 16596 17634 16596 17294 ct 
16596 16954 16856 16694 17195 16694 ct pc
16596 16694 m  16596 16694 l  pc
17796 17895 m  17796 17895 l  pc
pum
16817 17354 t
256 0 m  256 -213 l  256 -235 254 -252 249 -264 ct 245 -277 238 -285 229 -291 ct 
219 -296 205 -299 187 -299 ct 160 -299 139 -290 123 -271 ct 108 -253 100 -227 100 -195 ct 
100 0 l  44 0 l  44 -264 l  44 -303 43 -327 42 -336 ct 95 -336 l  95 -335 95 -332 96 -327 ct 
96 -323 96 -318 96 -312 ct 97 -306 97 -295 97 -278 ct 98 -278 l  111 -302 126 -318 143 -328 ct 
160 -337 181 -342 206 -342 ct 242 -342 269 -333 286 -315 ct 303 -296 312 -266 312 -224 ct 
312 0 l  256 0 l  p ef
pom
pum
17168 17621 t
28 0 m  28 -27 l  93 -27 l  93 -222 l  35 -181 l  35 -212 l  95 -253 l 
125 -253 l  125 -27 l  187 -27 l  187 0 l  28 0 l  p ef
393 -126 m  393 -84 386 -52 371 -29 ct 356 -7 334 4 305 4 ct 276 4 254 -7 239 -29 ct 
225 -51 217 -84 217 -126 ct 217 -170 224 -202 239 -224 ct 253 -245 275 -256 306 -256 ct 
336 -256 358 -245 372 -223 ct 386 -202 393 -169 393 -126 ct p
360 -126 m  360 -163 356 -189 348 -205 ct 339 -222 325 -230 306 -230 ct 286 -230 272 -222 263 -206 ct 
254 -190 250 -163 250 -126 ct 250 -90 254 -64 263 -47 ct 272 -31 286 -22 305 -22 ct 
324 -22 338 -31 347 -48 ct 356 -65 360 -91 360 -126 ct p ef
pom
0 lw 17194 15094 m  17195 16694 l  ps
0 6912 t 
pom
count op_count sub {pop} repeat countdictstack dict_count sub {end} repeat b4_inc_state restore
%%PageTrailer
%%Trailer
%%EOF
