%!PS-Adobe-2.0 EPSF-2.0
%%Title: /home/filipe/UFPA/aulas/simulacao-discreta/3-modelo-conceitual/atividade-ACD.dia
%%Creator: Dia v0.97.3
%%CreationDate: Mon Apr 15 19:06:52 2019
%%For: filipe
%%Orientation: Portrait
%%Magnification: 1.0000
%%BoundingBox: 0 0 407 93
%%BeginSetup
%%EndSetup
%%EndComments
%%BeginProlog
[ /.notdef /.notdef /.notdef /.notdef /.notdef /.notdef /.notdef /.notdef /.notdef /.notdef
/.notdef /.notdef /.notdef /.notdef /.notdef /.notdef /.notdef /.notdef /.notdef /.notdef
/.notdef /.notdef /.notdef /.notdef /.notdef /.notdef /.notdef /.notdef /.notdef /.notdef
/.notdef /.notdef /space /exclam /quotedbl /numbersign /dollar /percent /ampersand /quoteright
/parenleft /parenright /asterisk /plus /comma /hyphen /period /slash /zero /one
/two /three /four /five /six /seven /eight /nine /colon /semicolon
/less /equal /greater /question /at /A /B /C /D /E
/F /G /H /I /J /K /L /M /N /O
/P /Q /R /S /T /U /V /W /X /Y
/Z /bracketleft /backslash /bracketright /asciicircum /underscore /quoteleft /a /b /c
/d /e /f /g /h /i /j /k /l /m
/n /o /p /q /r /s /t /u /v /w
/x /y /z /braceleft /bar /braceright /asciitilde /.notdef /.notdef /.notdef
/.notdef /.notdef /.notdef /.notdef /.notdef /.notdef /.notdef /.notdef /.notdef /.notdef
/.notdef /.notdef /.notdef /.notdef /.notdef /.notdef /.notdef /.notdef /.notdef /.notdef
/.notdef /.notdef /.notdef /.notdef /.notdef /.notdef /.notdef /.notdef /.notdef /.notdef
/space /exclamdown /cent /sterling /currency /yen /brokenbar /section /dieresis /copyright
/ordfeminine /guillemotleft /logicalnot /hyphen /registered /macron /degree /plusminus /twosuperior /threesuperior
/acute /mu /paragraph /periodcentered /cedilla /onesuperior /ordmasculine /guillemotright /onequarter /onehalf
/threequarters /questiondown /Agrave /Aacute /Acircumflex /Atilde /Adieresis /Aring /AE /Ccedilla
/Egrave /Eacute /Ecircumflex /Edieresis /Igrave /Iacute /Icircumflex /Idieresis /Eth /Ntilde
/Ograve /Oacute /Ocircumflex /Otilde /Odieresis /multiply /Oslash /Ugrave /Uacute /Ucircumflex
/Udieresis /Yacute /Thorn /germandbls /agrave /aacute /acircumflex /atilde /adieresis /aring
/ae /ccedilla /egrave /eacute /ecircumflex /edieresis /igrave /iacute /icircumflex /idieresis
/eth /ntilde /ograve /oacute /ocircumflex /otilde /odieresis /divide /oslash /ugrave
/uacute /ucircumflex /udieresis /yacute /thorn /ydieresis] /isolatin1encoding exch def
/cp {closepath} bind def
/c {curveto} bind def
/f {fill} bind def
/a {arc} bind def
/ef {eofill} bind def
/ex {exch} bind def
/gr {grestore} bind def
/gs {gsave} bind def
/sa {save} bind def
/rs {restore} bind def
/l {lineto} bind def
/m {moveto} bind def
/rm {rmoveto} bind def
/n {newpath} bind def
/s {stroke} bind def
/sh {show} bind def
/slc {setlinecap} bind def
/slj {setlinejoin} bind def
/slw {setlinewidth} bind def
/srgb {setrgbcolor} bind def
/rot {rotate} bind def
/sc {scale} bind def
/sd {setdash} bind def
/ff {findfont} bind def
/sf {setfont} bind def
/scf {scalefont} bind def
/sw {stringwidth pop} bind def
/tr {translate} bind def

/ellipsedict 8 dict def
ellipsedict /mtrx matrix put
/ellipse
{ ellipsedict begin
   /endangle exch def
   /startangle exch def
   /yrad exch def
   /xrad exch def
   /y exch def
   /x exch def   /savematrix mtrx currentmatrix def
   x y tr xrad yrad sc
   0 0 1 startangle endangle arc
   savematrix setmatrix
   end
} def

/mergeprocs {
dup length
3 -1 roll
dup
length
dup
5 1 roll
3 -1 roll
add
array cvx
dup
3 -1 roll
0 exch
putinterval
dup
4 2 roll
putinterval
} bind def
/dpi_x 300 def
/dpi_y 300 def
/conicto {
    /to_y exch def
    /to_x exch def
    /conic_cntrl_y exch def
    /conic_cntrl_x exch def
    currentpoint
    /p0_y exch def
    /p0_x exch def
    /p1_x p0_x conic_cntrl_x p0_x sub 2 3 div mul add def
    /p1_y p0_y conic_cntrl_y p0_y sub 2 3 div mul add def
    /p2_x p1_x to_x p0_x sub 1 3 div mul add def
    /p2_y p1_y to_y p0_y sub 1 3 div mul add def
    p1_x p1_y p2_x p2_y to_x to_y curveto
} bind def
/start_ol { gsave 1.1 dpi_x div dup scale} bind def
/end_ol { closepath fill grestore } bind def
28.346000 -28.346000 scale
-3.345000 -5.650000 translate
%%EndProlog


0.100000 slw
[] 0 sd
[] 0 sd
0 slc
0.000000 0.000000 0.000000 srgb
n 3.395306 4.113364 m 7.188589 4.090061 l s
0 slj
n 7.190125 4.340056 m 7.688579 4.086989 l 7.187053 3.840065 l ef
0.100000 slw
[] 0 sd
0 slj
n 7.190125 4.340056 m 7.688579 4.086989 l 7.187053 3.840065 l cp s
0.100000 slw
[] 0 sd
[] 0 sd
0 slc
n 13.045306 4.086682 m 17.034390 4.074829 l s
0 slj
n 17.035133 4.324828 m 17.534388 4.073343 l 17.033647 3.824830 l ef
0.100000 slw
[] 0 sd
0 slj
n 17.035133 4.324828 m 17.534388 4.073343 l 17.033647 3.824830 l cp s
1.000000 1.000000 1.000000 srgb
n 7.750000 2.450000 m 7.750000 5.600000 l 13.100000 5.600000 l 13.100000 2.450000 l f
0.100000 slw
[] 0 sd
[] 0 sd
0 slj
0.000000 0.000000 0.000000 srgb
n 7.750000 2.450000 m 7.750000 5.600000 l 13.100000 5.600000 l 13.100000 2.450000 l cp s
gsave 8.433750 4.283333 translate 0.035278 -0.035278 scale
start_ol
2188 4050 moveto
1331 1728 lineto
3047 1728 lineto
2188 4050 lineto
1831 4672 moveto
2547 4672 lineto
4325 0 lineto
3669 0 lineto
3244 1216 lineto
1141 1216 lineto
716 0 lineto
50 0 lineto
1831 4672 lineto
end_ol grestore 
gsave 8.998280 4.283333 translate 0.035278 -0.035278 scale
start_ol
1172 4544 moveto
1172 3520 lineto
2356 3520 lineto
2356 3072 lineto
1172 3072 lineto
1172 1181 lineto
1172 755 1289 633 conicto
1406 512 1766 512 conicto
2356 512 lineto
2356 0 lineto
1766 0 lineto
1100 0 847 254 conicto
594 509 594 1181 conicto
594 3072 lineto
172 3072 lineto
172 3520 lineto
594 3520 lineto
594 4544 lineto
1172 4544 lineto
end_ol grestore 
gsave 9.330406 4.283333 translate 0.035278 -0.035278 scale
start_ol
603 3520 moveto
1178 3520 lineto
1178 0 lineto
603 0 lineto
603 3520 lineto
603 4864 moveto
1178 4864 lineto
1178 4160 lineto
603 4160 lineto
603 4864 lineto
end_ol grestore 
gsave 9.565183 4.283333 translate 0.035278 -0.035278 scale
start_ol
191 3520 moveto
800 3520 lineto
1894 566 lineto
2988 3520 lineto
3597 3520 lineto
2284 0 lineto
1503 0 lineto
191 3520 lineto
end_ol grestore 
gsave 10.064716 4.283333 translate 0.035278 -0.035278 scale
start_ol
603 3520 moveto
1178 3520 lineto
1178 0 lineto
603 0 lineto
603 3520 lineto
603 4864 moveto
1178 4864 lineto
1178 4160 lineto
603 4160 lineto
603 4864 lineto
end_ol grestore 
gsave 10.299492 4.283333 translate 0.035278 -0.035278 scale
start_ol
2906 3008 moveto
2906 4864 lineto
3481 4864 lineto
3481 0 lineto
2906 0 lineto
2906 576 lineto
2725 251 2448 93 conicto
2172 -64 1784 -64 conicto
1150 -64 751 447 conicto
353 959 353 1792 conicto
353 2625 751 3136 conicto
1150 3648 1784 3648 conicto
2172 3648 2448 3490 conicto
2725 3333 2906 3008 conicto
947 1792 moveto
947 1163 1208 805 conicto
1469 448 1925 448 conicto
2381 448 2643 805 conicto
2906 1163 2906 1792 conicto
2906 2421 2643 2778 conicto
2381 3136 1925 3136 conicto
1469 3136 1208 2778 conicto
947 2421 947 1792 conicto
end_ol grestore 
gsave 10.836489 4.283333 translate 0.035278 -0.035278 scale
start_ol
2194 1792 moveto
1497 1792 1228 1635 conicto
959 1479 959 1102 conicto
959 801 1160 624 conicto
1362 448 1709 448 conicto
2188 448 2477 780 conicto
2766 1113 2766 1665 conicto
2766 1792 lineto
2194 1792 lineto
3341 2028 moveto
3341 0 lineto
2766 0 lineto
2766 576 lineto
2569 248 2275 92 conicto
1981 -64 1556 -64 conicto
1019 -64 701 238 conicto
384 540 384 1047 conicto
384 1639 779 1939 conicto
1175 2240 1959 2240 conicto
2766 2240 lineto
2766 2294 lineto
2766 2696 2505 2916 conicto
2244 3136 1772 3136 conicto
1472 3136 1188 3056 conicto
904 2976 641 2816 conicto
641 3328 lineto
957 3488 1253 3568 conicto
1550 3648 1832 3648 conicto
2591 3648 2966 3246 conicto
3341 2844 3341 2028 conicto
end_ol grestore 
gsave 11.355999 4.283333 translate 0.035278 -0.035278 scale
start_ol
2906 3008 moveto
2906 4864 lineto
3481 4864 lineto
3481 0 lineto
2906 0 lineto
2906 576 lineto
2725 251 2448 93 conicto
2172 -64 1784 -64 conicto
1150 -64 751 447 conicto
353 959 353 1792 conicto
353 2625 751 3136 conicto
1150 3648 1784 3648 conicto
2172 3648 2448 3490 conicto
2725 3333 2906 3008 conicto
947 1792 moveto
947 1163 1208 805 conicto
1469 448 1925 448 conicto
2381 448 2643 805 conicto
2906 1163 2906 1792 conicto
2906 2421 2643 2778 conicto
2381 3136 1925 3136 conicto
1469 3136 1208 2778 conicto
947 2421 947 1792 conicto
end_ol grestore 
gsave 11.892995 4.283333 translate 0.035278 -0.035278 scale
start_ol
3597 1944 moveto
3597 1664 lineto
953 1664 lineto
991 1070 1311 759 conicto
1631 448 2203 448 conicto
2535 448 2846 528 conicto
3157 608 3463 768 conicto
3463 192 lineto
3154 67 2828 1 conicto
2503 -64 2169 -64 conicto
1331 -64 842 428 conicto
353 921 353 1760 conicto
353 2628 817 3138 conicto
1281 3648 2069 3648 conicto
2775 3648 3186 3189 conicto
3597 2731 3597 1944 conicto
3022 2112 moveto
3016 2579 2758 2857 conicto
2500 3136 2075 3136 conicto
1594 3136 1305 2867 conicto
1016 2598 972 2108 conicto
3022 2112 lineto
end_ol grestore 
showpage
