%!PS-Adobe-2.0 EPSF-2.0
%%Title: /home/filipe/UFPA/aulas/simulacao-discreta/3-modelo-conceitual/fila-ACD.dia
%%Creator: Dia v0.97.3
%%CreationDate: Mon Apr 15 19:05:45 2019
%%For: filipe
%%Orientation: Portrait
%%Magnification: 1.0000
%%BoundingBox: 0 0 407 149
%%BeginSetup
%%EndSetup
%%EndComments
%%BeginProlog
[ /.notdef /.notdef /.notdef /.notdef /.notdef /.notdef /.notdef /.notdef /.notdef /.notdef
/.notdef /.notdef /.notdef /.notdef /.notdef /.notdef /.notdef /.notdef /.notdef /.notdef
/.notdef /.notdef /.notdef /.notdef /.notdef /.notdef /.notdef /.notdef /.notdef /.notdef
/.notdef /.notdef /space /exclam /quotedbl /numbersign /dollar /percent /ampersand /quoteright
/parenleft /parenright /asterisk /plus /comma /hyphen /period /slash /zero /one
/two /three /four /five /six /seven /eight /nine /colon /semicolon
/less /equal /greater /question /at /A /B /C /D /E
/F /G /H /I /J /K /L /M /N /O
/P /Q /R /S /T /U /V /W /X /Y
/Z /bracketleft /backslash /bracketright /asciicircum /underscore /quoteleft /a /b /c
/d /e /f /g /h /i /j /k /l /m
/n /o /p /q /r /s /t /u /v /w
/x /y /z /braceleft /bar /braceright /asciitilde /.notdef /.notdef /.notdef
/.notdef /.notdef /.notdef /.notdef /.notdef /.notdef /.notdef /.notdef /.notdef /.notdef
/.notdef /.notdef /.notdef /.notdef /.notdef /.notdef /.notdef /.notdef /.notdef /.notdef
/.notdef /.notdef /.notdef /.notdef /.notdef /.notdef /.notdef /.notdef /.notdef /.notdef
/space /exclamdown /cent /sterling /currency /yen /brokenbar /section /dieresis /copyright
/ordfeminine /guillemotleft /logicalnot /hyphen /registered /macron /degree /plusminus /twosuperior /threesuperior
/acute /mu /paragraph /periodcentered /cedilla /onesuperior /ordmasculine /guillemotright /onequarter /onehalf
/threequarters /questiondown /Agrave /Aacute /Acircumflex /Atilde /Adieresis /Aring /AE /Ccedilla
/Egrave /Eacute /Ecircumflex /Edieresis /Igrave /Iacute /Icircumflex /Idieresis /Eth /Ntilde
/Ograve /Oacute /Ocircumflex /Otilde /Odieresis /multiply /Oslash /Ugrave /Uacute /Ucircumflex
/Udieresis /Yacute /Thorn /germandbls /agrave /aacute /acircumflex /atilde /adieresis /aring
/ae /ccedilla /egrave /eacute /ecircumflex /edieresis /igrave /iacute /icircumflex /idieresis
/eth /ntilde /ograve /oacute /ocircumflex /otilde /odieresis /divide /oslash /ugrave
/uacute /ucircumflex /udieresis /yacute /thorn /ydieresis] /isolatin1encoding exch def
/cp {closepath} bind def
/c {curveto} bind def
/f {fill} bind def
/a {arc} bind def
/ef {eofill} bind def
/ex {exch} bind def
/gr {grestore} bind def
/gs {gsave} bind def
/sa {save} bind def
/rs {restore} bind def
/l {lineto} bind def
/m {moveto} bind def
/rm {rmoveto} bind def
/n {newpath} bind def
/s {stroke} bind def
/sh {show} bind def
/slc {setlinecap} bind def
/slj {setlinejoin} bind def
/slw {setlinewidth} bind def
/srgb {setrgbcolor} bind def
/rot {rotate} bind def
/sc {scale} bind def
/sd {setdash} bind def
/ff {findfont} bind def
/sf {setfont} bind def
/scf {scalefont} bind def
/sw {stringwidth pop} bind def
/tr {translate} bind def

/ellipsedict 8 dict def
ellipsedict /mtrx matrix put
/ellipse
{ ellipsedict begin
   /endangle exch def
   /startangle exch def
   /yrad exch def
   /xrad exch def
   /y exch def
   /x exch def   /savematrix mtrx currentmatrix def
   x y tr xrad yrad sc
   0 0 1 startangle endangle arc
   savematrix setmatrix
   end
} def

/mergeprocs {
dup length
3 -1 roll
dup
length
dup
5 1 roll
3 -1 roll
add
array cvx
dup
3 -1 roll
0 exch
putinterval
dup
4 2 roll
putinterval
} bind def
/dpi_x 300 def
/dpi_y 300 def
/conicto {
    /to_y exch def
    /to_x exch def
    /conic_cntrl_y exch def
    /conic_cntrl_x exch def
    currentpoint
    /p0_y exch def
    /p0_x exch def
    /p1_x p0_x conic_cntrl_x p0_x sub 2 3 div mul add def
    /p1_y p0_y conic_cntrl_y p0_y sub 2 3 div mul add def
    /p2_x p1_x to_x p0_x sub 1 3 div mul add def
    /p2_y p1_y to_y p0_y sub 1 3 div mul add def
    p1_x p1_y p2_x p2_y to_x to_y curveto
} bind def
/start_ol { gsave 1.1 dpi_x div dup scale} bind def
/end_ol { closepath fill grestore } bind def
28.346000 -28.346000 scale
-11.749694 -10.800000 translate
%%EndProlog


1.000000 1.000000 1.000000 srgb
n 18.796636 8.173318 2.653364 2.576682 0 360 ellipse f
0.100000 slw
[] 0 sd
[] 0 sd
0 slj
0.000000 0.000000 0.000000 srgb
n 18.796636 8.173318 2.653364 2.576682 0 360 ellipse cp s
gsave 18.087886 8.431651 translate 0.035278 -0.035278 scale
start_ol
628 4672 moveto
3309 4672 lineto
3309 4160 lineto
1259 4160 lineto
1259 2752 lineto
3109 2752 lineto
3109 2240 lineto
1259 2240 lineto
1259 0 lineto
628 0 lineto
628 4672 lineto
end_ol grestore 
gsave 18.514188 8.431651 translate 0.035278 -0.035278 scale
start_ol
603 3520 moveto
1178 3520 lineto
1178 0 lineto
603 0 lineto
603 3520 lineto
603 4864 moveto
1178 4864 lineto
1178 4160 lineto
603 4160 lineto
603 4864 lineto
end_ol grestore 
gsave 18.749758 8.431651 translate 0.035278 -0.035278 scale
start_ol
603 4864 moveto
1178 4864 lineto
1178 0 lineto
603 0 lineto
603 4864 lineto
end_ol grestore 
gsave 18.984534 8.431651 translate 0.035278 -0.035278 scale
start_ol
2194 1792 moveto
1497 1792 1228 1635 conicto
959 1479 959 1102 conicto
959 801 1160 624 conicto
1362 448 1709 448 conicto
2188 448 2477 780 conicto
2766 1113 2766 1665 conicto
2766 1792 lineto
2194 1792 lineto
3341 2028 moveto
3341 0 lineto
2766 0 lineto
2766 576 lineto
2569 248 2275 92 conicto
1981 -64 1556 -64 conicto
1019 -64 701 238 conicto
384 540 384 1047 conicto
384 1639 779 1939 conicto
1175 2240 1959 2240 conicto
2766 2240 lineto
2766 2294 lineto
2766 2696 2505 2916 conicto
2244 3136 1772 3136 conicto
1472 3136 1188 3056 conicto
904 2976 641 2816 conicto
641 3328 lineto
957 3488 1253 3568 conicto
1550 3648 1832 3648 conicto
2591 3648 2966 3246 conicto
3341 2844 3341 2028 conicto
end_ol grestore 
0.100000 slw
[] 0 sd
[] 0 sd
0 slc
n 11.800000 8.200000 m 15.593283 8.176697 l s
0 slj
n 15.594818 8.426692 m 16.093273 8.173625 l 15.591747 7.926702 l ef
0.100000 slw
[] 0 sd
0 slj
n 15.594818 8.426692 m 16.093273 8.173625 l 15.591747 7.926702 l cp s
0.100000 slw
[] 0 sd
[] 0 sd
0 slc
n 21.450000 8.173318 m 25.439084 8.161465 l s
0 slj
n 25.439827 8.411464 m 25.939082 8.159980 l 25.438341 7.911466 l ef
0.100000 slw
[] 0 sd
0 slj
n 25.439827 8.411464 m 25.939082 8.159980 l 25.438341 7.911466 l cp s
showpage
