%!PS-Adobe-3.0 EPSF-3.0 
%%BoundingBox: 0 0 232 153
%%Pages: 0
%%Creator: LibreOffice 5.2
%%Title: none
%%CreationDate: none
%%LanguageLevel: 2
%%EndComments
%%BeginProlog
%%BeginResource: procset SDRes-Prolog 1.0 0
/b4_inc_state save def
/dict_count countdictstack def
/op_count count 1 sub def
userdict begin
0 setgray 0 setlinecap 1 setlinewidth 0 setlinejoin 10 setmiterlimit[] 0 setdash newpath
/languagelevel where {pop languagelevel 1 ne {false setstrokeadjust false setoverprint} if} if
/bdef {bind def} bind def
/c {setgray} bdef
/l {neg lineto} bdef
/rl {neg rlineto} bdef
/lc {setlinecap} bdef
/lj {setlinejoin} bdef
/lw {setlinewidth} bdef
/ml {setmiterlimit} bdef
/ld {setdash} bdef
/m {neg moveto} bdef
/ct {6 2 roll neg 6 2 roll neg 6 2 roll neg curveto} bdef
/r {rotate} bdef
/t {neg translate} bdef
/s {scale} bdef
/sw {show} bdef
/gs {gsave} bdef
/gr {grestore} bdef
/f {findfont dup length dict begin
{1 index /FID ne {def} {pop pop} ifelse} forall /Encoding ISOLatin1Encoding def
currentdict end /NFont exch definefont pop /NFont findfont} bdef
/p {closepath} bdef
/sf {scalefont setfont} bdef
/ef {eofill}bdef
/pc {closepath stroke}bdef
/ps {stroke}bdef
/pum {matrix currentmatrix}bdef
/pom {setmatrix}bdef
/bs {/aString exch def /nXOfs exch def /nWidth exch def currentpoint nXOfs 0 rmoveto pum nWidth aString stringwidth pop div 1 scale aString show pom moveto} bdef
%%EndResource
%%EndProlog
%%BeginSetup
%%EndSetup
%%Page: 1 1
%%BeginPageSetup
%%EndPageSetup
pum
0.02828 0.02832 s 
0 -5401 t
/tm matrix currentmatrix def
tm setmatrix
-5198 -7695 t 
1 1 s 
0.996 c 5649 10494 m  5199 10494 l  5199 9095 l  6099 9095 l  6099 10494 l 
5649 10494 l  p ef
0 lw 1 lj 0.000 c 5648 10494 m  5198 10494 l  5198 9094 l  6098 9094 l  6098 10494 l 
5648 10494 l  pc
pum
5474 10015 t
128 6 m  95 6 69 -3 52 -21 ct 35 -38 27 -63 27 -94 ct 27 -129 38 -155 61 -174 ct 
84 -192 121 -202 172 -204 ct 247 -205 l  247 -223 l  247 -250 241 -270 230 -282 ct 
218 -294 200 -299 175 -299 ct 150 -299 132 -295 121 -287 ct 109 -278 102 -265 100 -246 ct 
42 -251 l  51 -312 96 -342 176 -342 ct 219 -342 250 -332 272 -313 ct 293 -294 304 -266 304 -229 ct 
304 -85 l  304 -68 306 -55 310 -47 ct 314 -39 323 -35 335 -35 ct 340 -35 346 -35 353 -37 ct 
353 -2 l  339 1 325 3 310 3 ct 289 3 274 -2 265 -13 ct 256 -24 250 -41 249 -64 ct 
247 -64 l  233 -39 216 -21 197 -10 ct 178 1 155 6 128 6 ct p
141 -36 m  162 -36 180 -41 196 -50 ct 212 -59 224 -72 233 -88 ct 243 -104 247 -121 247 -138 ct 
247 -166 l  186 -165 l  160 -164 140 -161 126 -157 ct 113 -152 102 -144 95 -134 ct 
88 -123 84 -110 84 -93 ct 84 -75 89 -61 99 -51 ct 109 -41 123 -36 141 -36 ct p ef
pom
0.996 c 6548 10494 m  6099 10494 l  6099 9095 l  6998 9095 l  6998 10494 l 
6548 10494 l  p ef
0.000 c 6548 10494 m  6098 10494 l  6098 9094 l  6998 9094 l  6998 10494 l 
6548 10494 l  pc
pum
6373 10015 t
326 -169 m  326 -52 285 7 203 7 ct 178 7 157 2 140 -7 ct 123 -16 109 -31 99 -51 ct 
98 -51 l  98 -45 98 -35 97 -22 ct 96 -9 95 -1 95 1 ct 41 1 l  42 -10 43 -33 43 -68 ct 
43 -460 l  99 -460 l  99 -328 l  99 -315 98 -299 97 -281 ct 99 -281 l  109 -302 123 -318 140 -327 ct 
157 -336 178 -341 203 -341 ct 245 -341 277 -327 297 -298 ct 317 -270 326 -227 326 -169 ct 
p
268 -167 m  268 -214 262 -247 249 -268 ct 237 -288 217 -298 189 -298 ct 157 -298 135 -287 120 -266 ct 
106 -244 99 -210 99 -163 ct 99 -119 106 -87 120 -66 ct 134 -45 157 -34 188 -34 ct 
216 -34 237 -45 249 -65 ct 262 -86 268 -120 268 -167 ct p ef
pom
0.996 c 7448 10494 m  6998 10494 l  6998 9095 l  7898 9095 l  7898 10494 l 
7448 10494 l  p ef
0.000 c 7448 10494 m  6998 10494 l  6998 9094 l  7898 9094 l  7898 10494 l 
7448 10494 l  pc
pum
7273 10015 t
128 6 m  95 6 69 -3 52 -21 ct 35 -38 27 -63 27 -94 ct 27 -129 38 -155 61 -174 ct 
84 -192 121 -202 172 -204 ct 247 -205 l  247 -223 l  247 -250 241 -270 230 -282 ct 
218 -294 200 -299 175 -299 ct 150 -299 132 -295 121 -287 ct 109 -278 102 -265 100 -246 ct 
42 -251 l  51 -312 96 -342 176 -342 ct 219 -342 250 -332 272 -313 ct 293 -294 304 -266 304 -229 ct 
304 -85 l  304 -68 306 -55 310 -47 ct 314 -39 323 -35 335 -35 ct 340 -35 346 -35 353 -37 ct 
353 -2 l  339 1 325 3 310 3 ct 289 3 274 -2 265 -13 ct 256 -24 250 -41 249 -64 ct 
247 -64 l  233 -39 216 -21 197 -10 ct 178 1 155 6 128 6 ct p
141 -36 m  162 -36 180 -41 196 -50 ct 212 -59 224 -72 233 -88 ct 243 -104 247 -121 247 -138 ct 
247 -166 l  186 -165 l  160 -164 140 -161 126 -157 ct 113 -152 102 -144 95 -134 ct 
88 -123 84 -110 84 -93 ct 84 -75 89 -61 99 -51 ct 109 -41 123 -36 141 -36 ct p ef
pom
0.996 c 8348 10494 m  7898 10494 l  7898 9095 l  8798 9095 l  8798 10494 l 
8348 10494 l  p ef
0.000 c 8347 10494 m  7898 10494 l  7898 9094 l  8797 9094 l  8797 10494 l 
8347 10494 l  pc
pum
8173 10015 t
128 6 m  95 6 69 -3 52 -21 ct 35 -38 27 -63 27 -94 ct 27 -129 38 -155 61 -174 ct 
84 -192 121 -202 172 -204 ct 247 -205 l  247 -223 l  247 -250 241 -270 230 -282 ct 
218 -294 200 -299 175 -299 ct 150 -299 132 -295 121 -287 ct 109 -278 102 -265 100 -246 ct 
42 -251 l  51 -312 96 -342 176 -342 ct 219 -342 250 -332 272 -313 ct 293 -294 304 -266 304 -229 ct 
304 -85 l  304 -68 306 -55 310 -47 ct 314 -39 323 -35 335 -35 ct 340 -35 346 -35 353 -37 ct 
353 -2 l  339 1 325 3 310 3 ct 289 3 274 -2 265 -13 ct 256 -24 250 -41 249 -64 ct 
247 -64 l  233 -39 216 -21 197 -10 ct 178 1 155 6 128 6 ct p
141 -36 m  162 -36 180 -41 196 -50 ct 212 -59 224 -72 233 -88 ct 243 -104 247 -121 247 -138 ct 
247 -166 l  186 -165 l  160 -164 140 -161 126 -157 ct 113 -152 102 -144 95 -134 ct 
88 -123 84 -110 84 -93 ct 84 -75 89 -61 99 -51 ct 109 -41 123 -36 141 -36 ct p ef
pom
0.996 c 9248 10494 m  8798 10494 l  8798 9095 l  9698 9095 l  9698 10494 l 
9248 10494 l  p ef
0.000 c 9247 10494 m  8797 10494 l  8797 9094 l  9697 9094 l  9697 10494 l 
9247 10494 l  pc
pum
9073 10015 t
128 6 m  95 6 69 -3 52 -21 ct 35 -38 27 -63 27 -94 ct 27 -129 38 -155 61 -174 ct 
84 -192 121 -202 172 -204 ct 247 -205 l  247 -223 l  247 -250 241 -270 230 -282 ct 
218 -294 200 -299 175 -299 ct 150 -299 132 -295 121 -287 ct 109 -278 102 -265 100 -246 ct 
42 -251 l  51 -312 96 -342 176 -342 ct 219 -342 250 -332 272 -313 ct 293 -294 304 -266 304 -229 ct 
304 -85 l  304 -68 306 -55 310 -47 ct 314 -39 323 -35 335 -35 ct 340 -35 346 -35 353 -37 ct 
353 -2 l  339 1 325 3 310 3 ct 289 3 274 -2 265 -13 ct 256 -24 250 -41 249 -64 ct 
247 -64 l  233 -39 216 -21 197 -10 ct 178 1 155 6 128 6 ct p
141 -36 m  162 -36 180 -41 196 -50 ct 212 -59 224 -72 233 -88 ct 243 -104 247 -121 247 -138 ct 
247 -166 l  186 -165 l  160 -164 140 -161 126 -157 ct 113 -152 102 -144 95 -134 ct 
88 -123 84 -110 84 -93 ct 84 -75 89 -61 99 -51 ct 109 -41 123 -36 141 -36 ct p ef
pom
0.996 c 10148 10494 m  9698 10494 l  9698 9095 l  10597 9095 l  10597 10494 l 
10148 10494 l  p ef
0.000 c 10147 10494 m  9697 10494 l  9697 9094 l  10597 9094 l  10597 10494 l 
10147 10494 l  pc
pum
9973 10015 t
326 -169 m  326 -52 285 7 203 7 ct 178 7 157 2 140 -7 ct 123 -16 109 -31 99 -51 ct 
98 -51 l  98 -45 98 -35 97 -22 ct 96 -9 95 -1 95 1 ct 41 1 l  42 -10 43 -33 43 -68 ct 
43 -460 l  99 -460 l  99 -328 l  99 -315 98 -299 97 -281 ct 99 -281 l  109 -302 123 -318 140 -327 ct 
157 -336 178 -341 203 -341 ct 245 -341 277 -327 297 -298 ct 317 -270 326 -227 326 -169 ct 
p
268 -167 m  268 -214 262 -247 249 -268 ct 237 -288 217 -298 189 -298 ct 157 -298 135 -287 120 -266 ct 
106 -244 99 -210 99 -163 ct 99 -119 106 -87 120 -66 ct 134 -45 157 -34 188 -34 ct 
216 -34 237 -45 249 -65 ct 262 -86 268 -120 268 -167 ct p ef
pom
0.996 c 11047 10494 m  10597 10494 l  10597 9095 l  11497 9095 l  11497 10494 l 
11047 10494 l  p ef
0.000 c 11047 10494 m  10597 10494 l  10597 9094 l  11497 9094 l  11497 10494 l 
11047 10494 l  pc
pum
10872 10015 t
128 6 m  95 6 69 -3 52 -21 ct 35 -38 27 -63 27 -94 ct 27 -129 38 -155 61 -174 ct 
84 -192 121 -202 172 -204 ct 247 -205 l  247 -223 l  247 -250 241 -270 230 -282 ct 
218 -294 200 -299 175 -299 ct 150 -299 132 -295 121 -287 ct 109 -278 102 -265 100 -246 ct 
42 -251 l  51 -312 96 -342 176 -342 ct 219 -342 250 -332 272 -313 ct 293 -294 304 -266 304 -229 ct 
304 -85 l  304 -68 306 -55 310 -47 ct 314 -39 323 -35 335 -35 ct 340 -35 346 -35 353 -37 ct 
353 -2 l  339 1 325 3 310 3 ct 289 3 274 -2 265 -13 ct 256 -24 250 -41 249 -64 ct 
247 -64 l  233 -39 216 -21 197 -10 ct 178 1 155 6 128 6 ct p
141 -36 m  162 -36 180 -41 196 -50 ct 212 -59 224 -72 233 -88 ct 243 -104 247 -121 247 -138 ct 
247 -166 l  186 -165 l  160 -164 140 -161 126 -157 ct 113 -152 102 -144 95 -134 ct 
88 -123 84 -110 84 -93 ct 84 -75 89 -61 99 -51 ct 109 -41 123 -36 141 -36 ct p ef
pom
0.996 c 11947 10494 m  11497 10494 l  11497 9095 l  12397 9095 l  12397 10494 l 
11947 10494 l  p ef
0.000 c 11947 10494 m  11497 10494 l  11497 9094 l  12396 9094 l  12396 10494 l 
11947 10494 l  pc
pum
11772 10015 t
326 -169 m  326 -52 285 7 203 7 ct 178 7 157 2 140 -7 ct 123 -16 109 -31 99 -51 ct 
98 -51 l  98 -45 98 -35 97 -22 ct 96 -9 95 -1 95 1 ct 41 1 l  42 -10 43 -33 43 -68 ct 
43 -460 l  99 -460 l  99 -328 l  99 -315 98 -299 97 -281 ct 99 -281 l  109 -302 123 -318 140 -327 ct 
157 -336 178 -341 203 -341 ct 245 -341 277 -327 297 -298 ct 317 -270 326 -227 326 -169 ct 
p
268 -167 m  268 -214 262 -247 249 -268 ct 237 -288 217 -298 189 -298 ct 157 -298 135 -287 120 -266 ct 
106 -244 99 -210 99 -163 ct 99 -119 106 -87 120 -66 ct 134 -45 157 -34 188 -34 ct 
216 -34 237 -45 249 -65 ct 262 -86 268 -120 268 -167 ct p ef
pom
0.996 c 12847 10494 m  12397 10494 l  12397 9095 l  13297 9095 l  13297 10494 l 
12847 10494 l  p ef
0.000 c 12846 10494 m  12396 10494 l  12396 9094 l  13296 9094 l  13296 10494 l 
12846 10494 l  pc
pum
12672 10015 t
326 -169 m  326 -52 285 7 203 7 ct 178 7 157 2 140 -7 ct 123 -16 109 -31 99 -51 ct 
98 -51 l  98 -45 98 -35 97 -22 ct 96 -9 95 -1 95 1 ct 41 1 l  42 -10 43 -33 43 -68 ct 
43 -460 l  99 -460 l  99 -328 l  99 -315 98 -299 97 -281 ct 99 -281 l  109 -302 123 -318 140 -327 ct 
157 -336 178 -341 203 -341 ct 245 -341 277 -327 297 -298 ct 317 -270 326 -227 326 -169 ct 
p
268 -167 m  268 -214 262 -247 249 -268 ct 237 -288 217 -298 189 -298 ct 157 -298 135 -287 120 -266 ct 
106 -244 99 -210 99 -163 ct 99 -119 106 -87 120 -66 ct 134 -45 157 -34 188 -34 ct 
216 -34 237 -45 249 -65 ct 262 -86 268 -120 268 -167 ct p ef
pom
5449 11695 m  5449 10869 l  5299 10869 l  5599 10594 l  5900 10869 l  5749 10869 l 
5749 11695 l  5449 11695 l  p
5299 10594 m  5299 10594 l  p
5900 11695 m  5900 11695 l  p ef
5448 11694 m  5448 10868 l  5298 10868 l  5598 10594 l  5899 10868 l  5748 10868 l 
5748 11694 l  5448 11694 l  pc
5298 10594 m  5298 10594 l  pc
5899 11694 m  5899 11694 l  pc
0.996 c 12229 7696 m  12113 7696 11997 7754 11997 7812 ct 11997 7899 l  11997 7987 l 
11997 8104 l  11997 8192 l  11997 8279 l  11997 8337 12113 8396 12229 8396 ct 
12111 8938 l  12578 8396 l  12816 8396 l  12990 8396 l  13165 8396 l  13281 8396 13397 8337 13397 8279 ct 
13397 8192 l  13397 8104 l  13397 7987 l  13397 7899 l  13397 7812 l  13397 7754 13281 7696 13165 7696 ct 
12990 7696 l  12816 7696 l  12578 7696 l  12404 7696 l  12229 7696 l  p
11997 7696 m  11997 7696 l  p
13398 8396 m  13398 8396 l  p ef
0.000 c 12229 7695 m  12113 7695 11997 7753 11997 7811 ct 11997 7898 l  11997 7986 l 
11997 8104 l  11997 8192 l  11997 8279 l  11997 8337 12113 8396 12229 8396 ct 
12111 8938 l  12577 8396 l  12815 8396 l  12989 8396 l  13164 8396 l  13280 8396 13396 8337 13396 8279 ct 
13396 8192 l  13396 8104 l  13396 7986 l  13396 7898 l  13396 7811 l  13396 7753 13280 7695 13164 7695 ct 
12989 7695 l  12815 7695 l  12577 7695 l  12403 7695 l  12229 7695 l  pc
11997 7695 m  11997 7695 l  pc
13397 8396 m  13397 8396 l  pc
pum
12284 8217 t
87 -302 m  87 -176 l  276 -176 l  276 -138 l  87 -138 l  87 0 l  41 0 l 
41 -340 l  282 -340 l  282 -302 l  87 -302 l  p ef
334 -316 m  334 -358 l  377 -358 l  377 -316 l  334 -316 l  p
334 0 m  334 -261 l  377 -261 l  377 0 l  334 0 l  p ef
545 -2 m  530 2 516 4 501 4 ct 466 4 449 -16 449 -55 ct 449 -229 l  418 -229 l 
418 -261 l  450 -261 l  463 -320 l  492 -320 l  492 -261 l  540 -261 l 
540 -229 l  492 -229 l  492 -65 l  492 -52 494 -43 498 -38 ct 502 -33 509 -31 520 -31 ct 
525 -31 534 -32 545 -34 ct 545 -2 l  p ef
650 5 m  624 5 604 -2 591 -16 ct 578 -30 571 -49 571 -73 ct 571 -100 580 -121 598 -135 ct 
615 -150 644 -157 684 -158 ct 742 -159 l  742 -174 l  742 -195 738 -210 729 -219 ct 
720 -228 706 -233 686 -233 ct 667 -233 653 -230 644 -223 ct 635 -216 630 -206 628 -191 ct 
583 -196 l  590 -243 625 -266 687 -266 ct 720 -266 745 -258 761 -243 ct 778 -228 786 -207 786 -178 ct 
786 -66 l  786 -53 788 -43 791 -37 ct 795 -30 801 -27 811 -27 ct 815 -27 819 -27 825 -28 ct 
825 -2 l  814 1 803 2 791 2 ct 775 2 763 -2 756 -10 ct 749 -19 745 -32 744 -50 ct 
742 -50 l  731 -30 718 -16 704 -7 ct 689 1 671 5 650 5 ct p
660 -28 m  676 -28 690 -31 702 -38 ct 715 -46 724 -56 732 -68 ct 739 -81 742 -94 742 -107 ct 
742 -129 l  695 -128 l  674 -128 659 -125 648 -122 ct 638 -118 630 -112 624 -104 ct 
618 -96 616 -85 616 -72 ct 616 -58 619 -47 627 -39 ct 635 -31 646 -28 660 -28 ct 
p ef
pom
0.996 c 6747 11694 m  6572 11694 6398 11809 6398 11925 ct 5808 11383 l  6398 12274 l 
6398 12512 l  6398 12686 l  6398 12861 l  6398 12977 6572 13093 6747 13093 ct 
7008 13093 l  7270 13093 l  7626 13093 l  7888 13093 l  8149 13093 l  8324 13093 8499 12977 8499 12861 ct 
8499 12686 l  8499 12512 l  8499 12274 l  8499 12100 l  8499 11925 l  8499 11809 8324 11694 8149 11694 ct 
7888 11694 l  7626 11694 l  7270 11694 l  7008 11694 l  6747 11694 l  p
6398 11694 m  6398 11694 l  p
8499 13094 m  8499 13094 l  p ef
0.000 c 6747 11693 m  6572 11693 6398 11809 6398 11925 ct 5807 11382 l  6398 12274 l 
6398 12512 l  6398 12685 l  6398 12860 l  6398 12976 6572 13092 6747 13092 ct 
7008 13092 l  7270 13092 l  7626 13092 l  7888 13092 l  8149 13092 l  8323 13092 8498 12976 8498 12860 ct 
8498 12685 l  8498 12512 l  8498 12274 l  8498 12100 l  8498 11925 l  8498 11809 8323 11693 8149 11693 ct 
7888 11693 l  7626 11693 l  7270 11693 l  7008 11693 l  6747 11693 l  pc
6398 11693 m  6398 11693 l  pc
8498 13093 m  8498 13093 l  pc
pum
6510 12565 t
191 -307 m  153 -307 124 -295 103 -271 ct 82 -247 72 -214 72 -171 ct 72 -130 83 -96 105 -71 ct 
126 -46 156 -33 193 -33 ct 241 -33 276 -56 300 -104 ct 338 -85 l  324 -56 304 -33 279 -18 ct 
254 -3 224 5 191 5 ct 157 5 127 -2 102 -16 ct 77 -31 58 -51 45 -77 ct 32 -104 25 -135 25 -171 ct 
25 -226 40 -268 69 -299 ct 98 -330 139 -345 191 -345 ct 227 -345 257 -338 281 -324 ct 
306 -310 323 -289 335 -261 ct 291 -246 l  283 -266 271 -281 253 -292 ct 236 -302 215 -307 191 -307 ct 
p ef
614 -131 m  614 -85 604 -51 584 -29 ct 564 -6 535 5 496 5 ct 458 5 429 -7 410 -30 ct 
390 -53 381 -87 381 -131 ct 381 -221 420 -266 498 -266 ct 538 -266 567 -255 586 -233 ct 
605 -211 614 -177 614 -131 ct p
568 -131 m  568 -167 563 -193 552 -209 ct 542 -226 524 -234 498 -234 ct 473 -234 455 -226 443 -209 ct 
432 -192 426 -166 426 -131 ct 426 -96 432 -70 443 -53 ct 454 -36 472 -27 496 -27 ct 
522 -27 540 -35 552 -52 ct 563 -69 568 -95 568 -131 ct p ef
834 0 m  834 -166 l  834 -183 832 -196 829 -206 ct 826 -215 820 -222 813 -226 ct 
805 -230 795 -232 780 -232 ct 759 -232 743 -225 731 -211 ct 719 -197 713 -177 713 -151 ct 
713 0 l  669 0 l  669 -205 l  669 -236 669 -254 668 -261 ct 709 -261 l  709 -260 709 -258 709 -255 ct 
709 -251 710 -247 710 -242 ct 710 -238 710 -229 711 -217 ct 711 -217 l  721 -235 733 -247 746 -255 ct 
759 -262 775 -266 795 -266 ct 824 -266 844 -259 858 -245 ct 871 -230 878 -207 878 -174 ct 
878 0 l  834 0 l  p ef
1044 -2 m  1029 2 1015 4 1000 4 ct 965 4 948 -16 948 -55 ct 948 -229 l  917 -229 l 
917 -261 l  949 -261 l  962 -320 l  991 -320 l  991 -261 l  1039 -261 l 
1039 -229 l  991 -229 l  991 -65 l  991 -52 993 -43 997 -38 ct 1001 -33 1008 -31 1019 -31 ct 
1024 -31 1033 -32 1044 -34 ct 1044 -2 l  p ef
1084 0 m  1084 -200 l  1084 -219 1084 -239 1083 -261 ct 1124 -261 l  1125 -232 1126 -214 1126 -208 ct 
1127 -208 l  1134 -230 1142 -245 1151 -254 ct 1160 -262 1172 -266 1189 -266 ct 
1194 -266 1200 -265 1206 -264 ct 1206 -224 l  1201 -225 1193 -226 1183 -226 ct 
1165 -226 1151 -218 1142 -203 ct 1132 -187 1128 -165 1128 -136 ct 1128 0 l  1084 0 l 
p ef
1469 -131 m  1469 -85 1459 -51 1439 -29 ct 1419 -6 1390 5 1351 5 ct 1313 5 1284 -7 1265 -30 ct 
1245 -53 1236 -87 1236 -131 ct 1236 -221 1275 -266 1353 -266 ct 1393 -266 1422 -255 1441 -233 ct 
1460 -211 1469 -177 1469 -131 ct p
1423 -131 m  1423 -167 1418 -193 1407 -209 ct 1397 -226 1379 -234 1353 -234 ct 
1328 -234 1310 -226 1298 -209 ct 1287 -192 1281 -166 1281 -131 ct 1281 -96 1287 -70 1298 -53 ct 
1309 -36 1327 -27 1351 -27 ct 1377 -27 1395 -35 1407 -52 ct 1418 -69 1423 -95 1423 -131 ct 
p ef
1523 0 m  1523 -358 l  1567 -358 l  1567 0 l  1523 0 l  p ef
1667 -121 m  1667 -91 1673 -68 1685 -52 ct 1698 -36 1716 -28 1739 -28 ct 1758 -28 1773 -31 1785 -39 ct 
1796 -46 1804 -56 1808 -68 ct 1846 -57 l  1830 -16 1795 5 1739 5 ct 1701 5 1671 -7 1651 -30 ct 
1631 -53 1621 -87 1621 -132 ct 1621 -175 1631 -208 1651 -231 ct 1671 -254 1700 -266 1738 -266 ct 
1814 -266 1853 -220 1853 -127 ct 1853 -121 l  1667 -121 l  p
1808 -154 m  1806 -182 1799 -202 1787 -215 ct 1775 -228 1759 -234 1737 -234 ct 
1716 -234 1699 -227 1687 -213 ct 1675 -199 1668 -179 1667 -154 ct 1808 -154 l 
p ef
pom
0 5401 t 
pom
count op_count sub {pop} repeat countdictstack dict_count sub {end} repeat b4_inc_state restore
%%PageTrailer
%%Trailer
%%EOF
