%!PS-Adobe-3.0 EPSF-3.0 
%%BoundingBox: 0 0 254 71
%%Pages: 0
%%Creator: LibreOffice 5.3
%%Title: none
%%CreationDate: none
%%LanguageLevel: 2
%%EndComments
%%BeginProlog
%%BeginResource: procset SDRes-Prolog 1.0 0
/b4_inc_state save def
/dict_count countdictstack def
/op_count count 1 sub def
userdict begin
0 setgray 0 setlinecap 1 setlinewidth 0 setlinejoin 10 setmiterlimit[] 0 setdash newpath
/languagelevel where {pop languagelevel 1 ne {false setstrokeadjust false setoverprint} if} if
/bdef {bind def} bind def
/c {setgray} bdef
/l {neg lineto} bdef
/rl {neg rlineto} bdef
/lc {setlinecap} bdef
/lj {setlinejoin} bdef
/lw {setlinewidth} bdef
/ml {setmiterlimit} bdef
/ld {setdash} bdef
/m {neg moveto} bdef
/ct {6 2 roll neg 6 2 roll neg 6 2 roll neg curveto} bdef
/r {rotate} bdef
/t {neg translate} bdef
/s {scale} bdef
/sw {show} bdef
/gs {gsave} bdef
/gr {grestore} bdef
/f {findfont dup length dict begin
{1 index /FID ne {def} {pop pop} ifelse} forall /Encoding ISOLatin1Encoding def
currentdict end /NFont exch definefont pop /NFont findfont} bdef
/p {closepath} bdef
/sf {scalefont setfont} bdef
/ef {eofill}bdef
/pc {closepath stroke}bdef
/ps {stroke}bdef
/pum {matrix currentmatrix}bdef
/pom {setmatrix}bdef
/bs {/aString exch def /nXOfs exch def /nWidth exch def currentpoint nXOfs 0 rmoveto pum nWidth aString stringwidth pop div 1 scale aString show pom moveto} bdef
%%EndResource
%%EndProlog
%%BeginSetup
%%EndSetup
%%Page: 1 1
%%BeginPageSetup
%%EndPageSetup
pum
0.02836 0.02821 s 
0 -2516 t
/tm matrix currentmatrix def
tm setmatrix
-5797 -12028 t 
1 1 s 
0.996 c 7597 13289 m  7937 13289 8197 13549 8197 13889 ct 8197 14229 7937 14488 7597 14488 ct 
7258 14488 6998 14229 6998 13889 ct 6998 13549 7258 13289 7597 13289 ct p
6998 13289 m  6998 13289 l  p
8198 14489 m  8198 14489 l  p ef
0 lw 1 lj 0.000 c 7597 13289 m  7937 13289 8197 13549 8197 13888 ct 8197 14228 7937 14488 7597 14488 ct 
7257 14488 6997 14228 6997 13888 ct 6997 13549 7257 13289 7597 13289 ct pc
6997 13289 m  6997 13289 l  pc
8198 14489 m  8198 14489 l  pc
pum
7321 13949 t
150 7 m  107 7 76 -7 56 -36 ct 37 -65 27 -108 27 -165 ct 27 -282 68 -340 150 -340 ct 
175 -340 196 -336 213 -327 ct 229 -318 243 -303 254 -282 ct 255 -282 l  255 -288 255 -299 256 -314 ct 
257 -330 258 -337 258 -337 ct 312 -337 l  311 -325 310 -295 310 -246 ct 310 132 l 
254 132 l  254 -4 l  255 -54 l  255 -54 l  244 -32 230 -16 214 -7 ct 197 2 176 7 150 7 ct 
p
254 -171 m  254 -214 247 -246 233 -267 ct 219 -288 196 -299 165 -299 ct 136 -299 116 -288 104 -267 ct 
91 -246 85 -213 85 -167 ct 85 -120 91 -87 104 -66 ct 116 -46 136 -36 164 -36 ct 
196 -36 219 -47 233 -70 ct 247 -92 254 -126 254 -171 ct p ef
pom
pum
7671 14216 t
190 -126 m  190 -84 183 -52 168 -29 ct 153 -7 131 4 102 4 ct 73 4 51 -7 36 -29 ct 
22 -51 14 -84 14 -126 ct 14 -170 21 -202 36 -224 ct 50 -245 72 -256 103 -256 ct 
133 -256 155 -245 169 -223 ct 183 -202 190 -169 190 -126 ct p
157 -126 m  157 -163 153 -189 145 -205 ct 136 -222 122 -230 103 -230 ct 83 -230 69 -222 60 -206 ct 
51 -190 47 -163 47 -126 ct 47 -90 51 -64 60 -47 ct 69 -31 83 -22 102 -22 ct 121 -22 135 -31 144 -48 ct 
153 -65 157 -91 157 -126 ct p ef
pom
0.996 c 10796 13289 m  11136 13289 11396 13549 11396 13889 ct 11396 14229 11136 14488 10796 14488 ct 
10456 14488 10197 14229 10197 13889 ct 10197 13549 10456 13289 10796 13289 ct 
p
10197 13289 m  10197 13289 l  p
11397 14489 m  11397 14489 l  p ef
0.000 c 10796 13289 m  11136 13289 11396 13549 11396 13888 ct 11396 14228 11136 14488 10796 14488 ct 
10456 14488 10196 14228 10196 13888 ct 10196 13549 10456 13289 10796 13289 ct 
pc
10196 13289 m  10196 13289 l  pc
11397 14489 m  11397 14489 l  pc
pum
10519 13949 t
150 7 m  107 7 76 -7 56 -36 ct 37 -65 27 -108 27 -165 ct 27 -282 68 -340 150 -340 ct 
175 -340 196 -336 213 -327 ct 229 -318 243 -303 254 -282 ct 255 -282 l  255 -288 255 -299 256 -314 ct 
257 -330 258 -337 258 -337 ct 312 -337 l  311 -325 310 -295 310 -246 ct 310 132 l 
254 132 l  254 -4 l  255 -54 l  255 -54 l  244 -32 230 -16 214 -7 ct 197 2 176 7 150 7 ct 
p
254 -171 m  254 -214 247 -246 233 -267 ct 219 -288 196 -299 165 -299 ct 136 -299 116 -288 104 -267 ct 
91 -246 85 -213 85 -167 ct 85 -120 91 -87 104 -66 ct 116 -46 136 -36 164 -36 ct 
196 -36 219 -47 233 -70 ct 247 -92 254 -126 254 -171 ct p ef
pom
pum
10870 14216 t
28 0 m  28 -27 l  93 -27 l  93 -222 l  35 -181 l  35 -212 l  95 -253 l 
125 -253 l  125 -27 l  187 -27 l  187 0 l  28 0 l  p ef
pom
0.996 c 14095 13289 m  14435 13289 14695 13549 14695 13889 ct 14695 14229 14435 14488 14095 14488 ct 
13755 14488 13495 14229 13495 13889 ct 13495 13549 13755 13289 14095 13289 ct 
p
13495 13289 m  13495 13289 l  p
14696 14489 m  14696 14489 l  p ef
105.94014 lw 0.000 c 14095 13289 m  14435 13289 14695 13549 14695 13888 ct 
14695 14228 14435 14488 14095 14488 ct 13755 14488 13495 14228 13495 13888 ct 
13495 13549 13755 13289 14095 13289 ct pc
13495 13289 m  13495 13289 l  pc
14696 14489 m  14696 14489 l  pc
pum
13868 13949 t
150 7 m  107 7 76 -7 56 -36 ct 37 -65 27 -108 27 -165 ct 27 -282 68 -340 150 -340 ct 
175 -340 196 -336 213 -327 ct 229 -318 243 -303 254 -282 ct 255 -282 l  255 -288 255 -299 256 -314 ct 
257 -330 258 -337 258 -337 ct 312 -337 l  311 -325 310 -295 310 -246 ct 310 132 l 
254 132 l  254 -4 l  255 -54 l  255 -54 l  244 -32 230 -16 214 -7 ct 197 2 176 7 150 7 ct 
p
254 -171 m  254 -214 247 -246 233 -267 ct 219 -288 196 -299 165 -299 ct 136 -299 116 -288 104 -267 ct 
91 -246 85 -213 85 -167 ct 85 -120 91 -87 104 -66 ct 116 -46 136 -36 164 -36 ct 
196 -36 219 -47 233 -70 ct 247 -92 254 -126 254 -171 ct p ef
pom
pum
14219 14216 t
65 -170 m  65 0 l  33 0 l  33 -170 l  5 -170 l  5 -194 l  33 -194 l  33 -216 l 
33 -234 36 -247 44 -254 ct 52 -262 64 -266 80 -266 ct 89 -266 97 -265 103 -264 ct 
103 -239 l  97 -240 93 -241 88 -241 ct 80 -241 74 -239 70 -234 ct 67 -230 65 -223 65 -211 ct 
65 -194 l  103 -194 l  103 -170 l  65 -170 l  p ef
pom
1 lw 8022 13464 m  8022 12789 l  7173 12789 l  7173 13035 l  ps
7173 13464 m  7323 13015 l  7023 13015 l  7173 13464 l  p ef
pum
7088 12614 t
128 6 m  95 6 69 -3 52 -21 ct 35 -38 27 -63 27 -94 ct 27 -128 38 -155 61 -173 ct 
84 -192 121 -202 172 -203 ct 247 -204 l  247 -223 l  247 -250 241 -269 229 -281 ct 
218 -293 200 -299 175 -299 ct 150 -299 132 -294 120 -286 ct 109 -277 102 -264 100 -245 ct 
42 -251 l  51 -311 96 -341 176 -341 ct 218 -341 250 -331 271 -312 ct 292 -293 303 -265 303 -228 ct 
303 -84 l  303 -68 305 -55 310 -47 ct 314 -39 322 -34 334 -34 ct 340 -34 346 -35 353 -37 ct 
353 -2 l  339 1 324 3 310 3 ct 289 3 274 -2 265 -13 ct 255 -24 250 -41 249 -64 ct 
247 -64 l  233 -39 216 -21 197 -10 ct 178 1 155 6 128 6 ct p
141 -36 m  161 -36 179 -40 195 -50 ct 211 -59 224 -72 233 -88 ct 242 -104 247 -121 247 -138 ct 
247 -165 l  186 -164 l  160 -164 140 -161 126 -156 ct 113 -151 102 -143 95 -133 ct 
88 -123 84 -109 84 -93 ct 84 -75 89 -61 99 -51 ct 109 -41 123 -36 141 -36 ct p ef
470 -68 m  470 -16 l  470 6 468 24 464 39 ct 460 54 454 68 446 81 ct 408 81 l 
427 53 437 26 437 0 ct 410 0 l  410 -68 l  470 -68 l  p ef
1033 -169 m  1033 -52 992 6 910 6 ct 884 6 863 2 846 -8 ct 830 -17 816 -32 805 -52 ct 
805 -52 l  805 -46 804 -36 804 -23 ct 803 -10 802 -2 802 0 ct 748 0 l  749 -11 750 -34 750 -69 ct 
750 -459 l  805 -459 l  805 -328 l  805 -315 805 -299 804 -281 ct 805 -281 l 
816 -302 829 -318 846 -327 ct 863 -336 885 -341 910 -341 ct 952 -341 983 -327 1003 -298 ct 
1023 -270 1033 -227 1033 -169 ct p
974 -167 m  974 -214 968 -247 956 -268 ct 944 -288 923 -298 896 -298 ct 864 -298 841 -287 827 -266 ct 
813 -244 805 -210 805 -164 ct 805 -120 812 -87 826 -66 ct 841 -45 863 -35 895 -35 ct 
923 -35 943 -45 956 -66 ct 968 -87 974 -121 974 -167 ct p ef
pom
5798 13889 m  6568 13889 l  ps
6998 13889 m  6548 13739 l  6548 14039 l  6998 13889 l  p ef
8197 13889 m  9767 13889 l  ps
10197 13889 m  9747 13739 l  9747 14039 l  10197 13889 l  p ef
pum
8787 13713 t
128 6 m  95 6 69 -3 52 -21 ct 35 -38 27 -63 27 -94 ct 27 -128 38 -155 61 -173 ct 
84 -192 121 -202 172 -203 ct 247 -204 l  247 -223 l  247 -250 241 -269 229 -281 ct 
218 -293 200 -299 175 -299 ct 150 -299 132 -294 120 -286 ct 109 -277 102 -264 100 -245 ct 
42 -251 l  51 -311 96 -341 176 -341 ct 218 -341 250 -331 271 -312 ct 292 -293 303 -265 303 -228 ct 
303 -84 l  303 -68 305 -55 310 -47 ct 314 -39 322 -34 334 -34 ct 340 -34 346 -35 353 -37 ct 
353 -2 l  339 1 324 3 310 3 ct 289 3 274 -2 265 -13 ct 255 -24 250 -41 249 -64 ct 
247 -64 l  233 -39 216 -21 197 -10 ct 178 1 155 6 128 6 ct p
141 -36 m  161 -36 179 -40 195 -50 ct 211 -59 224 -72 233 -88 ct 242 -104 247 -121 247 -138 ct 
247 -165 l  186 -164 l  160 -164 140 -161 126 -156 ct 113 -151 102 -143 95 -133 ct 
88 -123 84 -109 84 -93 ct 84 -75 89 -61 99 -51 ct 109 -41 123 -36 141 -36 ct p ef
pom
pum
12087 13713 t
128 6 m  95 6 69 -3 52 -21 ct 35 -38 27 -63 27 -94 ct 27 -128 38 -155 61 -173 ct 
84 -192 121 -202 172 -203 ct 247 -204 l  247 -223 l  247 -250 241 -269 229 -281 ct 
218 -293 200 -299 175 -299 ct 150 -299 132 -294 120 -286 ct 109 -277 102 -264 100 -245 ct 
42 -251 l  51 -311 96 -341 176 -341 ct 218 -341 250 -331 271 -312 ct 292 -293 303 -265 303 -228 ct 
303 -84 l  303 -68 305 -55 310 -47 ct 314 -39 322 -34 334 -34 ct 340 -34 346 -35 353 -37 ct 
353 -2 l  339 1 324 3 310 3 ct 289 3 274 -2 265 -13 ct 255 -24 250 -41 249 -64 ct 
247 -64 l  233 -39 216 -21 197 -10 ct 178 1 155 6 128 6 ct p
141 -36 m  161 -36 179 -40 195 -50 ct 211 -59 224 -72 233 -88 ct 242 -104 247 -121 247 -138 ct 
247 -165 l  186 -164 l  160 -164 140 -161 126 -156 ct 113 -151 102 -143 95 -133 ct 
88 -123 84 -109 84 -93 ct 84 -75 89 -61 99 -51 ct 109 -41 123 -36 141 -36 ct p ef
pom
11396 13889 m  13066 13889 l  ps
13495 13889 m  13046 13739 l  13046 14039 l  13495 13889 l  p ef
0 2516 t 
pom
count op_count sub {pop} repeat countdictstack dict_count sub {end} repeat b4_inc_state restore
%%PageTrailer
%%Trailer
%%EOF
