%!PS-Adobe-3.0 EPSF-3.0 
%%BoundingBox: 0 0 208 203
%%Pages: 0
%%Creator: LibreOffice 5.2
%%Title: none
%%CreationDate: none
%%LanguageLevel: 2
%%EndComments
%%BeginProlog
%%BeginResource: procset SDRes-Prolog 1.0 0
/b4_inc_state save def
/dict_count countdictstack def
/op_count count 1 sub def
userdict begin
0 setgray 0 setlinecap 1 setlinewidth 0 setlinejoin 10 setmiterlimit[] 0 setdash newpath
/languagelevel where {pop languagelevel 1 ne {false setstrokeadjust false setoverprint} if} if
/bdef {bind def} bind def
/c {setgray} bdef
/l {neg lineto} bdef
/rl {neg rlineto} bdef
/lc {setlinecap} bdef
/lj {setlinejoin} bdef
/lw {setlinewidth} bdef
/ml {setmiterlimit} bdef
/ld {setdash} bdef
/m {neg moveto} bdef
/ct {6 2 roll neg 6 2 roll neg 6 2 roll neg curveto} bdef
/r {rotate} bdef
/t {neg translate} bdef
/s {scale} bdef
/sw {show} bdef
/gs {gsave} bdef
/gr {grestore} bdef
/f {findfont dup length dict begin
{1 index /FID ne {def} {pop pop} ifelse} forall /Encoding ISOLatin1Encoding def
currentdict end /NFont exch definefont pop /NFont findfont} bdef
/p {closepath} bdef
/sf {scalefont setfont} bdef
/ef {eofill}bdef
/pc {closepath stroke}bdef
/ps {stroke}bdef
/pum {matrix currentmatrix}bdef
/pom {setmatrix}bdef
/bs {/aString exch def /nXOfs exch def /nWidth exch def currentpoint nXOfs 0 rmoveto pum nWidth aString stringwidth pop div 1 scale aString show pom moveto} bdef
%%EndResource
%%EndProlog
%%BeginSetup
%%EndSetup
%%Page: 1 1
%%BeginPageSetup
%%EndPageSetup
pum
0.02828 0.02834 s 
0 -7162 t
/tm matrix currentmatrix def
tm setmatrix
-7100 -10496 t 
1 1 s 
0.996 c 10799 11397 m  11138 11397 11398 11657 11398 11997 ct 11398 12337 11138 12596 10799 12596 ct 
10459 12596 10199 12337 10199 11997 ct 10199 11657 10459 11397 10799 11397 ct 
p
10199 11397 m  10199 11397 l  p
11399 12597 m  11399 12597 l  p ef
0 lw 1 lj 0.000 c 10798 11396 m  11138 11396 11398 11656 11398 11996 ct 11398 12336 11138 12596 10798 12596 ct 
10458 12596 10198 12336 10198 11996 ct 10198 11656 10458 11396 10798 11396 ct 
pc
10198 11396 m  10198 11396 l  pc
11399 12597 m  11399 12597 l  pc
pum
10522 12113 t
150 6 m  107 6 76 -8 56 -37 ct 37 -66 27 -109 27 -166 ct 27 -283 68 -342 150 -342 ct 
175 -342 196 -338 213 -329 ct 230 -320 243 -305 255 -284 ct 255 -284 l  255 -290 256 -301 256 -316 ct 
257 -332 258 -339 259 -339 ct 313 -339 l  311 -327 310 -297 310 -248 ct 310 132 l 
255 132 l  255 -4 l  256 -55 l  255 -55 l  244 -33 230 -17 214 -8 ct 198 1 176 6 150 6 ct 
p
255 -172 m  255 -216 247 -248 233 -269 ct 219 -290 196 -301 165 -301 ct 137 -301 116 -290 104 -269 ct 
91 -248 85 -214 85 -168 ct 85 -121 92 -88 104 -67 ct 117 -47 137 -37 164 -37 ct 
196 -37 219 -48 233 -71 ct 247 -93 255 -127 255 -172 ct p ef
pom
pum
10873 12380 t
190 -126 m  190 -84 183 -52 168 -29 ct 153 -7 131 4 102 4 ct 73 4 51 -7 36 -29 ct 
22 -51 14 -84 14 -126 ct 14 -170 21 -202 36 -224 ct 50 -245 72 -256 103 -256 ct 
133 -256 155 -245 169 -223 ct 183 -202 190 -169 190 -126 ct p
157 -126 m  157 -163 153 -189 145 -205 ct 136 -222 122 -230 103 -230 ct 83 -230 69 -222 60 -206 ct 
51 -190 47 -163 47 -126 ct 47 -90 51 -64 60 -47 ct 69 -31 83 -22 102 -22 ct 121 -22 135 -31 144 -48 ct 
153 -65 157 -91 157 -126 ct p ef
pom
0.996 c 7800 13197 m  8140 13197 8400 13457 8400 13797 ct 8400 14137 8140 14397 7800 14397 ct 
7460 14397 7200 14137 7200 13797 ct 7200 13457 7460 13197 7800 13197 ct p
7200 13197 m  7200 13197 l  p
8401 14398 m  8401 14398 l  p ef
0.000 c 7799 13197 m  8139 13197 8399 13457 8399 13797 ct 8399 14137 8139 14396 7799 14396 ct 
7459 14396 7200 14137 7200 13797 ct 7200 13457 7459 13197 7799 13197 ct pc
7200 13197 m  7200 13197 l  pc
8400 14397 m  8400 14397 l  pc
pum
7523 13913 t
150 6 m  107 6 76 -8 56 -37 ct 37 -66 27 -109 27 -166 ct 27 -283 68 -342 150 -342 ct 
175 -342 196 -338 213 -329 ct 230 -320 243 -305 255 -284 ct 255 -284 l  255 -290 256 -301 256 -316 ct 
257 -332 258 -339 259 -339 ct 313 -339 l  311 -327 310 -297 310 -248 ct 310 132 l 
255 132 l  255 -4 l  256 -55 l  255 -55 l  244 -33 230 -17 214 -8 ct 198 1 176 6 150 6 ct 
p
255 -172 m  255 -216 247 -248 233 -269 ct 219 -290 196 -301 165 -301 ct 137 -301 116 -290 104 -269 ct 
91 -248 85 -214 85 -168 ct 85 -121 92 -88 104 -67 ct 117 -47 137 -37 164 -37 ct 
196 -37 219 -48 233 -71 ct 247 -93 255 -127 255 -172 ct p ef
pom
pum
7874 14180 t
28 0 m  28 -27 l  93 -27 l  93 -222 l  35 -181 l  35 -212 l  95 -253 l 
125 -253 l  125 -27 l  187 -27 l  187 0 l  28 0 l  p ef
pom
0.996 c 13799 13197 m  14139 13197 14399 13457 14399 13797 ct 14399 14137 14139 14397 13799 14397 ct 
13459 14397 13199 14137 13199 13797 ct 13199 13457 13459 13197 13799 13197 ct 
p
13199 13197 m  13199 13197 l  p
14400 14398 m  14400 14398 l  p ef
0.000 c 13799 13197 m  14139 13197 14399 13457 14399 13797 ct 14399 14137 14139 14396 13799 14396 ct 
13459 14396 13199 14137 13199 13797 ct 13199 13457 13459 13197 13799 13197 ct 
pc
13199 13197 m  13199 13197 l  pc
14400 14397 m  14400 14397 l  pc
pum
13522 13913 t
150 6 m  107 6 76 -8 56 -37 ct 37 -66 27 -109 27 -166 ct 27 -283 68 -342 150 -342 ct 
175 -342 196 -338 213 -329 ct 230 -320 243 -305 255 -284 ct 255 -284 l  255 -290 256 -301 256 -316 ct 
257 -332 258 -339 259 -339 ct 313 -339 l  311 -327 310 -297 310 -248 ct 310 132 l 
255 132 l  255 -4 l  256 -55 l  255 -55 l  244 -33 230 -17 214 -8 ct 198 1 176 6 150 6 ct 
p
255 -172 m  255 -216 247 -248 233 -269 ct 219 -290 196 -301 165 -301 ct 137 -301 116 -290 104 -269 ct 
91 -248 85 -214 85 -168 ct 85 -121 92 -88 104 -67 ct 117 -47 137 -37 164 -37 ct 
196 -37 219 -48 233 -71 ct 247 -93 255 -127 255 -172 ct p ef
pom
pum
13873 14180 t
19 0 m  19 -23 l  25 -37 32 -49 41 -60 ct 50 -71 59 -80 69 -89 ct 78 -98 88 -106 97 -113 ct 
107 -121 116 -128 123 -136 ct 131 -143 137 -151 142 -159 ct 147 -167 149 -176 149 -187 ct 
149 -200 145 -211 137 -219 ct 129 -227 117 -230 103 -230 ct 89 -230 78 -227 69 -219 ct 
60 -212 55 -201 53 -188 ct 20 -191 l  22 -211 31 -227 46 -239 ct 61 -251 80 -257 103 -257 ct 
128 -257 148 -251 162 -239 ct 175 -227 182 -210 182 -188 ct 182 -178 180 -168 175 -158 ct 
171 -149 164 -139 155 -129 ct 147 -120 130 -104 105 -84 ct 91 -73 80 -63 72 -54 ct 
64 -45 58 -36 54 -27 ct 186 -27 l  186 0 l  19 0 l  p ef
pom
0.996 c 10800 15097 m  11139 15097 11399 15357 11399 15697 ct 11399 16037 11139 16296 10800 16296 ct 
10460 16296 10200 16037 10200 15697 ct 10200 15357 10460 15097 10800 15097 ct 
p
10200 15097 m  10200 15097 l  p
11400 16297 m  11400 16297 l  p ef
105.97799 lw 0.000 c 10799 15096 m  11139 15096 11399 15356 11399 15696 ct 
11399 16036 11139 16296 10799 16296 ct 10459 16296 10199 16036 10199 15696 ct 
10199 15356 10459 15096 10799 15096 ct pc
10199 15096 m  10199 15096 l  pc
11400 16297 m  11400 16297 l  pc
pum
10573 15813 t
150 6 m  107 6 76 -8 56 -37 ct 37 -66 27 -109 27 -166 ct 27 -283 68 -342 150 -342 ct 
175 -342 196 -338 213 -329 ct 230 -320 243 -305 255 -284 ct 255 -284 l  255 -290 256 -301 256 -316 ct 
257 -332 258 -339 259 -339 ct 313 -339 l  311 -327 310 -297 310 -248 ct 310 132 l 
255 132 l  255 -4 l  256 -55 l  255 -55 l  244 -33 230 -17 214 -8 ct 198 1 176 6 150 6 ct 
p
255 -172 m  255 -216 247 -248 233 -269 ct 219 -290 196 -301 165 -301 ct 137 -301 116 -290 104 -269 ct 
91 -248 85 -214 85 -168 ct 85 -121 92 -88 104 -67 ct 117 -47 137 -37 164 -37 ct 
196 -37 219 -48 233 -71 ct 247 -93 255 -127 255 -172 ct p ef
pom
pum
10924 16080 t
65 -170 m  65 0 l  33 0 l  33 -170 l  5 -170 l  5 -194 l  33 -194 l  33 -216 l 
33 -234 36 -247 44 -254 ct 52 -262 64 -266 80 -266 ct 89 -266 97 -265 103 -264 ct 
103 -239 l  97 -240 93 -241 88 -241 ct 80 -241 74 -239 70 -234 ct 67 -230 65 -223 65 -211 ct 
65 -194 l  103 -194 l  103 -170 l  65 -170 l  p ef
pom
1 lw 10374 12422 m  7800 12422 l  7800 12767 l  ps
7800 13197 m  7950 12747 l  7650 12747 l  7800 13197 l  p ef
11223 12422 m  13799 12422 l  13799 12767 l  ps
13799 13197 m  13949 12747 l  13649 12747 l  13799 13197 l  p ef
7800 14397 m  7800 15697 l  9770 15697 l  ps
10200 15697 m  9750 15547 l  9750 15847 l  10200 15697 l  p ef
13799 14397 m  13799 15697 l  11829 15697 l  ps
11399 15697 m  11849 15847 l  11849 15547 l  11399 15697 l  p ef
pum
8949 12298 t
128 6 m  95 6 69 -3 52 -21 ct 35 -38 27 -63 27 -94 ct 27 -129 38 -155 61 -174 ct 
84 -192 121 -202 172 -204 ct 247 -205 l  247 -223 l  247 -250 241 -270 230 -282 ct 
218 -294 200 -299 175 -299 ct 150 -299 132 -295 121 -287 ct 109 -278 102 -265 100 -246 ct 
42 -251 l  51 -312 96 -342 176 -342 ct 219 -342 250 -332 272 -313 ct 293 -294 304 -266 304 -229 ct 
304 -85 l  304 -68 306 -55 310 -47 ct 314 -39 323 -35 335 -35 ct 340 -35 346 -35 353 -37 ct 
353 -2 l  339 1 325 3 310 3 ct 289 3 274 -2 265 -13 ct 256 -24 250 -41 249 -64 ct 
247 -64 l  233 -39 216 -21 197 -10 ct 178 1 155 6 128 6 ct p
141 -36 m  162 -36 180 -41 196 -50 ct 212 -59 224 -72 233 -88 ct 243 -104 247 -121 247 -138 ct 
247 -166 l  186 -165 l  160 -164 140 -161 126 -157 ct 113 -152 102 -144 95 -134 ct 
88 -123 84 -110 84 -93 ct 84 -75 89 -61 99 -51 ct 109 -41 123 -36 141 -36 ct p ef
pom
pum
7350 15397 t
128 6 m  95 6 69 -3 52 -21 ct 35 -38 27 -63 27 -94 ct 27 -129 38 -155 61 -174 ct 
84 -192 121 -202 172 -204 ct 247 -205 l  247 -223 l  247 -250 241 -270 230 -282 ct 
218 -294 200 -299 175 -299 ct 150 -299 132 -295 121 -287 ct 109 -278 102 -265 100 -246 ct 
42 -251 l  51 -312 96 -342 176 -342 ct 219 -342 250 -332 272 -313 ct 293 -294 304 -266 304 -229 ct 
304 -85 l  304 -68 306 -55 310 -47 ct 314 -39 323 -35 335 -35 ct 340 -35 346 -35 353 -37 ct 
353 -2 l  339 1 325 3 310 3 ct 289 3 274 -2 265 -13 ct 256 -24 250 -41 249 -64 ct 
247 -64 l  233 -39 216 -21 197 -10 ct 178 1 155 6 128 6 ct p
141 -36 m  162 -36 180 -41 196 -50 ct 212 -59 224 -72 233 -88 ct 243 -104 247 -121 247 -138 ct 
247 -166 l  186 -165 l  160 -164 140 -161 126 -157 ct 113 -152 102 -144 95 -134 ct 
88 -123 84 -110 84 -93 ct 84 -75 89 -61 99 -51 ct 109 -41 123 -36 141 -36 ct p ef
pom
pum
13849 15397 t
326 -169 m  326 -52 285 7 203 7 ct 178 7 157 2 140 -7 ct 123 -16 109 -31 99 -51 ct 
98 -51 l  98 -45 98 -35 97 -22 ct 96 -9 95 -1 95 1 ct 41 1 l  42 -10 43 -33 43 -68 ct 
43 -460 l  99 -460 l  99 -328 l  99 -315 98 -299 97 -281 ct 99 -281 l  109 -302 123 -318 140 -327 ct 
157 -336 178 -341 203 -341 ct 245 -341 277 -327 297 -298 ct 317 -270 326 -227 326 -169 ct 
p
268 -167 m  268 -214 262 -247 249 -268 ct 237 -288 217 -298 189 -298 ct 157 -298 135 -287 120 -266 ct 
106 -244 99 -210 99 -163 ct 99 -119 106 -87 120 -66 ct 134 -45 157 -34 188 -34 ct 
216 -34 237 -45 249 -65 ct 262 -86 268 -120 268 -167 ct p ef
pom
11224 16121 m  11224 16851 l  10375 16851 l  10375 16551 l  ps
10375 16121 m  10225 16571 l  10525 16571 l  10375 16121 l  p ef
pum
10351 17396 t
128 6 m  95 6 69 -3 52 -21 ct 35 -38 27 -63 27 -94 ct 27 -129 38 -155 61 -174 ct 
84 -192 121 -202 172 -204 ct 247 -205 l  247 -223 l  247 -250 241 -270 230 -282 ct 
218 -294 200 -299 175 -299 ct 150 -299 132 -295 121 -287 ct 109 -278 102 -265 100 -246 ct 
42 -251 l  51 -312 96 -342 176 -342 ct 219 -342 250 -332 272 -313 ct 293 -294 304 -266 304 -229 ct 
304 -85 l  304 -68 306 -55 310 -47 ct 314 -39 323 -35 335 -35 ct 340 -35 346 -35 353 -37 ct 
353 -2 l  339 1 325 3 310 3 ct 289 3 274 -2 265 -13 ct 256 -24 250 -41 249 -64 ct 
247 -64 l  233 -39 216 -21 197 -10 ct 178 1 155 6 128 6 ct p
141 -36 m  162 -36 180 -41 196 -50 ct 212 -59 224 -72 233 -88 ct 243 -104 247 -121 247 -138 ct 
247 -166 l  186 -165 l  160 -164 140 -161 126 -157 ct 113 -152 102 -144 95 -134 ct 
88 -123 84 -110 84 -93 ct 84 -75 89 -61 99 -51 ct 109 -41 123 -36 141 -36 ct p ef
470 -68 m  470 -16 l  470 6 468 25 464 39 ct 461 54 454 68 446 82 ct 408 82 l 
427 53 437 26 437 0 ct 410 0 l  410 -68 l  470 -68 l  p ef
1033 -169 m  1033 -52 992 7 910 7 ct 885 7 864 2 847 -7 ct 830 -16 816 -31 806 -51 ct 
805 -51 l  805 -45 805 -35 804 -22 ct 803 -9 802 -1 802 1 ct 748 1 l  749 -10 750 -33 750 -68 ct 
750 -460 l  806 -460 l  806 -328 l  806 -315 805 -299 804 -281 ct 806 -281 l 
816 -302 830 -318 847 -327 ct 864 -336 885 -341 910 -341 ct 952 -341 984 -327 1004 -298 ct 
1024 -270 1033 -227 1033 -169 ct p
975 -167 m  975 -214 969 -247 956 -268 ct 944 -288 924 -298 896 -298 ct 864 -298 842 -287 827 -266 ct 
813 -244 806 -210 806 -163 ct 806 -119 813 -87 827 -66 ct 841 -45 864 -34 895 -34 ct 
923 -34 944 -45 956 -65 ct 969 -86 975 -120 975 -167 ct p ef
pom
11398 11997 m  11900 11997 l  11900 11572 l  11653 11572 l  ps
11223 11572 m  11673 11722 l  11673 11422 l  11223 11572 l  p ef
pum
11748 11498 t
128 6 m  95 6 69 -3 52 -21 ct 35 -38 27 -63 27 -94 ct 27 -129 38 -155 61 -174 ct 
84 -192 121 -202 172 -204 ct 247 -205 l  247 -223 l  247 -250 241 -270 230 -282 ct 
218 -294 200 -299 175 -299 ct 150 -299 132 -295 121 -287 ct 109 -278 102 -265 100 -246 ct 
42 -251 l  51 -312 96 -342 176 -342 ct 219 -342 250 -332 272 -313 ct 293 -294 304 -266 304 -229 ct 
304 -85 l  304 -68 306 -55 310 -47 ct 314 -39 323 -35 335 -35 ct 340 -35 346 -35 353 -37 ct 
353 -2 l  339 1 325 3 310 3 ct 289 3 274 -2 265 -13 ct 256 -24 250 -41 249 -64 ct 
247 -64 l  233 -39 216 -21 197 -10 ct 178 1 155 6 128 6 ct p
141 -36 m  162 -36 180 -41 196 -50 ct 212 -59 224 -72 233 -88 ct 243 -104 247 -121 247 -138 ct 
247 -166 l  186 -165 l  160 -164 140 -161 126 -157 ct 113 -152 102 -144 95 -134 ct 
88 -123 84 -110 84 -93 ct 84 -75 89 -61 99 -51 ct 109 -41 123 -36 141 -36 ct p ef
470 -68 m  470 -16 l  470 6 468 25 464 39 ct 461 54 454 68 446 82 ct 408 82 l 
427 53 437 26 437 0 ct 410 0 l  410 -68 l  470 -68 l  p ef
1033 -169 m  1033 -52 992 7 910 7 ct 885 7 864 2 847 -7 ct 830 -16 816 -31 806 -51 ct 
805 -51 l  805 -45 805 -35 804 -22 ct 803 -9 802 -1 802 1 ct 748 1 l  749 -10 750 -33 750 -68 ct 
750 -460 l  806 -460 l  806 -328 l  806 -315 805 -299 804 -281 ct 806 -281 l 
816 -302 830 -318 847 -327 ct 864 -336 885 -341 910 -341 ct 952 -341 984 -327 1004 -298 ct 
1024 -270 1033 -227 1033 -169 ct p
975 -167 m  975 -214 969 -247 956 -268 ct 944 -288 924 -298 896 -298 ct 864 -298 842 -287 827 -266 ct 
813 -244 806 -210 806 -163 ct 806 -119 813 -87 827 -66 ct 841 -45 864 -34 895 -34 ct 
923 -34 944 -45 956 -65 ct 969 -86 975 -120 975 -167 ct p ef
pom
pum
12549 12298 t
326 -169 m  326 -52 285 7 203 7 ct 178 7 157 2 140 -7 ct 123 -16 109 -31 99 -51 ct 
98 -51 l  98 -45 98 -35 97 -22 ct 96 -9 95 -1 95 1 ct 41 1 l  42 -10 43 -33 43 -68 ct 
43 -460 l  99 -460 l  99 -328 l  99 -315 98 -299 97 -281 ct 99 -281 l  109 -302 123 -318 140 -327 ct 
157 -336 178 -341 203 -341 ct 245 -341 277 -327 297 -298 ct 317 -270 326 -227 326 -169 ct 
p
268 -167 m  268 -214 262 -247 249 -268 ct 237 -288 217 -298 189 -298 ct 157 -298 135 -287 120 -266 ct 
106 -244 99 -210 99 -163 ct 99 -119 106 -87 120 -66 ct 134 -45 157 -34 188 -34 ct 
216 -34 237 -45 249 -65 ct 262 -86 268 -120 268 -167 ct p ef
pom
10799 10497 m  10799 10967 l  ps
10799 11397 m  10949 10947 l  10649 10947 l  10799 11397 l  p ef
0 7162 t 
pom
count op_count sub {pop} repeat countdictstack dict_count sub {end} repeat b4_inc_state restore
%%PageTrailer
%%Trailer
%%EOF
