%!PS-Adobe-3.0 EPSF-3.0 
%%BoundingBox: 0 0 656 248
%%Pages: 0
%%Creator: LibreOffice 7.4
%%Title: none
%%CreationDate: none
%%LanguageLevel: 2
%%EndComments
%%BeginProlog
%%BeginResource: procset SDRes-Prolog 1.0 0
/b4_inc_state save def
/dict_count countdictstack def
/op_count count 1 sub def
userdict begin
0 setgray 0 setlinecap 1 setlinewidth 0 setlinejoin 10 setmiterlimit[] 0 setdash newpath
/languagelevel where {pop languagelevel 1 ne {false setstrokeadjust false setoverprint} if} if
/bdef {bind def} bind def
/c {setgray} bdef
/l {neg lineto} bdef
/rl {neg rlineto} bdef
/lc {setlinecap} bdef
/lj {setlinejoin} bdef
/lw {setlinewidth} bdef
/ml {setmiterlimit} bdef
/ld {setdash} bdef
/m {neg moveto} bdef
/ct {6 2 roll neg 6 2 roll neg 6 2 roll neg curveto} bdef
/r {rotate} bdef
/t {neg translate} bdef
/s {scale} bdef
/sw {show} bdef
/gs {gsave} bdef
/gr {grestore} bdef
/f {findfont dup length dict begin
{1 index /FID ne {def} {pop pop} ifelse} forall /Encoding ISOLatin1Encoding def
currentdict end /NFont exch definefont pop /NFont findfont} bdef
/p {closepath} bdef
/sf {scalefont setfont} bdef
/ef {eofill}bdef
/pc {closepath stroke}bdef
/ps {stroke}bdef
/pum {matrix currentmatrix}bdef
/pom {setmatrix}bdef
/bs {/aString exch def /nXOfs exch def /nWidth exch def currentpoint nXOfs 0 rmoveto pum nWidth aString stringwidth pop div 1 scale aString show pom moveto} bdef
%%EndResource
%%EndProlog
%%BeginSetup
%%EndSetup
%%Page: 1 1
%%BeginPageSetup
%%EndPageSetup
pum
0.02835 0.02834 s 
0 -8749 t
/tm matrix currentmatrix def
tm setmatrix
-2973 -4955 t 
1 1 s 
gs
0.996 c 8370 12480 m  5997 12480 l  5997 9734 l  10744 9734 l  10744 12480 l 
8370 12480 l  p ef
gr
gs
0 lw 1 lj 0.000 c 8370 12480 m  5996 12480 l  5996 9734 l  10743 9734 l 
10743 12480 l  8370 12480 l  pc
gr
pum
6521 11328 t
0.000 c 111 -388 m  111 -226 l  354 -226 l  354 -177 l  111 -177 l  111 -1 l 
52 -1 l  52 -436 l  362 -436 l  362 -388 l  111 -388 l  p ef
486 -335 m  486 -123 l  486 -101 488 -84 493 -71 ct 497 -59 504 -50 513 -45 ct 
523 -40 537 -37 555 -37 ct 582 -37 603 -46 619 -65 ct 634 -83 642 -108 642 -141 ct 
642 -335 l  698 -335 l  698 -72 l  698 -33 698 -9 700 0 ct 647 0 l  647 -1 646 -4 646 -9 ct 
646 -13 646 -18 645 -24 ct 645 -30 645 -41 644 -57 ct 643 -57 l  631 -34 616 -18 599 -8 ct 
582 1 561 6 536 6 ct 500 6 473 -3 456 -21 ct 439 -40 430 -70 430 -112 ct 430 -335 l 
486 -335 l  p ef
767 0 m  767 -42 l  954 -292 l  777 -292 l  777 -335 l  1020 -335 l  1020 -293 l 
832 -43 l  1026 -43 l  1026 0 l  767 0 l  p ef
1083 0 m  1083 -42 l  1270 -292 l  1093 -292 l  1093 -335 l  1336 -335 l 
1336 -293 l  1148 -43 l  1342 -43 l  1342 0 l  1083 0 l  p ef
1434 132 m  1419 132 1406 131 1396 129 ct 1396 87 l  1404 88 1412 89 1422 89 ct 
1456 89 1484 63 1504 12 ct 1509 -1 l  1377 -335 l  1436 -335 l  1507 -149 l 
1508 -147 1509 -143 1510 -139 ct 1512 -135 1516 -122 1524 -99 ct 1532 -76 1536 -63 1537 -60 ct 
1559 -121 l  1632 -335 l  1691 -335 l  1562 0 l  1548 36 1535 63 1523 80 ct 
1511 98 1498 111 1484 119 ct 1469 128 1453 132 1434 132 ct p ef
1804 -294 m  1804 0 l  1748 0 l  1748 -294 l  1701 -294 l  1701 -335 l 
1748 -335 l  1748 -373 l  1748 -403 1755 -425 1768 -439 ct 1782 -452 1802 -459 1830 -459 ct 
1845 -459 1858 -458 1869 -455 ct 1869 -413 l  1860 -415 1852 -415 1844 -415 ct 
1830 -415 1820 -412 1813 -405 ct 1807 -397 1804 -384 1804 -365 ct 1804 -335 l 
1869 -335 l  1869 -294 l  1804 -294 l  p ef
1912 -406 m  1912 -459 l  1968 -459 l  1968 -406 l  1912 -406 l  p
1912 0 m  1912 -335 l  1968 -335 l  1968 0 l  1912 0 l  p ef
2095 -169 m  2095 -125 2102 -92 2116 -70 ct 2130 -49 2151 -38 2180 -38 ct 2199 -38 2216 -43 2229 -54 ct 
2243 -65 2251 -81 2254 -104 ct 2310 -100 l  2306 -68 2292 -42 2269 -23 ct 2246 -4 2217 6 2181 6 ct 
2134 6 2099 -9 2074 -38 ct 2049 -68 2037 -111 2037 -168 ct 2037 -224 2049 -267 2074 -297 ct 
2099 -326 2134 -341 2181 -341 ct 2215 -341 2243 -332 2266 -314 ct 2288 -297 2303 -272 2308 -241 ct 
2251 -237 l  2248 -255 2241 -270 2229 -281 ct 2217 -292 2201 -297 2179 -297 ct 
2150 -297 2128 -288 2115 -268 ct 2102 -248 2095 -215 2095 -169 ct p ef
2455 6 m  2422 6 2396 -3 2379 -21 ct 2362 -38 2354 -63 2354 -94 ct 2354 -128 2365 -155 2388 -173 ct 
2411 -192 2448 -202 2499 -203 ct 2574 -204 l  2574 -223 l  2574 -250 2568 -269 2556 -281 ct 
2545 -293 2527 -299 2502 -299 ct 2477 -299 2459 -294 2447 -286 ct 2436 -277 2429 -264 2427 -245 ct 
2369 -251 l  2378 -311 2423 -341 2503 -341 ct 2545 -341 2577 -331 2598 -312 ct 
2619 -293 2630 -265 2630 -228 ct 2630 -84 l  2630 -68 2632 -55 2637 -47 ct 2641 -39 2649 -34 2661 -34 ct 
2667 -34 2673 -35 2680 -37 ct 2680 -2 l  2666 1 2651 3 2637 3 ct 2616 3 2601 -2 2592 -13 ct 
2582 -24 2577 -41 2576 -64 ct 2574 -64 l  2560 -39 2543 -21 2524 -10 ct 2505 1 2482 6 2455 6 ct 
p
2468 -36 m  2488 -36 2506 -40 2522 -50 ct 2538 -59 2551 -72 2560 -88 ct 2569 -104 2574 -121 2574 -138 ct 
2574 -165 l  2513 -164 l  2487 -164 2467 -161 2453 -156 ct 2440 -151 2429 -143 2422 -133 ct 
2415 -123 2411 -109 2411 -93 ct 2411 -75 2416 -61 2426 -51 ct 2436 -41 2450 -36 2468 -36 ct 
p ef
2763 -169 m  2763 -125 2770 -92 2784 -70 ct 2798 -49 2819 -38 2848 -38 ct 2867 -38 2884 -43 2897 -54 ct 
2911 -65 2919 -81 2922 -104 ct 2978 -100 l  2974 -68 2960 -42 2937 -23 ct 2914 -4 2885 6 2849 6 ct 
2802 6 2767 -9 2742 -38 ct 2717 -68 2705 -111 2705 -168 ct 2705 -224 2717 -267 2742 -297 ct 
2767 -326 2802 -341 2849 -341 ct 2883 -341 2911 -332 2934 -314 ct 2956 -297 2971 -272 2976 -241 ct 
2919 -237 l  2916 -255 2909 -270 2897 -281 ct 2885 -292 2869 -297 2847 -297 ct 
2818 -297 2796 -288 2783 -268 ct 2770 -248 2763 -215 2763 -169 ct p
2910 78 m  2910 115 2882 134 2826 134 ct 2814 134 2805 134 2798 133 ct 2798 102 l 
2808 104 2817 104 2824 104 ct 2855 104 2870 96 2870 79 ct 2870 63 2856 55 2829 55 ct 
2820 55 2814 56 2811 56 ct 2831 0 l  2864 0 l  2852 31 l  2872 31 2886 35 2896 44 ct 
2906 52 2910 64 2910 78 ct p ef
3123 6 m  3090 6 3064 -3 3047 -21 ct 3030 -38 3022 -63 3022 -94 ct 3022 -128 3033 -155 3056 -173 ct 
3079 -192 3116 -202 3167 -203 ct 3242 -204 l  3242 -223 l  3242 -250 3236 -269 3224 -281 ct 
3213 -293 3195 -299 3170 -299 ct 3145 -299 3127 -294 3115 -286 ct 3104 -277 3097 -264 3095 -245 ct 
3037 -251 l  3046 -311 3091 -341 3171 -341 ct 3213 -341 3245 -331 3266 -312 ct 
3287 -293 3298 -265 3298 -228 ct 3298 -84 l  3298 -68 3300 -55 3305 -47 ct 3309 -39 3317 -34 3329 -34 ct 
3335 -34 3341 -35 3348 -37 ct 3348 -2 l  3334 1 3319 3 3305 3 ct 3284 3 3269 -2 3260 -13 ct 
3250 -24 3245 -41 3244 -64 ct 3242 -64 l  3228 -39 3211 -21 3192 -10 ct 3173 1 3150 6 3123 6 ct 
p
3136 -36 m  3156 -36 3174 -40 3190 -50 ct 3206 -59 3219 -72 3228 -88 ct 3237 -104 3242 -121 3242 -138 ct 
3242 -165 l  3181 -164 l  3155 -164 3135 -161 3121 -156 ct 3108 -151 3097 -143 3090 -133 ct 
3083 -123 3079 -109 3079 -93 ct 3079 -75 3084 -61 3094 -51 ct 3104 -41 3118 -36 3136 -36 ct 
p
3223 -372 m  3214 -372 3206 -374 3197 -378 ct 3188 -381 3180 -386 3172 -390 ct 
3164 -395 3156 -399 3149 -403 ct 3142 -407 3135 -409 3128 -409 ct 3117 -409 3109 -406 3103 -399 ct 
3097 -393 3094 -384 3092 -372 ct 3064 -372 l  3066 -393 3070 -409 3075 -420 ct 
3080 -431 3086 -439 3095 -446 ct 3103 -452 3114 -455 3127 -455 ct 3136 -455 3145 -453 3153 -449 ct 
3162 -445 3170 -441 3178 -437 ct 3186 -432 3194 -428 3201 -424 ct 3208 -420 3215 -418 3221 -418 ct 
3242 -418 3254 -430 3257 -455 ct 3286 -455 l  3282 -424 3275 -403 3265 -391 ct 
3255 -378 3241 -372 3223 -372 ct p ef
3673 -168 m  3673 -109 3660 -66 3634 -37 ct 3608 -8 3571 6 3522 6 ct 3473 6 3436 -9 3411 -39 ct 
3386 -69 3374 -112 3374 -168 ct 3374 -283 3424 -341 3524 -341 ct 3575 -341 3613 -327 3637 -299 ct 
3661 -271 3673 -227 3673 -168 ct p
3614 -168 m  3614 -214 3608 -248 3594 -269 ct 3580 -290 3557 -300 3525 -300 ct 
3492 -300 3469 -289 3454 -268 ct 3439 -247 3432 -213 3432 -168 ct 3432 -124 3439 -91 3454 -68 ct 
3468 -46 3491 -35 3521 -35 ct 3555 -35 3579 -46 3593 -67 ct 3607 -89 3614 -122 3614 -168 ct 
p ef
pom
gs
0.996 c 14967 12480 m  12593 12480 l  12593 9734 l  17340 9734 l  17340 12480 l 
14967 12480 l  p ef
gr
gs
0 lw 1 lj 14966 12480 m  12592 12480 l  12592 9734 l  17340 9734 l  17340 12480 l 
14966 12480 l  pc
gr
pum
13577 10972 t
59 0 m  59 -436 l  118 -436 l  118 0 l  59 0 l  p ef
433 0 m  433 -212 l  433 -234 431 -251 427 -264 ct 423 -276 416 -285 406 -290 ct 
397 -295 383 -298 364 -298 ct 338 -298 316 -289 301 -270 ct 285 -252 278 -227 278 -194 ct 
278 0 l  222 0 l  222 -263 l  222 -302 221 -326 220 -335 ct 273 -335 l  273 -334 273 -331 273 -326 ct 
274 -322 274 -317 274 -311 ct 274 -305 275 -294 275 -278 ct 276 -278 l  289 -301 304 -317 321 -327 ct 
337 -336 358 -341 383 -341 ct 420 -341 447 -332 464 -314 ct 481 -295 489 -265 489 -223 ct 
489 0 l  433 0 l  p ef
641 -294 m  641 0 l  585 0 l  585 -294 l  538 -294 l  538 -335 l  585 -335 l 
585 -373 l  585 -403 592 -425 605 -439 ct 619 -452 639 -459 667 -459 ct 682 -459 695 -458 706 -455 ct 
706 -413 l  697 -415 689 -415 681 -415 ct 667 -415 657 -412 650 -405 ct 644 -397 641 -384 641 -365 ct 
641 -335 l  706 -335 l  706 -294 l  641 -294 l  p ef
792 -156 m  792 -118 800 -88 816 -67 ct 832 -46 855 -36 886 -36 ct 910 -36 929 -41 944 -50 ct 
959 -60 968 -72 974 -87 ct 1022 -73 l  1002 -20 957 6 886 6 ct 836 6 799 -9 773 -38 ct 
747 -68 734 -112 734 -170 ct 734 -225 747 -267 773 -297 ct 799 -326 836 -341 884 -341 ct 
982 -341 1031 -282 1031 -163 ct 1031 -156 l  792 -156 l  p
974 -199 m  971 -234 962 -260 947 -276 ct 932 -292 911 -300 883 -300 ct 856 -300 834 -291 819 -273 ct 
803 -255 794 -230 793 -199 ct 974 -199 l  p ef
1101 0 m  1101 -257 l  1101 -280 1100 -306 1099 -335 ct 1152 -335 l  1153 -297 1154 -274 1154 -266 ct 
1155 -266 l  1164 -295 1175 -315 1186 -325 ct 1198 -336 1214 -341 1235 -341 ct 
1242 -341 1250 -340 1258 -338 ct 1258 -287 l  1250 -289 1240 -290 1228 -290 ct 
1205 -290 1187 -280 1175 -260 ct 1163 -240 1157 -212 1157 -175 ct 1157 0 l  1101 0 l 
p ef
1354 -156 m  1354 -118 1362 -88 1378 -67 ct 1394 -46 1417 -36 1448 -36 ct 1472 -36 1491 -41 1506 -50 ct 
1521 -60 1530 -72 1536 -87 ct 1584 -73 l  1564 -20 1519 6 1448 6 ct 1398 6 1361 -9 1335 -38 ct 
1309 -68 1296 -112 1296 -170 ct 1296 -225 1309 -267 1335 -297 ct 1361 -326 1398 -341 1446 -341 ct 
1544 -341 1593 -282 1593 -163 ct 1593 -156 l  1354 -156 l  p
1536 -199 m  1533 -234 1524 -260 1509 -276 ct 1494 -292 1473 -300 1445 -300 ct 
1418 -300 1396 -291 1381 -273 ct 1365 -255 1356 -230 1355 -199 ct 1536 -199 l 
p
1550 -378 m  1550 -372 l  1517 -372 l  1449 -424 l  1449 -424 l  1377 -372 l 
1345 -372 l  1345 -378 l  1417 -462 l  1480 -462 l  1550 -378 l  p ef
1875 0 m  1875 -212 l  1875 -234 1873 -251 1869 -264 ct 1865 -276 1858 -285 1848 -290 ct 
1839 -295 1825 -298 1806 -298 ct 1780 -298 1758 -289 1743 -270 ct 1727 -252 1720 -227 1720 -194 ct 
1720 0 l  1664 0 l  1664 -263 l  1664 -302 1663 -326 1662 -335 ct 1715 -335 l 
1715 -334 1715 -331 1715 -326 ct 1716 -322 1716 -317 1716 -311 ct 1716 -305 1717 -294 1717 -278 ct 
1718 -278 l  1731 -301 1746 -317 1763 -327 ct 1779 -336 1800 -341 1825 -341 ct 
1862 -341 1889 -332 1906 -314 ct 1923 -295 1931 -265 1931 -223 ct 1931 0 l  1875 0 l 
p ef
2057 -169 m  2057 -125 2064 -92 2078 -70 ct 2092 -49 2113 -38 2142 -38 ct 2161 -38 2178 -43 2191 -54 ct 
2205 -65 2213 -81 2216 -104 ct 2272 -100 l  2268 -68 2254 -42 2231 -23 ct 2208 -4 2179 6 2143 6 ct 
2096 6 2061 -9 2036 -38 ct 2011 -68 1999 -111 1999 -168 ct 1999 -224 2011 -267 2036 -297 ct 
2061 -326 2096 -341 2143 -341 ct 2177 -341 2205 -332 2228 -314 ct 2250 -297 2265 -272 2270 -241 ct 
2213 -237 l  2210 -255 2203 -270 2191 -281 ct 2179 -292 2163 -297 2141 -297 ct 
2112 -297 2090 -288 2077 -268 ct 2064 -248 2057 -215 2057 -169 ct p ef
2331 -406 m  2331 -459 l  2387 -459 l  2387 -406 l  2331 -406 l  p
2331 0 m  2331 -335 l  2387 -335 l  2387 0 l  2331 0 l  p ef
2557 6 m  2524 6 2498 -3 2481 -21 ct 2464 -38 2456 -63 2456 -94 ct 2456 -128 2467 -155 2490 -173 ct 
2513 -192 2550 -202 2601 -203 ct 2676 -204 l  2676 -223 l  2676 -250 2670 -269 2658 -281 ct 
2647 -293 2629 -299 2604 -299 ct 2579 -299 2561 -294 2549 -286 ct 2538 -277 2531 -264 2529 -245 ct 
2471 -251 l  2480 -311 2525 -341 2605 -341 ct 2647 -341 2679 -331 2700 -312 ct 
2721 -293 2732 -265 2732 -228 ct 2732 -84 l  2732 -68 2734 -55 2739 -47 ct 2743 -39 2751 -34 2763 -34 ct 
2769 -34 2775 -35 2782 -37 ct 2782 -2 l  2768 1 2753 3 2739 3 ct 2718 3 2703 -2 2694 -13 ct 
2684 -24 2679 -41 2678 -64 ct 2676 -64 l  2662 -39 2645 -21 2626 -10 ct 2607 1 2584 6 2557 6 ct 
p
2570 -36 m  2590 -36 2608 -40 2624 -50 ct 2640 -59 2653 -72 2662 -88 ct 2671 -104 2676 -121 2676 -138 ct 
2676 -165 l  2615 -164 l  2589 -164 2569 -161 2555 -156 ct 2542 -151 2531 -143 2524 -133 ct 
2517 -123 2513 -109 2513 -93 ct 2513 -75 2518 -61 2528 -51 ct 2538 -41 2552 -36 2570 -36 ct 
p ef
pom
pum
14121 11682 t
111 -388 m  111 -226 l  354 -226 l  354 -177 l  111 -177 l  111 -1 l  52 -1 l 
52 -436 l  362 -436 l  362 -388 l  111 -388 l  p ef
486 -335 m  486 -123 l  486 -101 488 -84 493 -71 ct 497 -59 504 -50 513 -45 ct 
523 -40 537 -37 555 -37 ct 582 -37 603 -46 619 -65 ct 634 -83 642 -108 642 -141 ct 
642 -335 l  698 -335 l  698 -72 l  698 -33 698 -9 700 0 ct 647 0 l  647 -1 646 -4 646 -9 ct 
646 -13 646 -18 645 -24 ct 645 -30 645 -41 644 -57 ct 643 -57 l  631 -34 616 -18 599 -8 ct 
582 1 561 6 536 6 ct 500 6 473 -3 456 -21 ct 439 -40 430 -70 430 -112 ct 430 -335 l 
486 -335 l  p ef
767 0 m  767 -42 l  954 -292 l  777 -292 l  777 -335 l  1020 -335 l  1020 -293 l 
832 -43 l  1026 -43 l  1026 0 l  767 0 l  p ef
1083 0 m  1083 -42 l  1270 -292 l  1093 -292 l  1093 -335 l  1336 -335 l 
1336 -293 l  1148 -43 l  1342 -43 l  1342 0 l  1083 0 l  p ef
1434 132 m  1419 132 1406 131 1396 129 ct 1396 87 l  1404 88 1412 89 1422 89 ct 
1456 89 1484 63 1504 12 ct 1509 -1 l  1377 -335 l  1436 -335 l  1507 -149 l 
1508 -147 1509 -143 1510 -139 ct 1512 -135 1516 -122 1524 -99 ct 1532 -76 1536 -63 1537 -60 ct 
1559 -121 l  1632 -335 l  1691 -335 l  1562 0 l  1548 36 1535 63 1523 80 ct 
1511 98 1498 111 1484 119 ct 1469 128 1453 132 1434 132 ct p ef
pom
gs
0.996 c 21213 12480 m  18689 12480 l  18689 9734 l  23737 9734 l  23737 12480 l 
21213 12480 l  p ef
gr
gs
0 lw 1 lj 21213 12480 m  18689 12480 l  18689 9734 l  23736 9734 l  23736 12480 l 
21213 12480 l  pc
gr
pum
19066 11328 t
428 -222 m  428 -178 419 -138 401 -104 ct 384 -71 359 -45 327 -27 ct 294 -9 257 0 215 0 ct 
52 0 l  52 -436 l  196 -436 l  270 -436 327 -417 367 -380 ct 407 -343 428 -291 428 -222 ct 
p
368 -222 m  368 -277 353 -318 324 -346 ct 294 -374 251 -389 195 -389 ct 111 -389 l 
111 -47 l  208 -47 l  240 -47 268 -54 293 -68 ct 317 -82 336 -103 349 -129 ct 
362 -155 368 -187 368 -222 ct p ef
542 -156 m  542 -118 550 -88 566 -67 ct 582 -46 605 -36 636 -36 ct 660 -36 679 -41 694 -50 ct 
709 -60 718 -72 724 -87 ct 772 -73 l  752 -20 707 6 636 6 ct 586 6 549 -9 523 -38 ct 
497 -68 484 -112 484 -170 ct 484 -225 497 -267 523 -297 ct 549 -326 586 -341 634 -341 ct 
732 -341 781 -282 781 -163 ct 781 -156 l  542 -156 l  p
724 -199 m  721 -234 712 -260 697 -276 ct 682 -292 661 -300 633 -300 ct 606 -300 584 -291 569 -273 ct 
553 -255 544 -230 543 -199 ct 724 -199 l  p ef
921 -294 m  921 0 l  865 0 l  865 -294 l  818 -294 l  818 -335 l  865 -335 l 
865 -373 l  865 -403 872 -425 885 -439 ct 899 -452 919 -459 947 -459 ct 962 -459 975 -458 986 -455 ct 
986 -413 l  977 -415 969 -415 961 -415 ct 947 -415 937 -412 930 -405 ct 924 -397 921 -384 921 -365 ct 
921 -335 l  986 -335 l  986 -294 l  921 -294 l  p ef
1082 -335 m  1082 -123 l  1082 -101 1084 -84 1089 -71 ct 1093 -59 1100 -50 1109 -45 ct 
1119 -40 1133 -37 1151 -37 ct 1178 -37 1199 -46 1215 -65 ct 1230 -83 1238 -108 1238 -141 ct 
1238 -335 l  1294 -335 l  1294 -72 l  1294 -33 1294 -9 1296 0 ct 1243 0 l 
1243 -1 1242 -4 1242 -9 ct 1242 -13 1242 -18 1241 -24 ct 1241 -30 1241 -41 1240 -57 ct 
1239 -57 l  1227 -34 1212 -18 1195 -8 ct 1178 1 1157 6 1132 6 ct 1096 6 1069 -3 1052 -21 ct 
1035 -40 1026 -70 1026 -112 ct 1026 -335 l  1082 -335 l  p ef
1363 0 m  1363 -42 l  1550 -292 l  1373 -292 l  1373 -335 l  1616 -335 l 
1616 -293 l  1428 -43 l  1622 -43 l  1622 0 l  1363 0 l  p ef
1680 0 m  1680 -42 l  1867 -292 l  1690 -292 l  1690 -335 l  1933 -335 l 
1933 -293 l  1745 -43 l  1939 -43 l  1939 0 l  1680 0 l  p ef
2031 132 m  2016 132 2003 131 1993 129 ct 1993 87 l  2001 88 2009 89 2019 89 ct 
2053 89 2081 63 2101 12 ct 2106 -1 l  1974 -335 l  2033 -335 l  2104 -149 l 
2105 -147 2106 -143 2107 -139 ct 2109 -135 2113 -122 2121 -99 ct 2129 -76 2133 -63 2134 -60 ct 
2156 -121 l  2229 -335 l  2288 -335 l  2159 0 l  2145 36 2132 63 2120 80 ct 
2108 98 2095 111 2081 119 ct 2066 128 2050 132 2031 132 ct p ef
2401 -294 m  2401 0 l  2345 0 l  2345 -294 l  2298 -294 l  2298 -335 l 
2345 -335 l  2345 -373 l  2345 -403 2352 -425 2365 -439 ct 2379 -452 2399 -459 2427 -459 ct 
2442 -459 2455 -458 2466 -455 ct 2466 -413 l  2457 -415 2449 -415 2441 -415 ct 
2427 -415 2417 -412 2410 -405 ct 2404 -397 2401 -384 2401 -365 ct 2401 -335 l 
2466 -335 l  2466 -294 l  2401 -294 l  p ef
2509 -406 m  2509 -459 l  2565 -459 l  2565 -406 l  2509 -406 l  p
2509 0 m  2509 -335 l  2565 -335 l  2565 0 l  2509 0 l  p ef
2692 -169 m  2692 -125 2699 -92 2713 -70 ct 2727 -49 2748 -38 2777 -38 ct 2796 -38 2813 -43 2826 -54 ct 
2840 -65 2848 -81 2851 -104 ct 2907 -100 l  2903 -68 2889 -42 2866 -23 ct 2843 -4 2814 6 2778 6 ct 
2731 6 2696 -9 2671 -38 ct 2646 -68 2634 -111 2634 -168 ct 2634 -224 2646 -267 2671 -297 ct 
2696 -326 2731 -341 2778 -341 ct 2812 -341 2840 -332 2863 -314 ct 2885 -297 2900 -272 2905 -241 ct 
2848 -237 l  2845 -255 2838 -270 2826 -281 ct 2814 -292 2798 -297 2776 -297 ct 
2747 -297 2725 -288 2712 -268 ct 2699 -248 2692 -215 2692 -169 ct p ef
3051 6 m  3018 6 2992 -3 2975 -21 ct 2958 -38 2950 -63 2950 -94 ct 2950 -128 2961 -155 2984 -173 ct 
3007 -192 3044 -202 3095 -203 ct 3170 -204 l  3170 -223 l  3170 -250 3164 -269 3152 -281 ct 
3141 -293 3123 -299 3098 -299 ct 3073 -299 3055 -294 3043 -286 ct 3032 -277 3025 -264 3023 -245 ct 
2965 -251 l  2974 -311 3019 -341 3099 -341 ct 3141 -341 3173 -331 3194 -312 ct 
3215 -293 3226 -265 3226 -228 ct 3226 -84 l  3226 -68 3228 -55 3233 -47 ct 3237 -39 3245 -34 3257 -34 ct 
3263 -34 3269 -35 3276 -37 ct 3276 -2 l  3262 1 3247 3 3233 3 ct 3212 3 3197 -2 3188 -13 ct 
3178 -24 3173 -41 3172 -64 ct 3170 -64 l  3156 -39 3139 -21 3120 -10 ct 3101 1 3078 6 3051 6 ct 
p
3064 -36 m  3084 -36 3102 -40 3118 -50 ct 3134 -59 3147 -72 3156 -88 ct 3165 -104 3170 -121 3170 -138 ct 
3170 -165 l  3109 -164 l  3083 -164 3063 -161 3049 -156 ct 3036 -151 3025 -143 3018 -133 ct 
3011 -123 3007 -109 3007 -93 ct 3007 -75 3012 -61 3022 -51 ct 3032 -41 3046 -36 3064 -36 ct 
p ef
3360 -169 m  3360 -125 3367 -92 3381 -70 ct 3395 -49 3416 -38 3445 -38 ct 3464 -38 3481 -43 3494 -54 ct 
3508 -65 3516 -81 3519 -104 ct 3575 -100 l  3571 -68 3557 -42 3534 -23 ct 3511 -4 3482 6 3446 6 ct 
3399 6 3364 -9 3339 -38 ct 3314 -68 3302 -111 3302 -168 ct 3302 -224 3314 -267 3339 -297 ct 
3364 -326 3399 -341 3446 -341 ct 3480 -341 3508 -332 3531 -314 ct 3553 -297 3568 -272 3573 -241 ct 
3516 -237 l  3513 -255 3506 -270 3494 -281 ct 3482 -292 3466 -297 3444 -297 ct 
3415 -297 3393 -288 3380 -268 ct 3367 -248 3360 -215 3360 -169 ct p
3507 78 m  3507 115 3479 134 3423 134 ct 3411 134 3402 134 3395 133 ct 3395 102 l 
3405 104 3414 104 3421 104 ct 3452 104 3467 96 3467 79 ct 3467 63 3453 55 3426 55 ct 
3417 55 3411 56 3408 56 ct 3428 0 l  3461 0 l  3449 31 l  3469 31 3483 35 3493 44 ct 
3503 52 3507 64 3507 78 ct p ef
3720 6 m  3687 6 3661 -3 3644 -21 ct 3627 -38 3619 -63 3619 -94 ct 3619 -128 3630 -155 3653 -173 ct 
3676 -192 3713 -202 3764 -203 ct 3839 -204 l  3839 -223 l  3839 -250 3833 -269 3821 -281 ct 
3810 -293 3792 -299 3767 -299 ct 3742 -299 3724 -294 3712 -286 ct 3701 -277 3694 -264 3692 -245 ct 
3634 -251 l  3643 -311 3688 -341 3768 -341 ct 3810 -341 3842 -331 3863 -312 ct 
3884 -293 3895 -265 3895 -228 ct 3895 -84 l  3895 -68 3897 -55 3902 -47 ct 3906 -39 3914 -34 3926 -34 ct 
3932 -34 3938 -35 3945 -37 ct 3945 -2 l  3931 1 3916 3 3902 3 ct 3881 3 3866 -2 3857 -13 ct 
3847 -24 3842 -41 3841 -64 ct 3839 -64 l  3825 -39 3808 -21 3789 -10 ct 3770 1 3747 6 3720 6 ct 
p
3733 -36 m  3753 -36 3771 -40 3787 -50 ct 3803 -59 3816 -72 3825 -88 ct 3834 -104 3839 -121 3839 -138 ct 
3839 -165 l  3778 -164 l  3752 -164 3732 -161 3718 -156 ct 3705 -151 3694 -143 3687 -133 ct 
3680 -123 3676 -109 3676 -93 ct 3676 -75 3681 -61 3691 -51 ct 3701 -41 3715 -36 3733 -36 ct 
p
3820 -372 m  3811 -372 3803 -374 3794 -378 ct 3785 -381 3777 -386 3769 -390 ct 
3761 -395 3753 -399 3746 -403 ct 3739 -407 3732 -409 3725 -409 ct 3714 -409 3706 -406 3700 -399 ct 
3694 -393 3691 -384 3689 -372 ct 3661 -372 l  3663 -393 3667 -409 3672 -420 ct 
3677 -431 3683 -439 3692 -446 ct 3700 -452 3711 -455 3724 -455 ct 3733 -455 3742 -453 3750 -449 ct 
3759 -445 3767 -441 3775 -437 ct 3783 -432 3791 -428 3798 -424 ct 3805 -420 3812 -418 3818 -418 ct 
3839 -418 3851 -430 3854 -455 ct 3883 -455 l  3879 -424 3872 -403 3862 -391 ct 
3852 -378 3838 -372 3820 -372 ct p ef
4269 -168 m  4269 -109 4256 -66 4230 -37 ct 4204 -8 4167 6 4118 6 ct 4069 6 4032 -9 4007 -39 ct 
3982 -69 3970 -112 3970 -168 ct 3970 -283 4020 -341 4120 -341 ct 4171 -341 4209 -327 4233 -299 ct 
4257 -271 4269 -227 4269 -168 ct p
4210 -168 m  4210 -214 4204 -248 4190 -269 ct 4176 -290 4153 -300 4121 -300 ct 
4088 -300 4065 -289 4050 -268 ct 4035 -247 4028 -213 4028 -168 ct 4028 -124 4035 -91 4050 -68 ct 
4064 -46 4087 -35 4117 -35 ct 4151 -35 4175 -46 4189 -67 ct 4203 -89 4210 -122 4210 -168 ct 
p ef
pom
gs
0.996 c 14967 7688 m  12593 7688 l  12593 4942 l  17340 4942 l  17340 7688 l 
14967 7688 l  p ef
gr
gs
0 lw 1 lj 14966 7687 m  12592 7687 l  12592 4942 l  17340 4942 l  17340 7687 l 
14966 7687 l  pc
gr
pum
13805 6180 t
389 -123 m  389 -84 375 -54 347 -32 ct 319 -11 279 0 229 0 ct 52 0 l  52 -436 l 
211 -436 l  313 -436 364 -401 364 -330 ct 364 -305 357 -283 342 -265 ct 328 -248 308 -236 281 -230 ct 
316 -226 342 -215 361 -195 ct 380 -176 389 -152 389 -123 ct p
305 -323 m  305 -347 297 -363 280 -374 ct 264 -384 241 -389 211 -389 ct 111 -389 l 
111 -251 l  211 -251 l  242 -251 266 -257 281 -269 ct 297 -281 305 -299 305 -323 ct 
p
330 -128 m  330 -179 294 -205 221 -205 ct 111 -205 l  111 -47 l  226 -47 l 
262 -47 288 -54 305 -68 ct 321 -81 330 -101 330 -128 ct p ef
551 6 m  518 6 492 -3 475 -21 ct 458 -38 450 -63 450 -94 ct 450 -128 461 -155 484 -173 ct 
507 -192 544 -202 595 -203 ct 670 -204 l  670 -223 l  670 -250 664 -269 652 -281 ct 
641 -293 623 -299 598 -299 ct 573 -299 555 -294 543 -286 ct 532 -277 525 -264 523 -245 ct 
465 -251 l  474 -311 519 -341 599 -341 ct 641 -341 673 -331 694 -312 ct 715 -293 726 -265 726 -228 ct 
726 -84 l  726 -68 728 -55 733 -47 ct 737 -39 745 -34 757 -34 ct 763 -34 769 -35 776 -37 ct 
776 -2 l  762 1 747 3 733 3 ct 712 3 697 -2 688 -13 ct 678 -24 673 -41 672 -64 ct 
670 -64 l  656 -39 639 -21 620 -10 ct 601 1 578 6 551 6 ct p
564 -36 m  584 -36 602 -40 618 -50 ct 634 -59 647 -72 656 -88 ct 665 -104 670 -121 670 -138 ct 
670 -165 l  609 -164 l  583 -164 563 -161 549 -156 ct 536 -151 525 -143 518 -133 ct 
511 -123 507 -109 507 -93 ct 507 -75 512 -61 522 -51 ct 532 -41 546 -36 564 -36 ct 
p ef
1069 -93 m  1069 -61 1057 -37 1033 -20 ct 1010 -3 976 6 933 6 ct 892 6 859 -1 837 -15 ct 
814 -28 799 -50 793 -79 ct 842 -88 l  847 -70 856 -57 871 -49 ct 886 -41 907 -36 933 -36 ct 
961 -36 982 -41 995 -49 ct 1008 -58 1015 -71 1015 -88 ct 1015 -102 1010 -112 1001 -121 ct 
992 -129 978 -136 957 -141 ct 917 -151 l  885 -160 863 -168 849 -176 ct 836 -184 825 -193 817 -205 ct 
810 -216 806 -230 806 -246 ct 806 -277 817 -300 839 -316 ct 860 -332 892 -340 934 -340 ct 
971 -340 1000 -334 1022 -321 ct 1044 -308 1057 -287 1063 -258 ct 1013 -252 l 
1010 -267 1002 -278 988 -286 ct 975 -294 957 -298 934 -298 ct 909 -298 890 -294 878 -287 ct 
866 -279 860 -267 860 -252 ct 860 -242 863 -235 868 -228 ct 873 -222 880 -217 890 -213 ct 
899 -208 920 -202 951 -195 ct 980 -187 1002 -180 1015 -174 ct 1028 -168 1038 -161 1045 -153 ct 
1053 -146 1059 -137 1063 -127 ct 1067 -117 1069 -105 1069 -93 ct p ef
1176 -156 m  1176 -118 1184 -88 1200 -67 ct 1216 -46 1239 -36 1270 -36 ct 1294 -36 1313 -41 1328 -50 ct 
1343 -60 1352 -72 1358 -87 ct 1406 -73 l  1386 -20 1341 6 1270 6 ct 1220 6 1183 -9 1157 -38 ct 
1131 -68 1118 -112 1118 -170 ct 1118 -225 1131 -267 1157 -297 ct 1183 -326 1220 -341 1268 -341 ct 
1366 -341 1415 -282 1415 -163 ct 1415 -156 l  1176 -156 l  p
1358 -199 m  1355 -234 1346 -260 1331 -276 ct 1316 -292 1295 -300 1267 -300 ct 
1240 -300 1218 -291 1203 -273 ct 1187 -255 1178 -230 1177 -199 ct 1358 -199 l 
p ef
1874 -54 m  1864 -33 1850 -17 1833 -8 ct 1816 1 1795 6 1770 6 ct 1728 6 1696 -8 1677 -37 ct 
1657 -65 1647 -108 1647 -166 ct 1647 -283 1688 -341 1770 -341 ct 1795 -341 1816 -336 1833 -327 ct 
1850 -318 1864 -303 1874 -283 ct 1875 -283 l  1874 -320 l  1874 -459 l  1930 -459 l 
1930 -69 l  1930 -34 1931 -11 1932 0 ct 1878 0 l  1878 -3 1877 -11 1876 -23 ct 
1876 -35 1875 -45 1875 -54 ct 1874 -54 l  p
1705 -168 m  1705 -121 1711 -88 1724 -67 ct 1736 -47 1756 -37 1784 -37 ct 1816 -37 1839 -48 1853 -70 ct 
1867 -92 1874 -126 1874 -172 ct 1874 -216 1867 -248 1853 -269 ct 1839 -290 1816 -300 1785 -300 ct 
1757 -300 1736 -289 1724 -269 ct 1711 -248 1705 -214 1705 -168 ct p ef
2057 -156 m  2057 -118 2065 -88 2081 -67 ct 2097 -46 2120 -36 2151 -36 ct 2175 -36 2194 -41 2209 -50 ct 
2224 -60 2233 -72 2239 -87 ct 2287 -73 l  2267 -20 2222 6 2151 6 ct 2101 6 2064 -9 2038 -38 ct 
2012 -68 1999 -112 1999 -170 ct 1999 -225 2012 -267 2038 -297 ct 2064 -326 2101 -341 2149 -341 ct 
2247 -341 2296 -282 2296 -163 ct 2296 -156 l  2057 -156 l  p
2239 -199 m  2236 -234 2227 -260 2212 -276 ct 2197 -292 2176 -300 2148 -300 ct 
2121 -300 2099 -291 2084 -273 ct 2068 -255 2059 -230 2058 -199 ct 2239 -199 l 
p ef
pom
pum
13947 6890 t
360 0 m  247 -181 l  111 -181 l  111 0 l  52 0 l  52 -436 l  257 -436 l 
306 -436 344 -425 371 -403 ct 398 -381 411 -350 411 -311 ct 411 -279 402 -252 383 -230 ct 
364 -208 338 -194 305 -188 ct 428 0 l  360 0 l  p
352 -311 m  352 -336 343 -355 326 -369 ct 309 -382 284 -389 251 -389 ct 111 -389 l 
111 -228 l  254 -228 l  285 -228 309 -235 326 -250 ct 343 -264 352 -284 352 -311 ct 
p ef
542 -156 m  542 -118 550 -88 566 -67 ct 582 -46 605 -36 636 -36 ct 660 -36 679 -41 694 -50 ct 
709 -60 718 -72 724 -87 ct 772 -73 l  752 -20 707 6 636 6 ct 586 6 549 -9 523 -38 ct 
497 -68 484 -112 484 -170 ct 484 -225 497 -267 523 -297 ct 549 -326 586 -341 634 -341 ct 
732 -341 781 -282 781 -163 ct 781 -156 l  542 -156 l  p
724 -199 m  721 -234 712 -260 697 -276 ct 682 -292 661 -300 633 -300 ct 606 -300 584 -291 569 -273 ct 
553 -255 544 -230 543 -199 ct 724 -199 l  p ef
979 132 m  942 132 913 125 891 111 ct 870 96 856 76 850 49 ct 906 41 l  909 57 918 69 930 77 ct 
943 85 960 90 980 90 ct 1036 90 1063 57 1063 -8 ct 1063 -62 l  1063 -62 l  1052 -40 1038 -24 1020 -13 ct 
1001 -2 980 3 955 3 ct 914 3 884 -11 865 -38 ct 845 -65 836 -108 836 -166 ct 836 -225 846 -269 867 -297 ct 
887 -325 919 -339 961 -339 ct 985 -339 1006 -334 1023 -323 ct 1041 -312 1054 -297 1063 -277 ct 
1064 -277 l  1064 -283 1065 -294 1065 -309 ct 1066 -324 1067 -333 1068 -334 ct 
1121 -334 l  1120 -323 1119 -300 1119 -265 ct 1119 -9 l  1119 85 1072 132 979 132 ct 
p
1063 -167 m  1063 -194 1060 -218 1052 -237 ct 1045 -257 1034 -272 1021 -282 ct 
1007 -293 992 -298 975 -298 ct 946 -298 926 -288 913 -267 ct 900 -246 893 -213 893 -167 ct 
893 -121 899 -88 911 -68 ct 924 -48 944 -38 974 -38 ct 992 -38 1007 -43 1021 -54 ct 
1034 -64 1045 -79 1052 -98 ct 1060 -117 1063 -140 1063 -167 ct p ef
1203 0 m  1203 -257 l  1203 -280 1202 -306 1201 -335 ct 1254 -335 l  1255 -297 1256 -274 1256 -266 ct 
1257 -266 l  1266 -295 1277 -315 1288 -325 ct 1300 -336 1316 -341 1337 -341 ct 
1344 -341 1352 -340 1360 -338 ct 1360 -287 l  1352 -289 1342 -290 1330 -290 ct 
1307 -290 1289 -280 1277 -260 ct 1265 -240 1259 -212 1259 -175 ct 1259 0 l  1203 0 l 
p ef
1499 6 m  1466 6 1440 -3 1423 -21 ct 1406 -38 1398 -63 1398 -94 ct 1398 -128 1409 -155 1432 -173 ct 
1455 -192 1492 -202 1543 -203 ct 1618 -204 l  1618 -223 l  1618 -250 1612 -269 1600 -281 ct 
1589 -293 1571 -299 1546 -299 ct 1521 -299 1503 -294 1491 -286 ct 1480 -277 1473 -264 1471 -245 ct 
1413 -251 l  1422 -311 1467 -341 1547 -341 ct 1589 -341 1621 -331 1642 -312 ct 
1663 -293 1674 -265 1674 -228 ct 1674 -84 l  1674 -68 1676 -55 1681 -47 ct 1685 -39 1693 -34 1705 -34 ct 
1711 -34 1717 -35 1724 -37 ct 1724 -2 l  1710 1 1695 3 1681 3 ct 1660 3 1645 -2 1636 -13 ct 
1626 -24 1621 -41 1620 -64 ct 1618 -64 l  1604 -39 1587 -21 1568 -10 ct 1549 1 1526 6 1499 6 ct 
p
1512 -36 m  1532 -36 1550 -40 1566 -50 ct 1582 -59 1595 -72 1604 -88 ct 1613 -104 1618 -121 1618 -138 ct 
1618 -165 l  1557 -164 l  1531 -164 1511 -161 1497 -156 ct 1484 -151 1473 -143 1466 -133 ct 
1459 -123 1455 -109 1455 -93 ct 1455 -75 1460 -61 1470 -51 ct 1480 -41 1494 -36 1512 -36 ct 
p ef
2016 -93 m  2016 -61 2004 -37 1980 -20 ct 1957 -3 1923 6 1880 6 ct 1839 6 1806 -1 1784 -15 ct 
1761 -28 1746 -50 1740 -79 ct 1789 -88 l  1794 -70 1803 -57 1818 -49 ct 1833 -41 1854 -36 1880 -36 ct 
1908 -36 1929 -41 1942 -49 ct 1955 -58 1962 -71 1962 -88 ct 1962 -102 1957 -112 1948 -121 ct 
1939 -129 1925 -136 1904 -141 ct 1864 -151 l  1832 -160 1810 -168 1796 -176 ct 
1783 -184 1772 -193 1764 -205 ct 1757 -216 1753 -230 1753 -246 ct 1753 -277 1764 -300 1786 -316 ct 
1807 -332 1839 -340 1881 -340 ct 1918 -340 1947 -334 1969 -321 ct 1991 -308 2004 -287 2010 -258 ct 
1960 -252 l  1957 -267 1949 -278 1935 -286 ct 1922 -294 1904 -298 1881 -298 ct 
1856 -298 1837 -294 1825 -287 ct 1813 -279 1807 -267 1807 -252 ct 1807 -242 1810 -235 1815 -228 ct 
1820 -222 1827 -217 1837 -213 ct 1846 -208 1867 -202 1898 -195 ct 1927 -187 1949 -180 1962 -174 ct 
1975 -168 1985 -161 1992 -153 ct 2000 -146 2006 -137 2010 -127 ct 2014 -117 2016 -105 2016 -93 ct 
p ef
pom
gs
54 lw 1 lj 3661 11108 m  5643 11107 l  ps
gr
gs
5618 10919 m  5997 11107 l  5618 11297 l  5618 10919 l  p ef
gr
gs
54 lw 1 lj 3661 10011 m  5643 10010 l  ps
gr
gs
5618 9821 m  5997 10010 l  5618 10200 l  5618 9821 l  p ef
gr
gs
54 lw 1 lj 3661 12008 m  5643 12007 l  ps
gr
gs
5618 11818 m  5997 12007 l  5618 12196 l  5618 11818 l  p ef
gr
gs
54 lw 1 lj 10744 11107 m  12239 11107 l  ps
gr
gs
12214 10919 m  12593 11107 l  12214 11297 l  12214 10919 l  p ef
gr
gs
54 lw 1 lj 17340 11107 m  18336 11107 l  ps
gr
gs
18311 10919 m  18689 11107 l  18311 11297 l  18311 10919 l  p ef
gr
gs
54 lw 1 lj 14967 7688 m  14967 9381 l  ps
gr
gs
15156 9356 m  14967 9734 l  14778 9356 l  15156 9356 l  p ef
gr
gs
54 lw 1 lj 23750 11109 m  25732 11108 l  ps
gr
gs
25707 10920 m  26085 11108 l  25707 11298 l  25707 10920 l  p ef
gr
pum
3530 12989 t
35 0 m  35 -290 l  255 -290 l  255 -258 l  74 -258 l  74 -165 l  243 -165 l 
243 -133 l  74 -133 l  74 -32 l  263 -32 l  263 0 l  35 0 l  p ef
454 0 m  454 -141 l  454 -156 453 -167 450 -176 ct 447 -184 442 -189 436 -193 ct 
430 -197 420 -198 408 -198 ct 390 -198 376 -192 366 -180 ct 356 -168 350 -151 350 -129 ct 
350 0 l  313 0 l  313 -175 l  313 -201 313 -217 312 -223 ct 347 -223 l  347 -222 347 -220 347 -217 ct 
348 -214 348 -211 348 -207 ct 348 -203 348 -196 349 -185 ct 349 -185 l  358 -200 368 -211 379 -217 ct 
390 -224 404 -227 421 -227 ct 445 -227 463 -221 474 -209 ct 486 -197 491 -177 491 -149 ct 
491 0 l  454 0 l  p ef
635 -2 m  623 1 610 3 598 3 ct 568 3 553 -14 553 -47 ct 553 -196 l  527 -196 l 
527 -223 l  555 -223 l  566 -273 l  590 -273 l  590 -223 l  631 -223 l 
631 -196 l  590 -196 l  590 -55 l  590 -45 592 -37 595 -33 ct 599 -29 605 -26 614 -26 ct 
619 -26 626 -27 635 -29 ct 635 -2 l  p ef
668 0 m  668 -171 l  668 -187 668 -204 667 -223 ct 702 -223 l  703 -198 704 -182 704 -177 ct 
705 -177 l  710 -196 717 -209 725 -216 ct 733 -224 743 -227 757 -227 ct 762 -227 767 -226 773 -225 ct 
773 -191 l  768 -192 761 -193 753 -193 ct 737 -193 726 -186 718 -173 ct 709 -160 705 -141 705 -116 ct 
705 0 l  668 0 l  p ef
864 4 m  842 4 825 -2 814 -14 ct 803 -26 797 -42 797 -62 ct 797 -85 805 -103 820 -116 ct 
835 -128 859 -134 893 -135 ct 943 -136 l  943 -148 l  943 -166 939 -179 932 -187 ct 
924 -195 912 -199 895 -199 ct 879 -199 867 -196 859 -191 ct 852 -185 847 -176 846 -164 ct 
807 -167 l  813 -207 843 -227 896 -227 ct 924 -227 945 -221 960 -208 ct 974 -195 981 -177 981 -152 ct 
981 -56 l  981 -45 982 -37 985 -31 ct 988 -26 993 -23 1002 -23 ct 1005 -23 1009 -23 1014 -24 ct 
1014 -1 l  1004 1 995 2 985 2 ct 971 2 961 -2 955 -9 ct 949 -16 945 -27 944 -43 ct 
943 -43 l  934 -26 923 -14 910 -7 ct 898 0 882 4 864 4 ct p
873 -24 m  886 -24 898 -27 909 -33 ct 920 -39 928 -48 934 -59 ct 940 -69 943 -80 943 -92 ct 
943 -110 l  903 -109 l  885 -109 872 -107 863 -104 ct 854 -101 847 -96 842 -89 ct 
837 -82 835 -73 835 -62 ct 835 -50 838 -40 845 -34 ct 851 -27 861 -24 873 -24 ct 
p ef
1184 -35 m  1177 -21 1168 -11 1157 -5 ct 1146 2 1132 5 1115 5 ct 1087 5 1066 -5 1053 -24 ct 
1039 -43 1033 -71 1033 -110 ct 1033 -188 1060 -226 1115 -226 ct 1132 -226 1146 -223 1157 -217 ct 
1168 -211 1177 -201 1184 -188 ct 1185 -188 l  1184 -213 l  1184 -305 l  1221 -305 l 
1221 -45 l  1221 -22 1222 -7 1223 1 ct 1187 1 l  1187 -2 1186 -7 1186 -15 ct 
1185 -23 1185 -30 1185 -35 ct 1184 -35 l  p
1072 -111 m  1072 -80 1076 -58 1084 -44 ct 1092 -31 1106 -24 1124 -24 ct 1145 -24 1160 -31 1170 -46 ct 
1179 -60 1184 -83 1184 -114 ct 1184 -143 1179 -165 1170 -178 ct 1160 -192 1145 -199 1125 -199 ct 
1106 -199 1092 -192 1084 -178 ct 1076 -165 1072 -142 1072 -111 ct p ef
1337 4 m  1315 4 1298 -2 1287 -14 ct 1276 -26 1270 -42 1270 -62 ct 1270 -85 1278 -103 1293 -116 ct 
1308 -128 1332 -134 1366 -135 ct 1416 -136 l  1416 -148 l  1416 -166 1412 -179 1405 -187 ct 
1397 -195 1385 -199 1368 -199 ct 1352 -199 1340 -196 1332 -191 ct 1325 -185 1320 -176 1319 -164 ct 
1280 -167 l  1286 -207 1316 -227 1369 -227 ct 1397 -227 1418 -221 1433 -208 ct 
1447 -195 1454 -177 1454 -152 ct 1454 -56 l  1454 -45 1455 -37 1458 -31 ct 1461 -26 1466 -23 1475 -23 ct 
1478 -23 1482 -23 1487 -24 ct 1487 -1 l  1477 1 1468 2 1458 2 ct 1444 2 1434 -2 1428 -9 ct 
1422 -16 1418 -27 1417 -43 ct 1416 -43 l  1407 -26 1396 -14 1383 -7 ct 1371 0 1355 4 1337 4 ct 
p
1346 -24 m  1359 -24 1371 -27 1382 -33 ct 1393 -39 1401 -48 1407 -59 ct 1413 -69 1416 -80 1416 -92 ct 
1416 -110 l  1376 -109 l  1358 -109 1345 -107 1336 -104 ct 1327 -101 1320 -96 1315 -89 ct 
1310 -82 1308 -73 1308 -62 ct 1308 -50 1311 -40 1318 -34 ct 1324 -27 1334 -24 1346 -24 ct 
p ef
1685 -62 m  1685 -41 1677 -24 1661 -13 ct 1645 -2 1623 4 1594 4 ct 1567 4 1545 -1 1530 -10 ct 
1515 -19 1505 -33 1501 -52 ct 1534 -59 l  1537 -47 1543 -38 1553 -33 ct 1563 -27 1577 -24 1594 -24 ct 
1613 -24 1627 -27 1636 -33 ct 1644 -39 1649 -47 1649 -59 ct 1649 -68 1646 -75 1640 -80 ct 
1634 -86 1624 -90 1610 -94 ct 1584 -101 l  1562 -106 1547 -112 1538 -117 ct 
1529 -122 1522 -128 1517 -136 ct 1512 -144 1510 -153 1510 -164 ct 1510 -184 1517 -199 1531 -210 ct 
1546 -221 1567 -226 1595 -226 ct 1619 -226 1639 -222 1653 -213 ct 1668 -204 1677 -191 1681 -172 ct 
1647 -167 l  1645 -177 1640 -185 1631 -190 ct 1622 -195 1610 -198 1595 -198 ct 
1578 -198 1566 -195 1558 -190 ct 1550 -185 1546 -178 1546 -167 ct 1546 -161 1547 -156 1551 -152 ct 
1554 -148 1559 -144 1565 -141 ct 1572 -138 1585 -134 1606 -129 ct 1626 -124 1640 -120 1648 -116 ct 
1657 -112 1664 -107 1669 -102 ct 1674 -97 1678 -91 1681 -84 ct 1683 -78 1685 -70 1685 -62 ct 
p ef
pom
pum
3210 13462 t
169 -35 m  162 -21 153 -11 142 -5 ct 131 2 117 5 100 5 ct 72 5 51 -5 38 -24 ct 
24 -43 18 -71 18 -110 ct 18 -188 45 -226 100 -226 ct 117 -226 131 -223 142 -217 ct 
153 -211 162 -201 169 -188 ct 170 -188 l  169 -213 l  169 -305 l  206 -305 l 
206 -45 l  206 -22 207 -7 208 1 ct 172 1 l  172 -2 171 -7 171 -15 ct 170 -23 170 -30 170 -35 ct 
169 -35 l  p
57 -111 m  57 -80 61 -58 69 -44 ct 77 -31 91 -24 109 -24 ct 130 -24 145 -31 155 -46 ct 
164 -60 169 -83 169 -114 ct 169 -143 164 -165 155 -178 ct 145 -192 130 -199 110 -199 ct 
91 -199 77 -192 69 -178 ct 61 -165 57 -142 57 -111 ct p ef
454 -112 m  454 -73 445 -44 428 -25 ct 411 -6 386 4 353 4 ct 321 4 296 -6 280 -26 ct 
263 -46 255 -74 255 -112 ct 255 -189 288 -227 355 -227 ct 389 -227 414 -218 430 -199 ct 
446 -180 454 -151 454 -112 ct p
415 -112 m  415 -142 410 -165 401 -179 ct 392 -193 377 -200 355 -200 ct 334 -200 318 -192 308 -178 ct 
299 -164 294 -142 294 -112 ct 294 -82 298 -60 308 -46 ct 318 -31 333 -23 353 -23 ct 
375 -23 391 -31 401 -45 ct 410 -59 415 -81 415 -112 ct p ef
678 4 m  656 4 639 -2 628 -14 ct 617 -26 611 -42 611 -62 ct 611 -85 619 -103 634 -116 ct 
649 -128 673 -134 707 -135 ct 757 -136 l  757 -148 l  757 -166 753 -179 746 -187 ct 
738 -195 726 -199 709 -199 ct 693 -199 681 -196 673 -191 ct 666 -185 661 -176 660 -164 ct 
621 -167 l  627 -207 657 -227 710 -227 ct 738 -227 759 -221 774 -208 ct 788 -195 795 -177 795 -152 ct 
795 -56 l  795 -45 796 -37 799 -31 ct 802 -26 807 -23 816 -23 ct 819 -23 823 -23 828 -24 ct 
828 -1 l  818 1 809 2 799 2 ct 785 2 775 -2 769 -9 ct 763 -16 759 -27 758 -43 ct 
757 -43 l  748 -26 737 -14 724 -7 ct 712 0 696 4 678 4 ct p
687 -24 m  700 -24 712 -27 723 -33 ct 734 -39 742 -48 748 -59 ct 754 -69 757 -80 757 -92 ct 
757 -110 l  717 -109 l  699 -109 686 -107 677 -104 ct 668 -101 661 -96 656 -89 ct 
651 -82 649 -73 649 -62 ct 649 -50 652 -40 659 -34 ct 665 -27 675 -24 687 -24 ct 
p ef
988 0 m  988 -141 l  988 -163 985 -178 979 -186 ct 973 -194 963 -198 947 -198 ct 
932 -198 919 -192 910 -180 ct 901 -168 896 -151 896 -129 ct 896 0 l  859 0 l 
859 -175 l  859 -201 859 -217 858 -223 ct 893 -223 l  893 -222 893 -220 893 -217 ct 
894 -214 894 -211 894 -207 ct 894 -203 894 -196 895 -185 ct 895 -185 l  903 -201 912 -212 923 -218 ct 
933 -224 946 -227 960 -227 ct 977 -227 991 -224 1001 -217 ct 1010 -210 1017 -199 1021 -185 ct 
1022 -185 l  1029 -200 1039 -211 1050 -217 ct 1060 -224 1074 -227 1089 -227 ct 
1112 -227 1128 -221 1138 -209 ct 1149 -196 1154 -176 1154 -149 ct 1154 0 l  1117 0 l 
1117 -141 l  1117 -163 1114 -178 1108 -186 ct 1102 -194 1092 -198 1076 -198 ct 
1060 -198 1047 -192 1038 -180 ct 1029 -168 1025 -151 1025 -129 ct 1025 0 l  988 0 l 
p ef
1397 -112 m  1397 -34 1370 5 1315 5 ct 1298 5 1284 2 1273 -4 ct 1262 -10 1253 -20 1246 -34 ct 
1245 -34 l  1245 -29 1245 -23 1244 -14 ct 1244 -6 1243 -1 1243 1 ct 1207 1 l 
1208 -7 1208 -22 1208 -45 ct 1208 -305 l  1246 -305 l  1246 -218 l  1246 -209 1245 -198 1245 -186 ct 
1246 -186 l  1252 -200 1262 -211 1273 -217 ct 1284 -223 1298 -226 1315 -226 ct 
1343 -226 1364 -217 1377 -198 ct 1390 -179 1397 -150 1397 -112 ct p
1358 -110 m  1358 -141 1354 -164 1346 -177 ct 1337 -191 1324 -197 1305 -197 ct 
1285 -197 1269 -190 1260 -176 ct 1250 -162 1246 -139 1246 -108 ct 1246 -79 1250 -57 1260 -43 ct 
1269 -29 1284 -22 1305 -22 ct 1324 -22 1337 -29 1346 -43 ct 1354 -57 1358 -79 1358 -110 ct 
p ef
1445 -270 m  1445 -305 l  1482 -305 l  1482 -270 l  1445 -270 l  p
1445 1 m  1445 -222 l  1482 -222 l  1482 1 l  1445 1 l  p ef
1567 -104 m  1567 -78 1572 -58 1583 -45 ct 1593 -31 1609 -24 1629 -24 ct 1645 -24 1658 -27 1668 -33 ct 
1677 -40 1684 -48 1687 -58 ct 1720 -49 l  1707 -14 1676 4 1629 4 ct 1596 4 1571 -6 1554 -25 ct 
1537 -45 1528 -74 1528 -113 ct 1528 -150 1537 -178 1554 -198 ct 1571 -217 1596 -227 1628 -227 ct 
1693 -227 1726 -188 1726 -109 ct 1726 -104 l  1567 -104 l  p
1688 -132 m  1686 -156 1680 -173 1670 -183 ct 1660 -194 1646 -200 1627 -200 ct 
1609 -200 1595 -194 1584 -182 ct 1574 -170 1568 -153 1567 -132 ct 1688 -132 l 
p ef
1917 0 m  1917 -141 l  1917 -156 1916 -167 1913 -176 ct 1910 -184 1905 -189 1899 -193 ct 
1893 -197 1883 -198 1871 -198 ct 1853 -198 1839 -192 1829 -180 ct 1819 -168 1813 -151 1813 -129 ct 
1813 0 l  1776 0 l  1776 -175 l  1776 -201 1776 -217 1775 -223 ct 1810 -223 l 
1810 -222 1810 -220 1810 -217 ct 1811 -214 1811 -211 1811 -207 ct 1811 -203 1811 -196 1812 -185 ct 
1812 -185 l  1821 -200 1831 -211 1842 -217 ct 1853 -224 1867 -227 1884 -227 ct 
1908 -227 1926 -221 1937 -209 ct 1949 -197 1954 -177 1954 -149 ct 1954 0 l  1917 0 l 
p ef
2098 -2 m  2086 1 2073 3 2061 3 ct 2031 3 2016 -14 2016 -47 ct 2016 -196 l  1990 -196 l 
1990 -223 l  2018 -223 l  2029 -273 l  2053 -273 l  2053 -223 l  2094 -223 l 
2094 -196 l  2053 -196 l  2053 -55 l  2053 -45 2055 -37 2058 -33 ct 2062 -29 2068 -26 2077 -26 ct 
2082 -26 2089 -27 2098 -29 ct 2098 -2 l  p ef
2160 -104 m  2160 -78 2165 -58 2176 -45 ct 2186 -31 2202 -24 2222 -24 ct 2238 -24 2251 -27 2261 -33 ct 
2270 -40 2277 -48 2280 -58 ct 2313 -49 l  2300 -14 2269 4 2222 4 ct 2189 4 2164 -6 2147 -25 ct 
2130 -45 2121 -74 2121 -113 ct 2121 -150 2130 -178 2147 -198 ct 2164 -217 2189 -227 2221 -227 ct 
2286 -227 2319 -188 2319 -109 ct 2319 -104 l  2160 -104 l  p
2281 -132 m  2279 -156 2273 -173 2263 -183 ct 2253 -194 2239 -200 2220 -200 ct 
2202 -200 2188 -194 2177 -182 ct 2167 -170 2161 -153 2160 -132 ct 2281 -132 l 
p ef
pom
pum
24299 11792 t
262 -80 m  262 -53 252 -33 231 -18 ct 210 -3 180 4 142 4 ct 71 4 30 -21 19 -70 ct 
57 -77 l  62 -60 71 -47 85 -39 ct 100 -31 119 -27 144 -27 ct 169 -27 189 -31 202 -40 ct 
216 -49 223 -61 223 -78 ct 223 -88 221 -95 217 -101 ct 212 -107 206 -112 198 -116 ct 
191 -120 181 -123 170 -126 ct 160 -128 148 -131 134 -134 ct 111 -139 94 -144 82 -149 ct 
70 -154 61 -160 54 -166 ct 47 -172 42 -180 38 -188 ct 35 -197 33 -206 33 -217 ct 
33 -242 42 -261 61 -274 ct 80 -288 108 -295 143 -295 ct 176 -295 201 -290 219 -280 ct 
236 -269 248 -252 255 -228 ct 217 -221 l  212 -237 204 -248 192 -255 ct 180 -262 164 -265 143 -265 ct 
119 -265 102 -261 89 -253 ct 77 -246 71 -234 71 -219 ct 71 -210 73 -203 78 -197 ct 
83 -191 90 -186 99 -182 ct 108 -178 125 -173 152 -167 ct 161 -165 170 -163 179 -161 ct 
188 -159 196 -156 204 -153 ct 212 -150 220 -147 227 -143 ct 234 -139 240 -134 245 -128 ct 
251 -122 255 -116 258 -108 ct 261 -100 262 -91 262 -80 ct p ef
369 4 m  347 4 330 -2 319 -14 ct 308 -26 302 -42 302 -62 ct 302 -85 310 -103 325 -116 ct 
340 -128 364 -134 398 -135 ct 448 -136 l  448 -148 l  448 -166 444 -179 437 -187 ct 
429 -195 417 -199 400 -199 ct 384 -199 372 -196 364 -191 ct 357 -185 352 -176 351 -164 ct 
312 -167 l  318 -207 348 -227 401 -227 ct 429 -227 450 -221 465 -208 ct 479 -195 486 -177 486 -152 ct 
486 -56 l  486 -45 487 -37 490 -31 ct 493 -26 498 -23 507 -23 ct 510 -23 514 -23 519 -24 ct 
519 -1 l  509 1 500 2 490 2 ct 476 2 466 -2 460 -9 ct 454 -16 450 -27 449 -43 ct 
448 -43 l  439 -26 428 -14 415 -7 ct 403 0 387 4 369 4 ct p
378 -24 m  391 -24 403 -27 414 -33 ct 425 -39 433 -48 439 -59 ct 445 -69 448 -80 448 -92 ct 
448 -110 l  408 -109 l  390 -109 377 -107 368 -104 ct 359 -101 352 -96 347 -89 ct 
342 -82 340 -73 340 -62 ct 340 -50 343 -40 350 -34 ct 356 -27 366 -24 378 -24 ct 
p ef
561 0 m  561 -223 l  598 -223 l  598 0 l  561 0 l  p
549 -248 m  549 -252 l  594 -311 l  636 -311 l  636 -305 l  568 -248 l 
549 -248 l  p ef
808 -35 m  801 -21 792 -11 781 -5 ct 770 2 756 5 739 5 ct 711 5 690 -5 677 -24 ct 
663 -43 657 -71 657 -110 ct 657 -188 684 -226 739 -226 ct 756 -226 770 -223 781 -217 ct 
792 -211 801 -201 808 -188 ct 809 -188 l  808 -213 l  808 -305 l  845 -305 l 
845 -45 l  845 -22 846 -7 847 1 ct 811 1 l  811 -2 810 -7 810 -15 ct 809 -23 809 -30 809 -35 ct 
808 -35 l  p
696 -111 m  696 -80 700 -58 708 -44 ct 716 -31 730 -24 748 -24 ct 769 -24 784 -31 794 -46 ct 
803 -60 808 -83 808 -114 ct 808 -143 803 -165 794 -178 ct 784 -192 769 -199 749 -199 ct 
730 -199 716 -192 708 -178 ct 700 -165 696 -142 696 -111 ct p ef
961 4 m  939 4 922 -2 911 -14 ct 900 -26 894 -42 894 -62 ct 894 -85 902 -103 917 -116 ct 
932 -128 956 -134 990 -135 ct 1040 -136 l  1040 -148 l  1040 -166 1036 -179 1029 -187 ct 
1021 -195 1009 -199 992 -199 ct 976 -199 964 -196 956 -191 ct 949 -185 944 -176 943 -164 ct 
904 -167 l  910 -207 940 -227 993 -227 ct 1021 -227 1042 -221 1057 -208 ct 1071 -195 1078 -177 1078 -152 ct 
1078 -56 l  1078 -45 1079 -37 1082 -31 ct 1085 -26 1090 -23 1099 -23 ct 1102 -23 1106 -23 1111 -24 ct 
1111 -1 l  1101 1 1092 2 1082 2 ct 1068 2 1058 -2 1052 -9 ct 1046 -16 1042 -27 1041 -43 ct 
1040 -43 l  1031 -26 1020 -14 1007 -7 ct 995 0 979 4 961 4 ct p
970 -24 m  983 -24 995 -27 1006 -33 ct 1017 -39 1025 -48 1031 -59 ct 1037 -69 1040 -80 1040 -92 ct 
1040 -110 l  1000 -109 l  982 -109 969 -107 960 -104 ct 951 -101 944 -96 939 -89 ct 
934 -82 932 -73 932 -62 ct 932 -50 935 -40 942 -34 ct 948 -27 958 -24 970 -24 ct 
p ef
pom
0 8749 t 
pom
count op_count sub {pop} repeat countdictstack dict_count sub {end} repeat b4_inc_state restore
%%PageTrailer
%%Trailer
%%EOF
