%!PS-Adobe-3.0 EPSF-3.0
%%Title: /home/filipe/UFPA/aulas/simulacao-discreta/2-modelagem-dos-dados-de-entrada/expon.eps
%%Creator: matplotlib version 3.0.3, http://matplotlib.org/
%%CreationDate: Wed Apr 10 18:56:49 2019
%%Orientation: portrait
%%BoundingBox: 75 223 536 568
%%EndComments
%%BeginProlog
/mpldict 7 dict def
mpldict begin
/m { moveto } bind def
/l { lineto } bind def
/r { rlineto } bind def
/c { curveto } bind def
/cl { closepath } bind def
/box {
m
1 index 0 r
0 exch r
neg 0 r
cl
} bind def
/clipbox {
box
clip
newpath
} bind def
end
%%EndProlog
mpldict begin
75.6 223.2 translate
460.8 345.6 0 0 clipbox
gsave
0 0 m
460.8 0 l
460.8 345.6 l
0 345.6 l
cl
1.000 setgray
fill
grestore
gsave
57.6 38.016 m
414.72 38.016 l
414.72 304.128 l
57.6 304.128 l
cl
1.000 setgray
fill
grestore
1.500 setlinewidth
1 setlinejoin
2 setlinecap
[] 0 setdash
0.122 0.467 0.706 setrgbcolor
gsave
357.1 266.1 57.6 38.02 clipbox
73.832727 292.032 m
77.112066 280.947846 l
80.391405 270.366409 l
83.670744 260.26489 l
86.950083 250.621521 l
90.229421 241.415524 l
93.50876 232.627062 l
96.788099 224.237197 l
100.067438 216.227851 l
103.346777 208.581766 l
106.626116 201.282467 l
109.905455 194.314225 l
113.184793 187.662024 l
116.464132 181.311532 l
119.743471 175.249064 l
123.02281 169.461557 l
126.302149 163.936541 l
129.581488 158.662109 l
132.860826 153.626897 l
136.140165 148.820056 l
139.419504 144.231227 l
142.698843 139.850523 l
145.978182 135.668504 l
149.257521 131.676159 l
152.53686 127.864885 l
155.816198 124.22647 l
159.095537 120.753074 l
162.374876 117.437213 l
165.654215 114.271742 l
168.933554 111.249839 l
172.212893 108.364993 l
175.492231 105.610989 l
178.77157 102.981892 l
182.050909 100.472036 l
185.330248 98.076014 l
188.609587 95.788662 l
191.888926 93.605053 l
195.168264 91.52048 l
198.447603 89.530453 l
201.726942 87.630682 l
205.006281 85.817075 l
208.28562 84.085723 l
211.564959 82.432896 l
214.844298 80.855032 l
218.123636 79.348732 l
221.402975 77.91075 l
224.682314 76.537987 l
227.961653 75.227484 l
231.240992 73.97642 l
234.520331 72.782096 l
237.799669 71.641941 l
241.079008 70.553498 l
244.358347 69.51442 l
247.637686 68.522469 l
250.917025 67.575508 l
254.196364 66.671496 l
257.475702 65.808485 l
260.755041 64.984615 l
264.03438 64.198112 l
267.313719 63.44728 l
270.593058 62.730502 l
273.872397 62.046234 l
277.151736 61.393 l
280.431074 60.769393 l
283.710413 60.17407 l
286.989752 59.605747 l
290.269091 59.0632 l
293.54843 58.545261 l
296.827769 58.050812 l
300.107107 57.578789 l
303.386446 57.128175 l
306.665785 56.697997 l
309.945124 56.287331 l
313.224463 55.89529 l
316.503802 55.52103 l
319.78314 55.163744 l
323.062479 54.822663 l
326.341818 54.497051 l
329.621157 54.186208 l
332.900496 53.889462 l
336.179835 53.606176 l
339.459174 53.335737 l
342.738512 53.077565 l
346.017851 52.831102 l
349.29719 52.595817 l
352.576529 52.371203 l
355.855868 52.156776 l
359.135207 51.952075 l
362.414545 51.756658 l
365.693884 51.570104 l
368.973223 51.392011 l
372.252562 51.221996 l
375.531901 51.059691 l
378.81124 50.904748 l
382.090579 50.756832 l
385.369917 50.615624 l
388.649256 50.480822 l
391.928595 50.352133 l
395.207934 50.22928 l
398.487273 50.112 l
stroke
grestore
0.800 setlinewidth
0 setlinejoin
[] 0 setdash
0.000 setgray
gsave
57.6 38.016 m
57.6 304.128 l
stroke
grestore
gsave
414.72 38.016 m
414.72 304.128 l
stroke
grestore
gsave
57.6 38.016 m
414.72 38.016 l
stroke
grestore
gsave
57.6 304.128 m
414.72 304.128 l
stroke
grestore

end
showpage
