%!PS-Adobe-3.0 EPSF-3.0
%%Title: /home/filipe/UFPA/aulas/simulacao-discreta/2-modelagem-dos-dados-de-entrada/lognorm.eps
%%Creator: matplotlib version 3.0.3, http://matplotlib.org/
%%CreationDate: Wed Apr 10 18:59:10 2019
%%Orientation: portrait
%%BoundingBox: 75 223 536 568
%%EndComments
%%BeginProlog
/mpldict 7 dict def
mpldict begin
/m { moveto } bind def
/l { lineto } bind def
/r { rlineto } bind def
/c { curveto } bind def
/cl { closepath } bind def
/box {
m
1 index 0 r
0 exch r
neg 0 r
cl
} bind def
/clipbox {
box
clip
newpath
} bind def
end
%%EndProlog
mpldict begin
75.6 223.2 translate
460.8 345.6 0 0 clipbox
gsave
0 0 m
460.8 0 l
460.8 345.6 l
0 345.6 l
cl
1.000 setgray
fill
grestore
gsave
57.6 38.016 m
414.72 38.016 l
414.72 304.128 l
57.6 304.128 l
cl
1.000 setgray
fill
grestore
1.500 setlinewidth
1 setlinejoin
2 setlinecap
[] 0 setdash
0.122 0.467 0.706 setrgbcolor
gsave
357.1 266.1 57.6 38.02 clipbox
73.832727 62.529476 m
77.112066 66.331486 l
80.391405 70.534904 l
83.670744 75.150972 l
86.950083 80.18687 l
90.229421 85.645298 l
93.50876 91.524113 l
96.788099 97.816057 l
100.067438 104.508567 l
103.346777 111.58368 l
106.626116 119.018043 l
109.905455 126.783015 l
113.184793 134.844878 l
116.464132 143.16514 l
119.743471 151.700929 l
123.02281 160.405471 l
126.302149 169.228637 l
129.581488 178.117558 l
132.860826 187.017277 l
136.140165 195.871447 l
139.419504 204.623037 l
142.698843 213.215052 l
145.978182 221.591244 l
149.257521 229.696798 l
152.53686 237.478987 l
155.816198 244.887784 l
159.095537 251.876418 l
162.374876 258.40187 l
165.654215 264.425297 l
168.933554 269.912394 l
172.212893 274.833665 l
175.492231 279.164631 l
178.77157 282.885957 l
182.050909 285.983502 l
185.330248 288.448301 l
188.609587 290.276481 l
191.888926 291.469111 l
195.168264 292.032 l
198.447603 291.975444 l
201.726942 291.313932 l
205.006281 290.065811 l
208.28562 288.252933 l
211.564959 285.900275 l
214.844298 283.035543 l
218.123636 279.688772 l
221.402975 275.891925 l
224.682314 271.678498 l
227.961653 267.083127 l
231.240992 262.141217 l
234.520331 256.888587 l
237.799669 251.361132 l
241.079008 245.594516 l
244.358347 239.623882 l
247.637686 233.483597 l
250.917025 227.207022 l
254.196364 220.826309 l
257.475702 214.372229 l
260.755041 207.874026 l
264.03438 201.359301 l
267.313719 194.853917 l
270.593058 188.381936 l
273.872397 181.965571 l
277.151736 175.625169 l
280.431074 169.379201 l
283.710413 163.244283 l
286.989752 157.235203 l
290.269091 151.364967 l
293.54843 145.644858 l
296.827769 140.084496 l
300.107107 134.691923 l
303.386446 129.473674 l
306.665785 124.434875 l
309.945124 119.579324 l
313.224463 114.909592 l
316.503802 110.427112 l
319.78314 106.132278 l
323.062479 102.024533 l
326.341818 98.102468 l
329.621157 94.363907 l
332.900496 90.805991 l
336.179835 87.42527 l
339.459174 84.217772 l
342.738512 81.179085 l
346.017851 78.304424 l
349.29719 75.588696 l
352.576529 73.026564 l
355.855868 70.612504 l
359.135207 68.340851 l
362.414545 66.205852 l
365.693884 64.201707 l
368.973223 62.322605 l
372.252562 60.562761 l
375.531901 58.916447 l
378.81124 57.378013 l
382.090579 55.941916 l
385.369917 54.602737 l
388.649256 53.355197 l
391.928595 52.194171 l
395.207934 51.1147 l
398.487273 50.112 l
stroke
grestore
0.800 setlinewidth
0 setlinejoin
[] 0 setdash
0.000 setgray
gsave
57.6 38.016 m
57.6 304.128 l
stroke
grestore
gsave
414.72 38.016 m
414.72 304.128 l
stroke
grestore
gsave
57.6 38.016 m
414.72 38.016 l
stroke
grestore
gsave
57.6 304.128 m
414.72 304.128 l
stroke
grestore

end
showpage
