%!PS-Adobe-3.0 EPSF-3.0
%%Title: /home/filipe/UFPA/aulas/simulacao-discreta/2-modelagem-dos-dados-de-entrada/norm.eps
%%Creator: matplotlib version 3.0.3, http://matplotlib.org/
%%CreationDate: Wed Apr 10 18:55:42 2019
%%Orientation: portrait
%%BoundingBox: 75 223 536 568
%%EndComments
%%BeginProlog
/mpldict 7 dict def
mpldict begin
/m { moveto } bind def
/l { lineto } bind def
/r { rlineto } bind def
/c { curveto } bind def
/cl { closepath } bind def
/box {
m
1 index 0 r
0 exch r
neg 0 r
cl
} bind def
/clipbox {
box
clip
newpath
} bind def
end
%%EndProlog
mpldict begin
75.6 223.2 translate
460.8 345.6 0 0 clipbox
gsave
0 0 m
460.8 0 l
460.8 345.6 l
0 345.6 l
cl
1.000 setgray
fill
grestore
gsave
57.6 38.016 m
414.72 38.016 l
414.72 304.128 l
57.6 304.128 l
cl
1.000 setgray
fill
grestore
1.500 setlinewidth
1 setlinejoin
2 setlinecap
[] 0 setdash
0.122 0.467 0.706 setrgbcolor
gsave
357.1 266.1 57.6 38.02 clipbox
73.832727 50.112 m
77.112066 52.092154 l
80.391405 54.251182 l
83.670744 56.59903 l
86.950083 59.145426 l
90.229421 61.899766 l
93.50876 64.870993 l
96.788099 68.067461 l
100.067438 71.496804 l
103.346777 75.165793 l
106.626116 79.080184 l
109.905455 83.244575 l
113.184793 87.662252 l
116.464132 92.335047 l
119.743471 97.263187 l
123.02281 102.445158 l
126.302149 107.877576 l
129.581488 113.555069 l
132.860826 119.470166 l
136.140165 125.613213 l
139.419504 131.972296 l
142.698843 138.533196 l
145.978182 145.279353 l
149.257521 152.19187 l
152.53686 159.249531 l
155.816198 166.42885 l
159.095537 173.704158 l
162.374876 181.047702 l
165.654215 188.429792 l
168.933554 195.81896 l
172.212893 203.182166 l
175.492231 210.485011 l
178.77157 217.691993 l
182.050909 224.76678 l
185.330248 231.672498 l
188.609587 238.372045 l
191.888926 244.828416 l
195.168264 251.005039 l
198.447603 256.866112 l
201.726942 262.37695 l
205.006281 267.504326 l
208.28562 272.216796 l
211.564959 276.485028 l
214.844298 280.282102 l
218.123636 283.58379 l
221.402975 286.368818 l
224.682314 288.619092 l
227.961653 290.319893 l
231.240992 291.460037 l
234.520331 292.032 l
237.799669 292.032 l
241.079008 291.460037 l
244.358347 290.319893 l
247.637686 288.619092 l
250.917025 286.368818 l
254.196364 283.58379 l
257.475702 280.282102 l
260.755041 276.485028 l
264.03438 272.216796 l
267.313719 267.504326 l
270.593058 262.37695 l
273.872397 256.866112 l
277.151736 251.005039 l
280.431074 244.828416 l
283.710413 238.372045 l
286.989752 231.672498 l
290.269091 224.76678 l
293.54843 217.691993 l
296.827769 210.485011 l
300.107107 203.182166 l
303.386446 195.81896 l
306.665785 188.429792 l
309.945124 181.047702 l
313.224463 173.704158 l
316.503802 166.42885 l
319.78314 159.249531 l
323.062479 152.19187 l
326.341818 145.279353 l
329.621157 138.533196 l
332.900496 131.972296 l
336.179835 125.613213 l
339.459174 119.470166 l
342.738512 113.555069 l
346.017851 107.877576 l
349.29719 102.445158 l
352.576529 97.263187 l
355.855868 92.335047 l
359.135207 87.662252 l
362.414545 83.244575 l
365.693884 79.080184 l
368.973223 75.165793 l
372.252562 71.496804 l
375.531901 68.067461 l
378.81124 64.870993 l
382.090579 61.899766 l
385.369917 59.145426 l
388.649256 56.59903 l
391.928595 54.251182 l
395.207934 52.092154 l
398.487273 50.112 l
stroke
grestore
0.800 setlinewidth
0 setlinejoin
[] 0 setdash
0.000 setgray
gsave
57.6 38.016 m
57.6 304.128 l
stroke
grestore
gsave
414.72 38.016 m
414.72 304.128 l
stroke
grestore
gsave
57.6 38.016 m
414.72 38.016 l
stroke
grestore
gsave
57.6 304.128 m
414.72 304.128 l
stroke
grestore

end
showpage
