%!PS-Adobe-3.0 EPSF-3.0
%%Title: /home/filipe/UFPA/aulas/simulacao-discreta/2-modelagem-dos-dados-de-entrada/triang.eps
%%Creator: matplotlib version 3.0.3, http://matplotlib.org/
%%CreationDate: Wed Apr 10 18:57:55 2019
%%Orientation: portrait
%%BoundingBox: 75 223 536 568
%%EndComments
%%BeginProlog
/mpldict 7 dict def
mpldict begin
/m { moveto } bind def
/l { lineto } bind def
/r { rlineto } bind def
/c { curveto } bind def
/cl { closepath } bind def
/box {
m
1 index 0 r
0 exch r
neg 0 r
cl
} bind def
/clipbox {
box
clip
newpath
} bind def
end
%%EndProlog
mpldict begin
75.6 223.2 translate
460.8 345.6 0 0 clipbox
gsave
0 0 m
460.8 0 l
460.8 345.6 l
0 345.6 l
cl
1.000 setgray
fill
grestore
gsave
57.6 38.016 m
414.72 38.016 l
414.72 304.128 l
57.6 304.128 l
cl
1.000 setgray
fill
grestore
1.500 setlinewidth
1 setlinejoin
2 setlinecap
[] 0 setdash
0.122 0.467 0.706 setrgbcolor
gsave
357.1 266.1 57.6 38.02 clipbox
73.832727 89.627251 m
77.112066 105.025477 l
80.391405 120.423703 l
83.670744 135.821929 l
86.950083 151.220156 l
90.229421 166.618382 l
93.50876 182.016608 l
96.788099 197.414834 l
100.067438 212.813061 l
103.346777 228.211287 l
106.626116 243.609513 l
109.905455 259.007739 l
113.184793 274.405966 l
116.464132 289.804192 l
119.743471 292.032 l
123.02281 289.185882 l
126.302149 286.339765 l
129.581488 283.493647 l
132.860826 280.647529 l
136.140165 277.801412 l
139.419504 274.955294 l
142.698843 272.109176 l
145.978182 269.263059 l
149.257521 266.416941 l
152.53686 263.570824 l
155.816198 260.724706 l
159.095537 257.878588 l
162.374876 255.032471 l
165.654215 252.186353 l
168.933554 249.340235 l
172.212893 246.494118 l
175.492231 243.648 l
178.77157 240.801882 l
182.050909 237.955765 l
185.330248 235.109647 l
188.609587 232.263529 l
191.888926 229.417412 l
195.168264 226.571294 l
198.447603 223.725176 l
201.726942 220.879059 l
205.006281 218.032941 l
208.28562 215.186824 l
211.564959 212.340706 l
214.844298 209.494588 l
218.123636 206.648471 l
221.402975 203.802353 l
224.682314 200.956235 l
227.961653 198.110118 l
231.240992 195.264 l
234.520331 192.417882 l
237.799669 189.571765 l
241.079008 186.725647 l
244.358347 183.879529 l
247.637686 181.033412 l
250.917025 178.187294 l
254.196364 175.341176 l
257.475702 172.495059 l
260.755041 169.648941 l
264.03438 166.802824 l
267.313719 163.956706 l
270.593058 161.110588 l
273.872397 158.264471 l
277.151736 155.418353 l
280.431074 152.572235 l
283.710413 149.726118 l
286.989752 146.88 l
290.269091 144.033882 l
293.54843 141.187765 l
296.827769 138.341647 l
300.107107 135.495529 l
303.386446 132.649412 l
306.665785 129.803294 l
309.945124 126.957176 l
313.224463 124.111059 l
316.503802 121.264941 l
319.78314 118.418824 l
323.062479 115.572706 l
326.341818 112.726588 l
329.621157 109.880471 l
332.900496 107.034353 l
336.179835 104.188235 l
339.459174 101.342118 l
342.738512 98.496 l
346.017851 95.649882 l
349.29719 92.803765 l
352.576529 89.957647 l
355.855868 87.111529 l
359.135207 84.265412 l
362.414545 81.419294 l
365.693884 78.573176 l
368.973223 75.727059 l
372.252562 72.880941 l
375.531901 70.034824 l
378.81124 67.188706 l
382.090579 64.342588 l
385.369917 61.496471 l
388.649256 58.650353 l
391.928595 55.804235 l
395.207934 52.958118 l
398.487273 50.112 l
stroke
grestore
0.800 setlinewidth
0 setlinejoin
[] 0 setdash
0.000 setgray
gsave
57.6 38.016 m
57.6 304.128 l
stroke
grestore
gsave
414.72 38.016 m
414.72 304.128 l
stroke
grestore
gsave
57.6 38.016 m
414.72 38.016 l
stroke
grestore
gsave
57.6 304.128 m
414.72 304.128 l
stroke
grestore

end
showpage
