%!PS-Adobe-3.0 EPSF-3.0
%%Title: /home/filipe/UFPA/aulas/simulacao-discreta/2-modelagem-dos-dados-de-entrada/uniform.eps
%%Creator: matplotlib version 3.0.3, http://matplotlib.org/
%%CreationDate: Wed Apr 10 19:00:20 2019
%%Orientation: portrait
%%BoundingBox: 75 223 536 568
%%EndComments
%%BeginProlog
/mpldict 7 dict def
mpldict begin
/m { moveto } bind def
/l { lineto } bind def
/r { rlineto } bind def
/c { curveto } bind def
/cl { closepath } bind def
/box {
m
1 index 0 r
0 exch r
neg 0 r
cl
} bind def
/clipbox {
box
clip
newpath
} bind def
end
%%EndProlog
mpldict begin
75.6 223.2 translate
460.8 345.6 0 0 clipbox
gsave
0 0 m
460.8 0 l
460.8 345.6 l
0 345.6 l
cl
1.000 setgray
fill
grestore
gsave
57.6 38.016 m
414.72 38.016 l
414.72 304.128 l
57.6 304.128 l
cl
1.000 setgray
fill
grestore
1.500 setlinewidth
1 setlinejoin
2 setlinecap
[] 0 setdash
0.122 0.467 0.706 setrgbcolor
gsave
357.1 266.1 57.6 38.02 clipbox
73.832727 171.072 m
77.112066 171.072 l
80.391405 171.072 l
83.670744 171.072 l
86.950083 171.072 l
90.229421 171.072 l
93.50876 171.072 l
96.788099 171.072 l
100.067438 171.072 l
103.346777 171.072 l
106.626116 171.072 l
109.905455 171.072 l
113.184793 171.072 l
116.464132 171.072 l
119.743471 171.072 l
123.02281 171.072 l
126.302149 171.072 l
129.581488 171.072 l
132.860826 171.072 l
136.140165 171.072 l
139.419504 171.072 l
142.698843 171.072 l
145.978182 171.072 l
149.257521 171.072 l
152.53686 171.072 l
155.816198 171.072 l
159.095537 171.072 l
162.374876 171.072 l
165.654215 171.072 l
168.933554 171.072 l
172.212893 171.072 l
175.492231 171.072 l
178.77157 171.072 l
182.050909 171.072 l
185.330248 171.072 l
188.609587 171.072 l
191.888926 171.072 l
195.168264 171.072 l
198.447603 171.072 l
201.726942 171.072 l
205.006281 171.072 l
208.28562 171.072 l
211.564959 171.072 l
214.844298 171.072 l
218.123636 171.072 l
221.402975 171.072 l
224.682314 171.072 l
227.961653 171.072 l
231.240992 171.072 l
234.520331 171.072 l
237.799669 171.072 l
241.079008 171.072 l
244.358347 171.072 l
247.637686 171.072 l
250.917025 171.072 l
254.196364 171.072 l
257.475702 171.072 l
260.755041 171.072 l
264.03438 171.072 l
267.313719 171.072 l
270.593058 171.072 l
273.872397 171.072 l
277.151736 171.072 l
280.431074 171.072 l
283.710413 171.072 l
286.989752 171.072 l
290.269091 171.072 l
293.54843 171.072 l
296.827769 171.072 l
300.107107 171.072 l
303.386446 171.072 l
306.665785 171.072 l
309.945124 171.072 l
313.224463 171.072 l
316.503802 171.072 l
319.78314 171.072 l
323.062479 171.072 l
326.341818 171.072 l
329.621157 171.072 l
332.900496 171.072 l
336.179835 171.072 l
339.459174 171.072 l
342.738512 171.072 l
346.017851 171.072 l
349.29719 171.072 l
352.576529 171.072 l
355.855868 171.072 l
359.135207 171.072 l
362.414545 171.072 l
365.693884 171.072 l
368.973223 171.072 l
372.252562 171.072 l
375.531901 171.072 l
378.81124 171.072 l
382.090579 171.072 l
385.369917 171.072 l
388.649256 171.072 l
391.928595 171.072 l
395.207934 171.072 l
398.487273 171.072 l
stroke
grestore
0.800 setlinewidth
0 setlinejoin
[] 0 setdash
0.000 setgray
gsave
57.6 38.016 m
57.6 304.128 l
stroke
grestore
gsave
414.72 38.016 m
414.72 304.128 l
stroke
grestore
gsave
57.6 38.016 m
414.72 38.016 l
stroke
grestore
gsave
57.6 304.128 m
414.72 304.128 l
stroke
grestore

end
showpage
