%!PS-Adobe-3.0 EPSF-3.0 
%%BoundingBox: 0 0 210 123
%%Pages: 0
%%Creator: LibreOffice 5.4
%%Title: none
%%CreationDate: none
%%LanguageLevel: 2
%%EndComments
%%BeginProlog
%%BeginResource: procset SDRes-Prolog 1.0 0
/b4_inc_state save def
/dict_count countdictstack def
/op_count count 1 sub def
userdict begin
0 setgray 0 setlinecap 1 setlinewidth 0 setlinejoin 10 setmiterlimit[] 0 setdash newpath
/languagelevel where {pop languagelevel 1 ne {false setstrokeadjust false setoverprint} if} if
/bdef {bind def} bind def
/c {setgray} bdef
/l {neg lineto} bdef
/rl {neg rlineto} bdef
/lc {setlinecap} bdef
/lj {setlinejoin} bdef
/lw {setlinewidth} bdef
/ml {setmiterlimit} bdef
/ld {setdash} bdef
/m {neg moveto} bdef
/ct {6 2 roll neg 6 2 roll neg 6 2 roll neg curveto} bdef
/r {rotate} bdef
/t {neg translate} bdef
/s {scale} bdef
/sw {show} bdef
/gs {gsave} bdef
/gr {grestore} bdef
/f {findfont dup length dict begin
{1 index /FID ne {def} {pop pop} ifelse} forall /Encoding ISOLatin1Encoding def
currentdict end /NFont exch definefont pop /NFont findfont} bdef
/p {closepath} bdef
/sf {scalefont setfont} bdef
/ef {eofill}bdef
/pc {closepath stroke}bdef
/ps {stroke}bdef
/pum {matrix currentmatrix}bdef
/pom {setmatrix}bdef
/bs {/aString exch def /nXOfs exch def /nWidth exch def currentpoint nXOfs 0 rmoveto pum nWidth aString stringwidth pop div 1 scale aString show pom moveto} bdef
%%EndResource
%%EndProlog
%%BeginSetup
%%EndSetup
%%Page: 1 1
%%BeginPageSetup
%%EndPageSetup
pum
0.02837 0.02838 s 
0 -4334 t
/tm matrix currentmatrix def
tm setmatrix
-6397 -11694 t 
1 1 s 
0.996 c 7799 13195 m  8139 13195 8399 13455 8399 13795 ct 8399 14134 8139 14394 7799 14394 ct 
7459 14394 7199 14134 7199 13795 ct 7199 13455 7459 13195 7799 13195 ct p
7199 13195 m  7199 13195 l  p
8400 14395 m  8400 14395 l  p ef
0 lw 1 lj 0.000 c 7798 13194 m  8138 13194 8398 13454 8398 13794 ct 8398 14134 8138 14394 7798 14394 ct 
7458 14394 7199 14134 7199 13794 ct 7199 13454 7458 13194 7798 13194 ct pc
7199 13194 m  7199 13194 l  pc
8399 14395 m  8399 14395 l  pc
pum
7623 13960 t
326 -170 m  326 -52 285 6 203 6 ct 151 6 117 -13 99 -52 ct 97 -52 l  98 -50 99 -33 99 1 ct 
99 132 l  43 132 l  43 -267 l  43 -302 42 -325 41 -336 ct 95 -336 l  95 -335 95 -332 96 -327 ct 
96 -322 97 -314 97 -304 ct 98 -293 98 -286 98 -282 ct 99 -282 l  109 -303 122 -318 139 -328 ct 
155 -337 176 -342 203 -342 ct 244 -342 275 -328 296 -300 ct 316 -273 326 -229 326 -170 ct 
p
268 -168 m  268 -215 262 -249 249 -269 ct 236 -289 216 -299 189 -299 ct 167 -299 149 -294 137 -285 ct 
124 -276 115 -261 108 -241 ct 102 -221 99 -196 99 -164 ct 99 -120 106 -87 120 -66 ct 
134 -45 157 -35 188 -35 ct 216 -35 236 -45 249 -66 ct 262 -86 268 -120 268 -168 ct 
p ef
pom
0.996 c 12698 13195 m  13037 13195 13297 13455 13297 13795 ct 13297 14134 13037 14394 12698 14394 ct 
12358 14394 12098 14134 12098 13795 ct 12098 13455 12358 13195 12698 13195 ct 
p
12098 13195 m  12098 13195 l  p
13298 14395 m  13298 14395 l  p ef
0.000 c 12697 13194 m  13037 13194 13297 13454 13297 13794 ct 13297 14134 13037 14394 12697 14394 ct 
12357 14394 12097 14134 12097 13794 ct 12097 13454 12357 13194 12697 13194 ct 
pc
12097 13194 m  12097 13194 l  pc
13298 14395 m  13298 14395 l  pc
pum
12522 13960 t
150 6 m  107 6 76 -8 56 -37 ct 37 -66 27 -109 27 -166 ct 27 -283 68 -342 150 -342 ct 
175 -342 196 -338 213 -329 ct 230 -320 243 -305 255 -284 ct 255 -284 l  255 -290 256 -301 256 -316 ct 
257 -332 258 -339 259 -339 ct 313 -339 l  311 -327 310 -297 310 -248 ct 310 132 l 
255 132 l  255 -4 l  256 -55 l  255 -55 l  244 -33 230 -17 214 -8 ct 198 1 176 6 150 6 ct 
p
255 -172 m  255 -216 247 -248 233 -269 ct 219 -290 196 -301 165 -301 ct 137 -301 116 -290 104 -269 ct 
91 -248 85 -214 85 -168 ct 85 -121 92 -88 104 -67 ct 117 -47 137 -37 164 -37 ct 
196 -37 219 -48 233 -71 ct 247 -93 255 -127 255 -172 ct p ef
pom
1 lw 8399 13795 m  11668 13795 l  ps
12098 13795 m  11648 13645 l  11648 13945 l  12098 13795 l  p ef
pum
9048 13580 t
39 -165 m  39 -224 49 -278 67 -326 ct 86 -373 115 -418 154 -460 ct 208 -460 l 
169 -417 141 -371 123 -323 ct 105 -274 96 -222 96 -164 ct 96 -107 104 -54 122 -6 ct 
140 42 169 88 208 132 ct 154 132 l  115 90 86 45 67 -3 ct 49 -50 39 -104 39 -163 ct 
39 -165 l  p ef
340 6 m  307 6 281 -3 264 -21 ct 247 -38 239 -63 239 -94 ct 239 -129 250 -155 273 -174 ct 
296 -192 333 -202 384 -204 ct 459 -205 l  459 -223 l  459 -250 453 -270 442 -282 ct 
430 -294 412 -299 387 -299 ct 362 -299 344 -295 333 -287 ct 321 -278 314 -265 312 -246 ct 
254 -251 l  263 -312 308 -342 388 -342 ct 431 -342 462 -332 484 -313 ct 505 -294 516 -266 516 -229 ct 
516 -85 l  516 -68 518 -55 522 -47 ct 526 -39 535 -35 547 -35 ct 552 -35 558 -35 565 -37 ct 
565 -2 l  551 1 537 3 522 3 ct 501 3 486 -2 477 -13 ct 468 -24 462 -41 461 -64 ct 
459 -64 l  445 -39 428 -21 409 -10 ct 390 1 367 6 340 6 ct p
353 -36 m  374 -36 392 -41 408 -50 ct 424 -59 436 -72 445 -88 ct 455 -104 459 -121 459 -138 ct 
459 -166 l  398 -165 l  372 -164 352 -161 338 -157 ct 325 -152 314 -144 307 -134 ct 
300 -123 296 -110 296 -93 ct 296 -75 301 -61 311 -51 ct 321 -41 335 -36 353 -36 ct 
p ef
682 -68 m  682 -16 l  682 6 680 25 676 39 ct 673 54 666 68 658 82 ct 620 82 l 
639 53 649 26 649 0 ct 622 0 l  622 -68 l  682 -68 l  p ef
1245 -169 m  1245 -52 1204 7 1122 7 ct 1097 7 1076 2 1059 -7 ct 1042 -16 1028 -31 1018 -51 ct 
1017 -51 l  1017 -45 1017 -35 1016 -22 ct 1015 -9 1014 -1 1014 1 ct 960 1 l 
961 -10 962 -33 962 -68 ct 962 -460 l  1018 -460 l  1018 -328 l  1018 -315 1017 -299 1016 -281 ct 
1018 -281 l  1028 -302 1042 -318 1059 -327 ct 1076 -336 1097 -341 1122 -341 ct 
1164 -341 1196 -327 1216 -298 ct 1236 -270 1245 -227 1245 -169 ct p
1187 -167 m  1187 -214 1181 -247 1168 -268 ct 1156 -288 1136 -298 1108 -298 ct 
1076 -298 1054 -287 1039 -266 ct 1025 -244 1018 -210 1018 -163 ct 1018 -119 1025 -87 1039 -66 ct 
1053 -45 1076 -34 1107 -34 ct 1135 -34 1156 -45 1168 -65 ct 1181 -86 1187 -120 1187 -167 ct 
p ef
1389 -68 m  1389 -16 l  1389 6 1387 25 1383 39 ct 1380 54 1373 68 1365 82 ct 
1327 82 l  1346 53 1356 26 1356 0 ct 1329 0 l  1329 -68 l  1389 -68 l  p ef
1864 0 m  1864 -213 l  1864 -245 1860 -268 1851 -280 ct 1842 -293 1826 -299 1803 -299 ct 
1779 -299 1760 -290 1746 -272 ct 1732 -253 1726 -228 1726 -195 ct 1726 0 l  1670 0 l 
1670 -264 l  1670 -303 1669 -327 1668 -336 ct 1721 -336 l  1721 -335 1721 -332 1722 -327 ct 
1722 -323 1722 -318 1722 -312 ct 1723 -306 1723 -295 1723 -278 ct 1724 -278 l 
1736 -302 1750 -319 1766 -328 ct 1781 -337 1800 -342 1822 -342 ct 1848 -342 1868 -337 1883 -327 ct 
1897 -317 1908 -301 1913 -278 ct 1914 -278 l  1926 -301 1940 -317 1956 -327 ct 
1973 -337 1993 -342 2016 -342 ct 2050 -342 2075 -333 2090 -314 ct 2105 -296 2113 -266 2113 -224 ct 
2113 0 l  2058 0 l  2058 -213 l  2058 -245 2053 -268 2045 -280 ct 2036 -293 2020 -299 1997 -299 ct 
1972 -299 1953 -290 1940 -272 ct 1926 -254 1919 -228 1919 -195 ct 1919 0 l  1864 0 l 
p ef
2326 -163 m  2326 -104 2317 -50 2298 -2 ct 2279 45 2251 90 2212 132 ct 2158 132 l 
2197 89 2225 43 2243 -5 ct 2261 -53 2270 -106 2270 -164 ct 2270 -222 2261 -275 2243 -323 ct 
2225 -371 2196 -417 2158 -460 ct 2212 -460 l  2251 -418 2280 -373 2298 -325 ct 
2317 -278 2326 -224 2326 -165 ct 2326 -163 l  p ef
pom
0.996 c 6896 14593 m  6647 14593 6398 14651 6398 14709 ct 6398 14796 l  6398 14884 l 
6398 15002 l  6398 15090 l  6398 15177 l  6398 15235 6647 15294 6896 15294 ct 
7270 15294 l  7644 15294 l  8152 15294 l  8526 15294 l  8900 15294 l  9149 15294 9398 15235 9398 15177 ct 
9398 15090 l  9398 15002 l  9398 14884 l  9398 14796 l  9398 14709 l  9398 14651 9149 14593 8900 14593 ct 
9249 13657 l  8152 14593 l  7644 14593 l  7270 14593 l  6896 14593 l  p
6398 14593 m  6398 14593 l  p
9398 15294 m  9398 15294 l  p ef
0 lw 0.000 c 6896 14593 m  6647 14593 6398 14651 6398 14709 ct 6398 14796 l 
6398 14884 l  6398 15002 l  6398 15090 l  6398 15176 l  6398 15234 6647 15293 6896 15293 ct 
7270 15293 l  7643 15293 l  8151 15293 l  8525 15293 l  8899 15293 l  9148 15293 9398 15234 9398 15176 ct 
9398 15090 l  9398 15002 l  9398 14884 l  9398 14796 l  9398 14709 l  9398 14651 9148 14593 8899 14593 ct 
9248 13656 l  8151 14593 l  7643 14593 l  7270 14593 l  6896 14593 l  pc
6398 14593 m  6398 14593 l  pc
9398 15293 m  9398 15293 l  pc
pum
6535 15072 t
307 -94 m  307 -62 295 -38 270 -21 ct 246 -4 211 5 166 5 ct 84 5 36 -24 22 -81 ct 
67 -90 l  72 -70 83 -55 100 -45 ct 117 -36 139 -31 168 -31 ct 198 -31 221 -36 237 -46 ct 
253 -57 261 -72 261 -91 ct 261 -102 259 -111 254 -118 ct 249 -125 241 -131 232 -135 ct 
223 -140 212 -144 199 -147 ct 187 -150 173 -153 157 -157 ct 130 -163 110 -169 96 -175 ct 
82 -181 71 -187 63 -195 ct 55 -202 49 -210 45 -220 ct 40 -230 38 -241 38 -254 ct 
38 -283 50 -306 72 -321 ct 94 -337 126 -345 167 -345 ct 206 -345 236 -339 256 -327 ct 
276 -315 291 -295 299 -267 ct 254 -259 l  249 -277 239 -290 225 -298 ct 211 -306 192 -310 167 -310 ct 
140 -310 119 -306 105 -297 ct 90 -288 83 -274 83 -256 ct 83 -246 86 -237 92 -230 ct 
97 -224 105 -218 116 -213 ct 126 -208 147 -203 178 -196 ct 188 -193 199 -191 209 -188 ct 
220 -186 230 -183 239 -179 ct 249 -176 257 -172 266 -167 ct 274 -162 281 -157 287 -150 ct 
293 -143 298 -135 302 -126 ct 305 -117 307 -106 307 -94 ct p ef
377 0 m  377 -261 l  420 -261 l  420 0 l  377 0 l  p
363 -290 m  363 -295 l  415 -364 l  465 -364 l  465 -357 l  385 -290 l 
363 -290 l  p ef
655 0 m  655 -166 l  655 -191 652 -208 645 -218 ct 638 -228 626 -232 607 -232 ct 
589 -232 574 -225 564 -211 ct 553 -197 547 -177 547 -151 ct 547 0 l  504 0 l 
504 -205 l  504 -236 504 -254 503 -261 ct 544 -261 l  544 -260 544 -258 544 -255 ct 
544 -251 545 -247 545 -242 ct 545 -238 545 -229 546 -217 ct 546 -217 l  556 -235 566 -248 579 -255 ct 
591 -262 605 -266 623 -266 ct 642 -266 658 -262 670 -254 ct 681 -246 689 -234 694 -217 ct 
694 -217 l  703 -234 714 -247 727 -254 ct 740 -262 755 -266 773 -266 ct 800 -266 819 -259 831 -245 ct 
843 -230 849 -207 849 -174 ct 849 0 l  806 0 l  806 -166 l  806 -191 803 -208 796 -218 ct 
789 -228 776 -232 758 -232 ct 739 -232 725 -225 714 -211 ct 703 -197 698 -177 698 -151 ct 
698 0 l  655 0 l  p ef
1135 -132 m  1135 -41 1103 5 1039 5 ct 1019 5 1003 1 990 -6 ct 977 -13 966 -24 958 -40 ct 
957 -40 l  957 -35 957 -28 956 -18 ct 956 -7 955 -1 955 0 ct 913 0 l  914 -9 914 -26 914 -54 ct 
914 -358 l  958 -358 l  958 -256 l  958 -246 957 -233 957 -219 ct 958 -219 l 
966 -236 976 -248 990 -255 ct 1003 -262 1019 -266 1039 -266 ct 1072 -266 1096 -255 1112 -233 ct 
1127 -210 1135 -177 1135 -132 ct p
1089 -130 m  1089 -167 1085 -193 1075 -209 ct 1065 -225 1050 -232 1028 -232 ct 
1003 -232 986 -224 974 -207 ct 963 -191 958 -164 958 -128 ct 958 -93 963 -68 974 -52 ct 
985 -35 1003 -27 1027 -27 ct 1049 -27 1065 -35 1075 -51 ct 1085 -68 1089 -94 1089 -130 ct 
p ef
1410 -131 m  1410 -85 1400 -51 1380 -29 ct 1360 -6 1331 5 1292 5 ct 1254 5 1225 -7 1206 -30 ct 
1186 -53 1177 -87 1177 -131 ct 1177 -221 1216 -266 1294 -266 ct 1334 -266 1363 -255 1382 -233 ct 
1401 -211 1410 -177 1410 -131 ct p
1364 -131 m  1364 -167 1359 -193 1348 -209 ct 1338 -226 1320 -234 1294 -234 ct 
1269 -234 1251 -226 1239 -209 ct 1228 -192 1222 -166 1222 -131 ct 1222 -96 1228 -70 1239 -53 ct 
1250 -36 1268 -27 1292 -27 ct 1318 -27 1336 -35 1348 -52 ct 1359 -69 1364 -95 1364 -131 ct 
p ef
1464 0 m  1464 -358 l  1508 -358 l  1508 0 l  1464 0 l  p ef
1795 -131 m  1795 -85 1785 -51 1765 -29 ct 1745 -6 1716 5 1677 5 ct 1639 5 1610 -7 1591 -30 ct 
1571 -53 1562 -87 1562 -131 ct 1562 -221 1601 -266 1679 -266 ct 1719 -266 1748 -255 1767 -233 ct 
1786 -211 1795 -177 1795 -131 ct p
1749 -131 m  1749 -167 1744 -193 1733 -209 ct 1723 -226 1705 -234 1679 -234 ct 
1654 -234 1636 -226 1624 -209 ct 1613 -192 1607 -166 1607 -131 ct 1607 -96 1613 -70 1624 -53 ct 
1635 -36 1653 -27 1677 -27 ct 1703 -27 1721 -35 1733 -52 ct 1744 -69 1749 -95 1749 -131 ct 
p ef
1988 0 m  1988 -358 l  2032 -358 l  2032 0 l  1988 0 l  p ef
2098 -316 m  2098 -358 l  2141 -358 l  2141 -316 l  2098 -316 l  p
2098 0 m  2098 -261 l  2141 -261 l  2141 0 l  2098 0 l  p ef
2373 -42 m  2365 -25 2354 -13 2341 -6 ct 2328 1 2311 5 2292 5 ct 2259 5 2235 -6 2219 -28 ct 
2204 -51 2196 -84 2196 -129 ct 2196 -220 2228 -266 2292 -266 ct 2312 -266 2328 -262 2341 -255 ct 
2354 -248 2365 -236 2373 -221 ct 2374 -221 l  2373 -250 l  2373 -358 l  2416 -358 l 
2416 -54 l  2416 -26 2417 -9 2418 0 ct 2376 0 l  2376 -2 2375 -8 2375 -18 ct 
2374 -27 2374 -35 2374 -42 ct 2373 -42 l  p
2241 -131 m  2241 -94 2246 -68 2256 -52 ct 2265 -36 2281 -29 2303 -29 ct 2327 -29 2345 -37 2356 -54 ct 
2367 -71 2373 -98 2373 -134 ct 2373 -168 2367 -194 2356 -210 ct 2345 -226 2328 -234 2303 -234 ct 
2281 -234 2266 -226 2256 -210 ct 2246 -193 2241 -167 2241 -131 ct p ef
2704 -131 m  2704 -85 2694 -51 2674 -29 ct 2654 -6 2625 5 2586 5 ct 2548 5 2519 -7 2500 -30 ct 
2480 -53 2471 -87 2471 -131 ct 2471 -221 2510 -266 2588 -266 ct 2628 -266 2657 -255 2676 -233 ct 
2695 -211 2704 -177 2704 -131 ct p
2658 -131 m  2658 -167 2653 -193 2642 -209 ct 2632 -226 2614 -234 2588 -234 ct 
2563 -234 2545 -226 2533 -209 ct 2522 -192 2516 -166 2516 -131 ct 2516 -96 2522 -70 2533 -53 ct 
2544 -36 2562 -27 2586 -27 ct 2612 -27 2630 -35 2642 -52 ct 2653 -69 2658 -95 2658 -131 ct 
p ef
pom
0.996 c 7012 11695 m  6705 11695 6398 11772 6398 11850 ct 6398 11965 l  6398 12081 l 
6398 12239 l  6398 12355 l  6398 12471 l  6398 12549 6705 12627 7012 12627 ct 
7473 12627 l  7934 12627 l  8561 12627 l  9996 13091 l  9482 12627 l  9789 12627 10097 12549 10097 12471 ct 
10097 12355 l  10097 12239 l  10097 12081 l  10097 11965 l  10097 11850 l 
10097 11772 9789 11695 9482 11695 ct 9022 11695 l  8561 11695 l  7934 11695 l 
7473 11695 l  7012 11695 l  p
6398 11695 m  6398 11695 l  p
10097 12627 m  10097 12627 l  p ef
0.000 c 7012 11694 m  6705 11694 6398 11771 6398 11849 ct 6398 11965 l  6398 12081 l 
6398 12239 l  6398 12355 l  6398 12471 l  6398 12549 6705 12627 7012 12627 ct 
7472 12627 l  7933 12627 l  8560 12627 l  9996 13090 l  9482 12627 l  9789 12627 10097 12549 10097 12471 ct 
10097 12355 l  10097 12239 l  10097 12081 l  10097 11965 l  10097 11849 l 
10097 11771 9789 11694 9482 11694 ct 9021 11694 l  8560 11694 l  7933 11694 l 
7472 11694 l  7012 11694 l  pc
6398 11694 m  6398 11694 l  pc
10097 12627 m  10097 12627 l  pc
pum
6537 12289 t
307 -94 m  307 -62 295 -38 270 -21 ct 246 -4 211 5 166 5 ct 84 5 36 -24 22 -81 ct 
67 -90 l  72 -70 83 -55 100 -45 ct 117 -36 139 -31 168 -31 ct 198 -31 221 -36 237 -46 ct 
253 -57 261 -72 261 -91 ct 261 -102 259 -111 254 -118 ct 249 -125 241 -131 232 -135 ct 
223 -140 212 -144 199 -147 ct 187 -150 173 -153 157 -157 ct 130 -163 110 -169 96 -175 ct 
82 -181 71 -187 63 -195 ct 55 -202 49 -210 45 -220 ct 40 -230 38 -241 38 -254 ct 
38 -283 50 -306 72 -321 ct 94 -337 126 -345 167 -345 ct 206 -345 236 -339 256 -327 ct 
276 -315 291 -295 299 -267 ct 254 -259 l  249 -277 239 -290 225 -298 ct 211 -306 192 -310 167 -310 ct 
140 -310 119 -306 105 -297 ct 90 -288 83 -274 83 -256 ct 83 -246 86 -237 92 -230 ct 
97 -224 105 -218 116 -213 ct 126 -208 147 -203 178 -196 ct 188 -193 199 -191 209 -188 ct 
220 -186 230 -183 239 -179 ct 249 -176 257 -172 266 -167 ct 274 -162 281 -157 287 -150 ct 
293 -143 298 -135 302 -126 ct 305 -117 307 -106 307 -94 ct p ef
377 0 m  377 -261 l  420 -261 l  420 0 l  377 0 l  p
363 -290 m  363 -295 l  415 -364 l  465 -364 l  465 -357 l  385 -290 l 
363 -290 l  p ef
655 0 m  655 -166 l  655 -191 652 -208 645 -218 ct 638 -228 626 -232 607 -232 ct 
589 -232 574 -225 564 -211 ct 553 -197 547 -177 547 -151 ct 547 0 l  504 0 l 
504 -205 l  504 -236 504 -254 503 -261 ct 544 -261 l  544 -260 544 -258 544 -255 ct 
544 -251 545 -247 545 -242 ct 545 -238 545 -229 546 -217 ct 546 -217 l  556 -235 566 -248 579 -255 ct 
591 -262 605 -266 623 -266 ct 642 -266 658 -262 670 -254 ct 681 -246 689 -234 694 -217 ct 
694 -217 l  703 -234 714 -247 727 -254 ct 740 -262 755 -266 773 -266 ct 800 -266 819 -259 831 -245 ct 
843 -230 849 -207 849 -174 ct 849 0 l  806 0 l  806 -166 l  806 -191 803 -208 796 -218 ct 
789 -228 776 -232 758 -232 ct 739 -232 725 -225 714 -211 ct 703 -197 698 -177 698 -151 ct 
698 0 l  655 0 l  p ef
1135 -132 m  1135 -41 1103 5 1039 5 ct 1019 5 1003 1 990 -6 ct 977 -13 966 -24 958 -40 ct 
957 -40 l  957 -35 957 -28 956 -18 ct 956 -7 955 -1 955 0 ct 913 0 l  914 -9 914 -26 914 -54 ct 
914 -358 l  958 -358 l  958 -256 l  958 -246 957 -233 957 -219 ct 958 -219 l 
966 -236 976 -248 990 -255 ct 1003 -262 1019 -266 1039 -266 ct 1072 -266 1096 -255 1112 -233 ct 
1127 -210 1135 -177 1135 -132 ct p
1089 -130 m  1089 -167 1085 -193 1075 -209 ct 1065 -225 1050 -232 1028 -232 ct 
1003 -232 986 -224 974 -207 ct 963 -191 958 -164 958 -128 ct 958 -93 963 -68 974 -52 ct 
985 -35 1003 -27 1027 -27 ct 1049 -27 1065 -35 1075 -51 ct 1085 -68 1089 -94 1089 -130 ct 
p ef
1410 -131 m  1410 -85 1400 -51 1380 -29 ct 1360 -6 1331 5 1292 5 ct 1254 5 1225 -7 1206 -30 ct 
1186 -53 1177 -87 1177 -131 ct 1177 -221 1216 -266 1294 -266 ct 1334 -266 1363 -255 1382 -233 ct 
1401 -211 1410 -177 1410 -131 ct p
1364 -131 m  1364 -167 1359 -193 1348 -209 ct 1338 -226 1320 -234 1294 -234 ct 
1269 -234 1251 -226 1239 -209 ct 1228 -192 1222 -166 1222 -131 ct 1222 -96 1228 -70 1239 -53 ct 
1250 -36 1268 -27 1292 -27 ct 1318 -27 1336 -35 1348 -52 ct 1359 -69 1364 -95 1364 -131 ct 
p ef
1464 0 m  1464 -358 l  1508 -358 l  1508 0 l  1464 0 l  p ef
1795 -131 m  1795 -85 1785 -51 1765 -29 ct 1745 -6 1716 5 1677 5 ct 1639 5 1610 -7 1591 -30 ct 
1571 -53 1562 -87 1562 -131 ct 1562 -221 1601 -266 1679 -266 ct 1719 -266 1748 -255 1767 -233 ct 
1786 -211 1795 -177 1795 -131 ct p
1749 -131 m  1749 -167 1744 -193 1733 -209 ct 1723 -226 1705 -234 1679 -234 ct 
1654 -234 1636 -226 1624 -209 ct 1613 -192 1607 -166 1607 -131 ct 1607 -96 1613 -70 1624 -53 ct 
1635 -36 1653 -27 1677 -27 ct 1703 -27 1721 -35 1733 -52 ct 1744 -69 1749 -95 1749 -131 ct 
p ef
2022 -121 m  2022 -91 2028 -68 2040 -52 ct 2053 -36 2071 -28 2094 -28 ct 2113 -28 2128 -31 2140 -39 ct 
2151 -46 2159 -56 2163 -68 ct 2201 -57 l  2185 -16 2150 5 2094 5 ct 2056 5 2026 -7 2006 -30 ct 
1986 -53 1976 -87 1976 -132 ct 1976 -175 1986 -208 2006 -231 ct 2026 -254 2055 -266 2093 -266 ct 
2169 -266 2208 -220 2208 -127 ct 2208 -121 l  2022 -121 l  p
2163 -154 m  2161 -182 2154 -202 2142 -215 ct 2130 -228 2114 -234 2092 -234 ct 
2071 -234 2054 -227 2042 -213 ct 2030 -199 2023 -179 2022 -154 ct 2163 -154 l 
p ef
2459 -72 m  2459 -47 2450 -28 2431 -15 ct 2413 -2 2387 5 2353 5 ct 2321 5 2296 0 2278 -11 ct 
2261 -22 2249 -38 2244 -61 ct 2282 -69 l  2286 -55 2293 -44 2305 -38 ct 2317 -31 2333 -28 2353 -28 ct 
2375 -28 2391 -31 2402 -38 ct 2412 -45 2417 -55 2417 -69 ct 2417 -79 2413 -87 2406 -94 ct 
2399 -100 2388 -105 2372 -110 ct 2341 -118 l  2316 -124 2298 -131 2288 -137 ct 
2277 -143 2269 -150 2263 -159 ct 2257 -168 2254 -179 2254 -192 ct 2254 -216 2263 -234 2280 -246 ct 
2297 -259 2321 -265 2354 -265 ct 2383 -265 2405 -260 2422 -250 ct 2439 -240 2450 -223 2455 -201 ct 
2415 -196 l  2413 -208 2407 -217 2396 -223 ct 2386 -229 2371 -232 2354 -232 ct 
2334 -232 2320 -229 2310 -223 ct 2301 -217 2296 -208 2296 -196 ct 2296 -189 2298 -183 2302 -178 ct 
2306 -173 2312 -169 2319 -166 ct 2327 -162 2343 -158 2367 -152 ct 2390 -146 2407 -140 2417 -136 ct 
2427 -131 2435 -125 2441 -119 ct 2447 -113 2451 -106 2454 -99 ct 2458 -91 2459 -82 2459 -72 ct 
p ef
2546 -132 m  2546 -97 2552 -71 2563 -54 ct 2574 -38 2590 -29 2612 -29 ct 2628 -29 2641 -33 2651 -42 ct 
2661 -50 2668 -63 2670 -81 ct 2714 -78 l  2711 -52 2700 -32 2682 -17 ct 2664 -2 2641 5 2613 5 ct 
2577 5 2549 -7 2530 -30 ct 2511 -53 2501 -86 2501 -131 ct 2501 -175 2511 -208 2530 -231 ct 
2549 -254 2577 -266 2613 -266 ct 2640 -266 2662 -259 2679 -245 ct 2697 -231 2708 -212 2713 -188 ct 
2668 -185 l  2666 -199 2660 -211 2651 -219 ct 2642 -228 2629 -232 2612 -232 ct 
2589 -232 2572 -224 2562 -209 ct 2551 -194 2546 -168 2546 -132 ct p ef
2764 0 m  2764 -200 l  2764 -219 2764 -239 2763 -261 ct 2804 -261 l  2805 -232 2806 -214 2806 -208 ct 
2807 -208 l  2814 -230 2822 -245 2831 -254 ct 2840 -262 2852 -266 2869 -266 ct 
2874 -266 2880 -265 2886 -264 ct 2886 -224 l  2881 -225 2873 -226 2863 -226 ct 
2845 -226 2831 -218 2822 -203 ct 2812 -187 2808 -165 2808 -136 ct 2808 0 l  2764 0 l 
p ef
2928 -316 m  2928 -358 l  2971 -358 l  2971 -316 l  2928 -316 l  p
2928 0 m  2928 -261 l  2971 -261 l  2971 0 l  2928 0 l  p ef
3139 -2 m  3124 2 3110 4 3095 4 ct 3060 4 3043 -16 3043 -55 ct 3043 -229 l  3012 -229 l 
3012 -261 l  3044 -261 l  3057 -320 l  3086 -320 l  3086 -261 l  3134 -261 l 
3134 -229 l  3086 -229 l  3086 -65 l  3086 -52 3088 -43 3092 -38 ct 3096 -33 3103 -31 3114 -31 ct 
3119 -31 3128 -32 3139 -34 ct 3139 -2 l  p ef
3398 -131 m  3398 -85 3388 -51 3368 -29 ct 3348 -6 3319 5 3280 5 ct 3242 5 3213 -7 3194 -30 ct 
3174 -53 3165 -87 3165 -131 ct 3165 -221 3204 -266 3282 -266 ct 3322 -266 3351 -255 3370 -233 ct 
3389 -211 3398 -177 3398 -131 ct p
3352 -131 m  3352 -167 3347 -193 3336 -209 ct 3326 -226 3308 -234 3282 -234 ct 
3257 -234 3239 -226 3227 -209 ct 3216 -192 3210 -166 3210 -131 ct 3210 -96 3216 -70 3227 -53 ct 
3238 -36 3256 -27 3280 -27 ct 3306 -27 3324 -35 3336 -52 ct 3347 -69 3352 -95 3352 -131 ct 
p ef
pom
0.996 c 10794 14693 m  10495 14693 10196 14803 10196 14914 ct 10196 15080 l 
10196 15246 l  10196 15472 l  10196 15638 l  10196 15804 l  10196 15915 10495 16026 10794 16026 ct 
11243 16026 l  11691 16026 l  12302 16026 l  12750 16026 l  13198 16026 l 
13497 16026 13796 15915 13796 15804 ct 13796 15638 l  13796 15472 l  13796 15246 l 
13796 15080 l  13796 14914 l  13796 14803 13497 14693 13198 14693 ct 12750 14693 l 
12302 14693 l  11691 14693 l  10896 13657 l  10794 14693 l  p
10196 14693 m  10196 14693 l  p
13797 16026 m  13797 16026 l  p ef
0.000 c 10794 14693 m  10495 14693 10196 14803 10196 14914 ct 10196 15080 l 
10196 15245 l  10196 15471 l  10196 15637 l  10196 15803 l  10196 15914 10495 16025 10794 16025 ct 
11242 16025 l  11690 16025 l  12301 16025 l  12749 16025 l  13198 16025 l 
13497 16025 13796 15914 13796 15803 ct 13796 15637 l  13796 15471 l  13796 15245 l 
13796 15080 l  13796 14914 l  13796 14803 13497 14693 13198 14693 ct 12749 14693 l 
12301 14693 l  11690 14693 l  10896 13656 l  10794 14693 l  pc
10196 14693 m  10196 14693 l  pc
13797 16025 m  13797 16025 l  pc
pum
10811 15257 t
307 -94 m  307 -62 295 -38 270 -21 ct 246 -4 211 5 166 5 ct 84 5 36 -24 22 -81 ct 
67 -90 l  72 -70 83 -55 100 -45 ct 117 -36 139 -31 168 -31 ct 198 -31 221 -36 237 -46 ct 
253 -57 261 -72 261 -91 ct 261 -102 259 -111 254 -118 ct 249 -125 241 -131 232 -135 ct 
223 -140 212 -144 199 -147 ct 187 -150 173 -153 157 -157 ct 130 -163 110 -169 96 -175 ct 
82 -181 71 -187 63 -195 ct 55 -202 49 -210 45 -220 ct 40 -230 38 -241 38 -254 ct 
38 -283 50 -306 72 -321 ct 94 -337 126 -345 167 -345 ct 206 -345 236 -339 256 -327 ct 
276 -315 291 -295 299 -267 ct 254 -259 l  249 -277 239 -290 225 -298 ct 211 -306 192 -310 167 -310 ct 
140 -310 119 -306 105 -297 ct 90 -288 83 -274 83 -256 ct 83 -246 86 -237 92 -230 ct 
97 -224 105 -218 116 -213 ct 126 -208 147 -203 178 -196 ct 188 -193 199 -191 209 -188 ct 
220 -186 230 -183 239 -179 ct 249 -176 257 -172 266 -167 ct 274 -162 281 -157 287 -150 ct 
293 -143 298 -135 302 -126 ct 305 -117 307 -106 307 -94 ct p ef
397 -121 m  397 -91 403 -68 415 -52 ct 428 -36 446 -28 469 -28 ct 488 -28 503 -31 515 -39 ct 
526 -46 534 -56 538 -68 ct 576 -57 l  560 -16 525 5 469 5 ct 431 5 401 -7 381 -30 ct 
361 -53 351 -87 351 -132 ct 351 -175 361 -208 381 -231 ct 401 -254 430 -266 468 -266 ct 
544 -266 583 -220 583 -127 ct 583 -121 l  397 -121 l  p
538 -154 m  536 -182 529 -202 517 -215 ct 505 -228 489 -234 467 -234 ct 446 -234 429 -227 417 -213 ct 
405 -199 398 -179 397 -154 ct 538 -154 l  p ef
804 0 m  804 -166 l  804 -183 802 -196 799 -206 ct 796 -215 790 -222 783 -226 ct 
775 -230 765 -232 750 -232 ct 729 -232 713 -225 701 -211 ct 689 -197 683 -177 683 -151 ct 
683 0 l  639 0 l  639 -205 l  639 -236 639 -254 638 -261 ct 679 -261 l  679 -260 679 -258 679 -255 ct 
679 -251 680 -247 680 -242 ct 680 -238 680 -229 681 -217 ct 681 -217 l  691 -235 703 -247 716 -255 ct 
729 -262 745 -266 765 -266 ct 794 -266 814 -259 828 -245 ct 841 -230 848 -207 848 -174 ct 
848 0 l  804 0 l  p ef
1015 -2 m  1000 2 986 4 971 4 ct 936 4 919 -16 919 -55 ct 919 -229 l  888 -229 l 
888 -261 l  920 -261 l  933 -320 l  962 -320 l  962 -261 l  1010 -261 l 
1010 -229 l  962 -229 l  962 -65 l  962 -52 964 -43 968 -38 ct 972 -33 979 -31 990 -31 ct 
995 -31 1004 -32 1015 -34 ct 1015 -2 l  p ef
1053 -316 m  1053 -358 l  1096 -358 l  1096 -316 l  1053 -316 l  p
1053 0 m  1053 -261 l  1096 -261 l  1096 0 l  1053 0 l  p ef
1328 -42 m  1320 -25 1309 -13 1296 -6 ct 1283 1 1266 5 1247 5 ct 1214 5 1190 -6 1174 -28 ct 
1159 -51 1151 -84 1151 -129 ct 1151 -220 1183 -266 1247 -266 ct 1267 -266 1283 -262 1296 -255 ct 
1309 -248 1320 -236 1328 -221 ct 1329 -221 l  1328 -250 l  1328 -358 l  1371 -358 l 
1371 -54 l  1371 -26 1372 -9 1373 0 ct 1331 0 l  1331 -2 1330 -8 1330 -18 ct 
1329 -27 1329 -35 1329 -42 ct 1328 -42 l  p
1196 -131 m  1196 -94 1201 -68 1211 -52 ct 1220 -36 1236 -29 1258 -29 ct 1282 -29 1300 -37 1311 -54 ct 
1322 -71 1328 -98 1328 -134 ct 1328 -168 1322 -194 1311 -210 ct 1300 -226 1283 -234 1258 -234 ct 
1236 -234 1221 -226 1211 -210 ct 1201 -193 1196 -167 1196 -131 ct p ef
1659 -131 m  1659 -85 1649 -51 1629 -29 ct 1609 -6 1580 5 1541 5 ct 1503 5 1474 -7 1455 -30 ct 
1435 -53 1426 -87 1426 -131 ct 1426 -221 1465 -266 1543 -266 ct 1583 -266 1612 -255 1631 -233 ct 
1650 -211 1659 -177 1659 -131 ct p
1613 -131 m  1613 -167 1608 -193 1597 -209 ct 1587 -226 1569 -234 1543 -234 ct 
1518 -234 1500 -226 1488 -209 ct 1477 -192 1471 -166 1471 -131 ct 1471 -96 1477 -70 1488 -53 ct 
1499 -36 1517 -27 1541 -27 ct 1567 -27 1585 -35 1597 -52 ct 1608 -69 1613 -95 1613 -131 ct 
p ef
2018 -42 m  2010 -25 1999 -13 1986 -6 ct 1973 1 1956 5 1937 5 ct 1904 5 1880 -6 1864 -28 ct 
1849 -51 1841 -84 1841 -129 ct 1841 -220 1873 -266 1937 -266 ct 1957 -266 1973 -262 1986 -255 ct 
1999 -248 2010 -236 2018 -221 ct 2019 -221 l  2018 -250 l  2018 -358 l  2061 -358 l 
2061 -54 l  2061 -26 2062 -9 2063 0 ct 2021 0 l  2021 -2 2020 -8 2020 -18 ct 
2019 -27 2019 -35 2019 -42 ct 2018 -42 l  p
1886 -131 m  1886 -94 1891 -68 1901 -52 ct 1910 -36 1926 -29 1948 -29 ct 1972 -29 1990 -37 2001 -54 ct 
2012 -71 2018 -98 2018 -134 ct 2018 -168 2012 -194 2001 -210 ct 1990 -226 1973 -234 1948 -234 ct 
1926 -234 1911 -226 1901 -210 ct 1891 -193 1886 -167 1886 -131 ct p ef
2349 -131 m  2349 -85 2339 -51 2319 -29 ct 2299 -6 2270 5 2231 5 ct 2193 5 2164 -7 2145 -30 ct 
2125 -53 2116 -87 2116 -131 ct 2116 -221 2155 -266 2233 -266 ct 2273 -266 2302 -255 2321 -233 ct 
2340 -211 2349 -177 2349 -131 ct p
2303 -131 m  2303 -167 2298 -193 2287 -209 ct 2277 -226 2259 -234 2233 -234 ct 
2208 -234 2190 -226 2178 -209 ct 2167 -192 2161 -166 2161 -131 ct 2161 -96 2167 -70 2178 -53 ct 
2189 -36 2207 -27 2231 -27 ct 2257 -27 2275 -35 2287 -52 ct 2298 -69 2303 -95 2303 -131 ct 
p ef
pom
pum
10786 15719 t
185 0 m  185 -166 l  185 -191 182 -208 175 -218 ct 168 -228 156 -232 137 -232 ct 
119 -232 104 -225 94 -211 ct 83 -197 77 -177 77 -151 ct 77 0 l  34 0 l  34 -205 l 
34 -236 34 -254 33 -261 ct 74 -261 l  74 -260 74 -258 74 -255 ct 74 -251 75 -247 75 -242 ct 
75 -238 75 -229 76 -217 ct 76 -217 l  86 -235 96 -248 109 -255 ct 121 -262 135 -266 153 -266 ct 
172 -266 188 -262 200 -254 ct 211 -246 219 -234 224 -217 ct 224 -217 l  233 -234 244 -247 257 -254 ct 
270 -262 285 -266 303 -266 ct 330 -266 349 -259 361 -245 ct 373 -230 379 -207 379 -174 ct 
379 0 l  336 0 l  336 -166 l  336 -191 333 -208 326 -218 ct 319 -228 306 -232 288 -232 ct 
269 -232 255 -225 244 -211 ct 233 -197 228 -177 228 -151 ct 228 0 l  185 0 l 
p ef
665 -131 m  665 -85 655 -51 635 -29 ct 615 -6 586 5 547 5 ct 509 5 480 -7 461 -30 ct 
441 -53 432 -87 432 -131 ct 432 -221 471 -266 549 -266 ct 589 -266 618 -255 637 -233 ct 
656 -211 665 -177 665 -131 ct p
619 -131 m  619 -167 614 -193 603 -209 ct 593 -226 575 -234 549 -234 ct 524 -234 506 -226 494 -209 ct 
483 -192 477 -166 477 -131 ct 477 -96 483 -70 494 -53 ct 505 -36 523 -27 547 -27 ct 
573 -27 591 -35 603 -52 ct 614 -69 619 -95 619 -131 ct p ef
834 0 m  782 0 l  688 -261 l  734 -261 l  791 -91 l  794 -85 799 -66 808 -34 ct 
817 -62 l  826 -91 l  885 -261 l  931 -261 l  834 0 l  p ef
969 -316 m  969 -358 l  1012 -358 l  1012 -316 l  969 -316 l  p
969 0 m  969 -261 l  1012 -261 l  1012 0 l  969 0 l  p ef
1231 0 m  1231 -166 l  1231 -191 1228 -208 1221 -218 ct 1214 -228 1202 -232 1183 -232 ct 
1165 -232 1150 -225 1140 -211 ct 1129 -197 1123 -177 1123 -151 ct 1123 0 l  1080 0 l 
1080 -205 l  1080 -236 1080 -254 1079 -261 ct 1120 -261 l  1120 -260 1120 -258 1120 -255 ct 
1120 -251 1121 -247 1121 -242 ct 1121 -238 1121 -229 1122 -217 ct 1122 -217 l 
1132 -235 1142 -248 1155 -255 ct 1167 -262 1181 -266 1199 -266 ct 1218 -266 1234 -262 1246 -254 ct 
1257 -246 1265 -234 1270 -217 ct 1270 -217 l  1279 -234 1290 -247 1303 -254 ct 
1316 -262 1331 -266 1349 -266 ct 1376 -266 1395 -259 1407 -245 ct 1419 -230 1425 -207 1425 -174 ct 
1425 0 l  1382 0 l  1382 -166 l  1382 -191 1379 -208 1372 -218 ct 1365 -228 1352 -232 1334 -232 ct 
1315 -232 1301 -225 1290 -211 ct 1279 -197 1274 -177 1274 -151 ct 1274 0 l  1231 0 l 
p ef
1523 -121 m  1523 -91 1529 -68 1541 -52 ct 1554 -36 1572 -28 1595 -28 ct 1614 -28 1629 -31 1641 -39 ct 
1652 -46 1660 -56 1664 -68 ct 1702 -57 l  1686 -16 1651 5 1595 5 ct 1557 5 1527 -7 1507 -30 ct 
1487 -53 1477 -87 1477 -132 ct 1477 -175 1487 -208 1507 -231 ct 1527 -254 1556 -266 1594 -266 ct 
1670 -266 1709 -220 1709 -127 ct 1709 -121 l  1523 -121 l  p
1664 -154 m  1662 -182 1655 -202 1643 -215 ct 1631 -228 1615 -234 1593 -234 ct 
1572 -234 1555 -227 1543 -213 ct 1531 -199 1524 -179 1523 -154 ct 1664 -154 l 
p ef
1930 0 m  1930 -166 l  1930 -183 1928 -196 1925 -206 ct 1922 -215 1916 -222 1909 -226 ct 
1901 -230 1891 -232 1876 -232 ct 1855 -232 1839 -225 1827 -211 ct 1815 -197 1809 -177 1809 -151 ct 
1809 0 l  1765 0 l  1765 -205 l  1765 -236 1765 -254 1764 -261 ct 1805 -261 l 
1805 -260 1805 -258 1805 -255 ct 1805 -251 1806 -247 1806 -242 ct 1806 -238 1806 -229 1807 -217 ct 
1807 -217 l  1817 -235 1829 -247 1842 -255 ct 1855 -262 1871 -266 1891 -266 ct 
1920 -266 1940 -259 1954 -245 ct 1967 -230 1974 -207 1974 -174 ct 1974 0 l  1930 0 l 
p ef
2140 -2 m  2125 2 2111 4 2096 4 ct 2061 4 2044 -16 2044 -55 ct 2044 -229 l  2013 -229 l 
2013 -261 l  2045 -261 l  2058 -320 l  2087 -320 l  2087 -261 l  2135 -261 l 
2135 -229 l  2087 -229 l  2087 -65 l  2087 -52 2089 -43 2093 -38 ct 2097 -33 2104 -31 2115 -31 ct 
2120 -31 2129 -32 2140 -34 ct 2140 -2 l  p ef
2399 -131 m  2399 -85 2389 -51 2369 -29 ct 2349 -6 2320 5 2281 5 ct 2243 5 2214 -7 2195 -30 ct 
2175 -53 2166 -87 2166 -131 ct 2166 -221 2205 -266 2283 -266 ct 2323 -266 2352 -255 2371 -233 ct 
2390 -211 2399 -177 2399 -131 ct p
2353 -131 m  2353 -167 2348 -193 2337 -209 ct 2327 -226 2309 -234 2283 -234 ct 
2258 -234 2240 -226 2228 -209 ct 2217 -192 2211 -166 2211 -131 ct 2211 -96 2217 -70 2228 -53 ct 
2239 -36 2257 -27 2281 -27 ct 2307 -27 2325 -35 2337 -52 ct 2348 -69 2353 -95 2353 -131 ct 
p ef
pom
0 4334 t 
pom
count op_count sub {pop} repeat countdictstack dict_count sub {end} repeat b4_inc_state restore
%%PageTrailer
%%Trailer
%%EOF
