%!PS-Adobe-3.0 EPSF-3.0 
%%BoundingBox: 0 0 722 598
%%Pages: 0
%%Creator: LibreOffice 5.4
%%Title: none
%%CreationDate: none
%%LanguageLevel: 2
%%EndComments
%%BeginProlog
%%BeginResource: procset SDRes-Prolog 1.0 0
/b4_inc_state save def
/dict_count countdictstack def
/op_count count 1 sub def
userdict begin
0 setgray 0 setlinecap 1 setlinewidth 0 setlinejoin 10 setmiterlimit[] 0 setdash newpath
/languagelevel where {pop languagelevel 1 ne {false setstrokeadjust false setoverprint} if} if
/bdef {bind def} bind def
/c {setgray} bdef
/l {neg lineto} bdef
/rl {neg rlineto} bdef
/lc {setlinecap} bdef
/lj {setlinejoin} bdef
/lw {setlinewidth} bdef
/ml {setmiterlimit} bdef
/ld {setdash} bdef
/m {neg moveto} bdef
/ct {6 2 roll neg 6 2 roll neg 6 2 roll neg curveto} bdef
/r {rotate} bdef
/t {neg translate} bdef
/s {scale} bdef
/sw {show} bdef
/gs {gsave} bdef
/gr {grestore} bdef
/f {findfont dup length dict begin
{1 index /FID ne {def} {pop pop} ifelse} forall /Encoding ISOLatin1Encoding def
currentdict end /NFont exch definefont pop /NFont findfont} bdef
/p {closepath} bdef
/sf {scalefont setfont} bdef
/ef {eofill}bdef
/pc {closepath stroke}bdef
/ps {stroke}bdef
/pum {matrix currentmatrix}bdef
/pom {setmatrix}bdef
/bs {/aString exch def /nXOfs exch def /nWidth exch def currentpoint nXOfs 0 rmoveto pum nWidth aString stringwidth pop div 1 scale aString show pom moveto} bdef
%%EndResource
%%EndProlog
%%BeginSetup
%%EndSetup
%%Page: 1 1
%%BeginPageSetup
%%EndPageSetup
pum
0.02836 0.02835 s 
0 -21091 t
/tm matrix currentmatrix def
tm setmatrix
-3747 -1000 t 
1 1 s 
gs
0 lw 1 lj 0.000 c 5010 4366 m  5357 4366 5623 4609 5623 4928 ct 5623 5247 5357 5491 5010 5491 ct 
4663 5491 4398 5247 4398 4928 ct 4398 4609 4663 4366 5010 4366 ct pc
gr
gs
0 lw 1 lj 0.000 c 4398 4366 m  4398 4366 l  pc
gr
gs
0 lw 1 lj 0.000 c 5624 5492 m  5624 5492 l  pc
gr
pum
4836 5092 t
0.000 c 48 0 m  48 -47 l  160 -47 l  160 -384 l  61 -314 l  61 -366 l  164 -438 l 
216 -438 l  216 -47 l  322 -47 l  322 0 l  48 0 l  p ef
pom
gs
0 lw 1 lj 10785 4885 m  11132 4885 11398 5128 11398 5447 ct 11398 5766 11132 6010 10785 6010 ct 
10438 6010 10173 5766 10173 5447 ct 10173 5128 10438 4885 10785 4885 ct pc
gr
gs
0 lw 1 lj 10173 4885 m  10173 4885 l  pc
gr
gs
0 lw 1 lj 11399 6011 m  11399 6011 l  pc
gr
pum
10611 5611 t
32 0 m  32 -39 l  42 -64 55 -85 71 -104 ct 86 -122 102 -139 118 -154 ct 135 -169 152 -183 168 -196 ct 
185 -208 199 -221 213 -234 ct 226 -247 237 -260 245 -274 ct 253 -289 257 -304 257 -322 ct 
257 -346 250 -365 236 -378 ct 222 -391 202 -398 177 -398 ct 154 -398 134 -392 119 -379 ct 
103 -366 94 -348 91 -324 ct 34 -329 l  39 -364 53 -392 79 -413 ct 104 -434 137 -444 177 -444 ct 
221 -444 255 -434 279 -413 ct 303 -392 314 -362 314 -324 ct 314 -307 311 -290 303 -274 ct 
295 -257 283 -240 268 -223 ct 253 -206 224 -180 180 -145 ct 157 -126 138 -108 124 -93 ct 
110 -77 100 -62 93 -47 ct 321 -47 l  321 0 l  32 0 l  p ef
pom
gs
0 lw 1 lj 7460 8260 m  7807 8260 8073 8504 8073 8822 ct 8073 9140 7807 9384 7460 9384 ct 
7113 9384 6848 9140 6848 8822 ct 6848 8504 7113 8260 7460 8260 ct pc
gr
gs
0 lw 1 lj 6848 8260 m  6848 8260 l  pc
gr
gs
0 lw 1 lj 8074 9385 m  8074 9385 l  pc
gr
pum
7286 8986 t
273 -99 m  273 0 l  220 0 l  220 -99 l  15 -99 l  15 -142 l  215 -438 l 
273 -438 l  273 -143 l  335 -143 l  335 -99 l  273 -99 l  p
220 -374 m  220 -373 217 -368 212 -358 ct 206 -348 202 -341 200 -338 ct 88 -172 l 
71 -149 l  66 -143 l  220 -143 l  220 -374 l  p ef
pom
gs
0 lw 1 lj 8335 1598 m  8682 1598 8948 1841 8948 2160 ct 8948 2479 8682 2723 8335 2723 ct 
7988 2723 7723 2479 7723 2160 ct 7723 1841 7988 1598 8335 1598 ct pc
gr
gs
0 lw 1 lj 7723 1598 m  7723 1598 l  pc
gr
gs
0 lw 1 lj 8949 2724 m  8949 2724 l  pc
gr
pum
8161 2324 t
325 -121 m  325 -81 312 -49 287 -27 ct 261 -5 225 6 177 6 ct 133 6 98 -4 71 -24 ct 
45 -44 29 -73 24 -113 ct 82 -118 l  89 -66 121 -40 177 -40 ct 205 -40 227 -47 243 -61 ct 
259 -75 267 -96 267 -123 ct 267 -147 258 -165 240 -179 ct 222 -192 195 -199 161 -199 ct 
129 -199 l  129 -247 l  159 -247 l  190 -247 214 -254 231 -267 ct 247 -280 256 -299 256 -322 ct 
256 -346 249 -364 235 -378 ct 221 -391 201 -398 174 -398 ct 149 -398 129 -392 114 -379 ct 
99 -367 90 -349 88 -326 ct 32 -330 l  36 -366 51 -394 76 -414 ct 102 -434 134 -444 175 -444 ct 
218 -444 252 -434 277 -413 ct 301 -393 313 -365 313 -328 ct 313 -300 305 -278 290 -260 ct 
274 -243 251 -231 222 -225 ct 222 -223 l  254 -220 280 -209 298 -191 ct 316 -172 325 -149 325 -121 ct 
p ef
pom
gs
0 lw 1 lj 11310 7568 m  11657 7568 11923 7812 11923 8130 ct 11923 8448 11657 8692 11310 8692 ct 
10963 8692 10698 8448 10698 8130 ct 10698 7812 10963 7568 11310 7568 ct pc
gr
gs
0 lw 1 lj 10698 7568 m  10698 7568 l  pc
gr
gs
0 lw 1 lj 11924 8693 m  11924 8693 l  pc
gr
pum
11136 8294 t
325 -143 m  325 -97 313 -61 288 -34 ct 263 -7 228 6 184 6 ct 135 6 97 -12 71 -49 ct 
45 -86 32 -139 32 -209 ct 32 -284 46 -343 73 -383 ct 100 -424 139 -444 189 -444 ct 
254 -444 296 -414 313 -355 ct 260 -345 l  249 -381 225 -399 188 -399 ct 156 -399 131 -384 114 -354 ct 
96 -324 88 -282 88 -225 ct 98 -244 112 -258 131 -268 ct 149 -278 170 -283 194 -283 ct 
234 -283 266 -270 290 -245 ct 313 -220 325 -186 325 -143 ct p
269 -141 m  269 -173 261 -197 245 -214 ct 230 -231 208 -240 180 -240 ct 154 -240 133 -232 117 -217 ct 
101 -202 93 -181 93 -154 ct 93 -120 102 -93 118 -71 ct 135 -50 156 -39 182 -39 ct 
209 -39 230 -48 246 -66 ct 261 -84 269 -109 269 -141 ct p ef
pom
gs
0 lw 1 lj 12360 1945 m  12707 1945 12973 2189 12973 2507 ct 12973 2825 12707 3069 12360 3069 ct 
12013 3069 11748 2825 11748 2507 ct 11748 2189 12013 1945 12360 1945 ct pc
gr
gs
0 lw 1 lj 11748 1945 m  11748 1945 l  pc
gr
gs
0 lw 1 lj 12974 3070 m  12974 3070 l  pc
gr
pum
12186 2671 t
326 -143 m  326 -96 313 -60 285 -34 ct 258 -7 220 6 171 6 ct 131 6 98 -3 73 -21 ct 
48 -38 32 -64 25 -98 ct 82 -104 l  94 -61 124 -40 173 -40 ct 203 -40 226 -49 243 -67 ct 
260 -85 269 -110 269 -141 ct 269 -169 260 -191 243 -208 ct 226 -225 203 -233 174 -233 ct 
159 -233 145 -231 132 -226 ct 119 -221 106 -213 93 -202 ct 38 -202 l  53 -437 l 
301 -437 l  301 -390 l  104 -390 l  95 -251 l  119 -270 149 -279 185 -279 ct 
228 -279 263 -266 288 -241 ct 314 -216 326 -183 326 -143 ct p ef
pom
gs
0 lw 1 lj [ 26.94999 457 ] 0 ld
5445 4531 m  7903 2560 l  ps
gr
gs
0 lw 1 lj [ 26.94999 457 ] 0 ld
5445 5328 m  7028 8424 l  ps
gr
gs
0 lw 1 lj [ 26.94999 457 ] 0 ld
5624 4930 m  11928 2905 l  ps
gr
gs
0 lw 1 lj [ 26.94999 457 ] 0 ld
8949 2162 m  11749 2507 l  ps
gr
gs
0 lw 1 lj [ 26.94999 457 ] 0 ld
8074 8822 m  10878 8528 l  ps
gr
gs
0 lw 1 lj [ 26.94999 457 ] 0 ld
11312 7568 m  10787 6011 l  ps
gr
gs
0 lw 1 lj [ 26.94999 457 ] 0 ld
10787 4886 m  12362 3069 l  ps
gr
gs
0 lw 1 lj [ 26.94999 457 ] 0 ld
11924 8130 m  12795 2905 l  ps
gr
pum
5828 7251 t
326 -143 m  326 -96 313 -60 285 -34 ct 258 -7 220 6 171 6 ct 131 6 98 -3 73 -21 ct 
48 -38 32 -64 25 -98 ct 82 -104 l  94 -61 124 -40 173 -40 ct 203 -40 226 -49 243 -67 ct 
260 -85 269 -110 269 -141 ct 269 -169 260 -191 243 -208 ct 226 -225 203 -233 174 -233 ct 
159 -233 145 -231 132 -226 ct 119 -221 106 -213 93 -202 ct 38 -202 l  53 -437 l 
301 -437 l  301 -390 l  104 -390 l  95 -251 l  119 -270 149 -279 185 -279 ct 
228 -279 263 -266 288 -241 ct 314 -216 326 -183 326 -143 ct p ef
pom
pum
9241 9327 t
273 -99 m  273 0 l  220 0 l  220 -99 l  15 -99 l  15 -142 l  215 -438 l 
273 -438 l  273 -143 l  335 -143 l  335 -99 l  273 -99 l  p
220 -374 m  220 -373 217 -368 212 -358 ct 206 -348 202 -341 200 -338 ct 88 -172 l 
71 -149 l  66 -143 l  220 -143 l  220 -374 l  p ef
pom
pum
8671 4570 t
48 0 m  48 -47 l  160 -47 l  160 -384 l  61 -314 l  61 -366 l  164 -438 l 
216 -438 l  216 -47 l  322 -47 l  322 0 l  48 0 l  p ef
677 -143 m  677 -96 664 -60 636 -34 ct 609 -7 571 6 522 6 ct 482 6 449 -3 424 -21 ct 
399 -38 383 -64 376 -98 ct 433 -104 l  445 -61 475 -40 524 -40 ct 554 -40 577 -49 594 -67 ct 
611 -85 620 -110 620 -141 ct 620 -169 611 -191 594 -208 ct 577 -225 554 -233 525 -233 ct 
510 -233 496 -231 483 -226 ct 470 -221 457 -213 444 -202 ct 389 -202 l  404 -437 l 
652 -437 l  652 -390 l  455 -390 l  446 -251 l  470 -270 500 -279 536 -279 ct 
579 -279 614 -266 639 -241 ct 665 -216 677 -183 677 -143 ct p ef
pom
pum
6221 3445 t
48 0 m  48 -47 l  160 -47 l  160 -384 l  61 -314 l  61 -366 l  164 -438 l 
216 -438 l  216 -47 l  322 -47 l  322 0 l  48 0 l  p ef
672 -392 m  628 -324 596 -270 578 -232 ct 559 -193 545 -155 536 -117 ct 527 -79 522 -40 522 0 ct 
464 0 l  464 -56 476 -115 500 -177 ct 523 -238 563 -309 618 -390 ct 384 -390 l 
384 -437 l  672 -437 l  672 -392 l  p ef
pom
pum
12696 5608 t
32 0 m  32 -39 l  42 -64 55 -85 71 -104 ct 86 -122 102 -139 118 -154 ct 135 -169 152 -183 168 -196 ct 
185 -208 199 -221 213 -234 ct 226 -247 237 -260 245 -274 ct 253 -289 257 -304 257 -322 ct 
257 -346 250 -365 236 -378 ct 222 -391 202 -398 177 -398 ct 154 -398 134 -392 119 -379 ct 
103 -366 94 -348 91 -324 ct 34 -329 l  39 -364 53 -392 79 -413 ct 104 -434 137 -444 177 -444 ct 
221 -444 255 -434 279 -413 ct 303 -392 314 -362 314 -324 ct 314 -307 311 -290 303 -274 ct 
295 -257 283 -240 268 -223 ct 253 -206 224 -180 180 -145 ct 157 -126 138 -108 124 -93 ct 
110 -77 100 -62 93 -47 ct 321 -47 l  321 0 l  32 0 l  p ef
399 0 m  399 -47 l  511 -47 l  511 -384 l  412 -314 l  412 -366 l  515 -438 l 
567 -438 l  567 -47 l  673 -47 l  673 0 l  399 0 l  p ef
pom
pum
11691 4657 t
321 -392 m  277 -324 245 -270 227 -232 ct 208 -193 194 -155 185 -117 ct 176 -79 171 -40 171 0 ct 
113 0 l  113 -56 125 -115 149 -177 ct 172 -238 212 -309 267 -390 ct 33 -390 l 
33 -437 l  321 -437 l  321 -392 l  p ef
pom
pum
10204 2359 t
32 0 m  32 -39 l  42 -64 55 -85 71 -104 ct 86 -122 102 -139 118 -154 ct 135 -169 152 -183 168 -196 ct 
185 -208 199 -221 213 -234 ct 226 -247 237 -260 245 -274 ct 253 -289 257 -304 257 -322 ct 
257 -346 250 -365 236 -378 ct 222 -391 202 -398 177 -398 ct 154 -398 134 -392 119 -379 ct 
103 -366 94 -348 91 -324 ct 34 -329 l  39 -364 53 -392 79 -413 ct 104 -434 137 -444 177 -444 ct 
221 -444 255 -434 279 -413 ct 303 -392 314 -362 314 -324 ct 314 -307 311 -290 303 -274 ct 
295 -257 283 -240 268 -223 ct 253 -206 224 -180 180 -145 ct 157 -126 138 -108 124 -93 ct 
110 -77 100 -62 93 -47 ct 321 -47 l  321 0 l  32 0 l  p ef
pom
pum
10687 7030 t
325 -121 m  325 -81 312 -49 287 -27 ct 261 -5 225 6 177 6 ct 133 6 98 -4 71 -24 ct 
45 -44 29 -73 24 -113 ct 82 -118 l  89 -66 121 -40 177 -40 ct 205 -40 227 -47 243 -61 ct 
259 -75 267 -96 267 -123 ct 267 -147 258 -165 240 -179 ct 222 -192 195 -199 161 -199 ct 
129 -199 l  129 -247 l  159 -247 l  190 -247 214 -254 231 -267 ct 247 -280 256 -299 256 -322 ct 
256 -346 249 -364 235 -378 ct 221 -391 201 -398 174 -398 ct 149 -398 129 -392 114 -379 ct 
99 -367 90 -349 88 -326 ct 32 -330 l  36 -366 51 -394 76 -414 ct 102 -434 134 -444 175 -444 ct 
218 -444 252 -434 277 -413 ct 301 -393 313 -365 313 -328 ct 313 -300 305 -278 290 -260 ct 
274 -243 251 -231 222 -225 ct 222 -223 l  254 -220 280 -209 298 -191 ct 316 -172 325 -149 325 -121 ct 
p ef
pom
pum
3997 4638 t
328 -219 m  328 -146 315 -90 290 -52 ct 264 -13 226 6 176 6 ct 126 6 88 -13 63 -51 ct 
37 -90 25 -146 25 -219 ct 25 -294 37 -350 62 -388 ct 86 -425 125 -444 178 -444 ct 
229 -444 267 -425 292 -387 ct 316 -349 328 -293 328 -219 ct p
272 -219 m  272 -282 264 -328 250 -356 ct 235 -385 211 -399 178 -399 ct 143 -399 119 -385 104 -357 ct 
89 -329 81 -283 81 -219 ct 81 -157 89 -112 104 -83 ct 119 -54 143 -40 176 -40 ct 
209 -40 233 -54 249 -84 ct 264 -113 272 -158 272 -219 ct p ef
pom
pum
11592 9279 t
615 -264 m  615 -215 601 -173 575 -140 ct 548 -107 515 -91 476 -91 ct 415 -91 365 -133 326 -217 ct 
305 -177 282 -147 257 -126 ct 231 -104 205 -94 179 -94 ct 138 -94 104 -109 78 -141 ct 
52 -172 39 -214 39 -267 ct 39 -318 52 -360 79 -392 ct 105 -424 139 -440 179 -440 ct 
239 -440 288 -398 326 -313 ct 346 -352 368 -383 394 -405 ct 420 -427 447 -438 476 -438 ct 
518 -438 552 -422 577 -390 ct 602 -358 615 -316 615 -264 ct p
466 -379 m  445 -379 425 -369 408 -351 ct 390 -332 373 -303 356 -264 ct 371 -226 388 -197 405 -178 ct 
423 -159 444 -150 467 -150 ct 491 -150 512 -160 528 -182 ct 544 -204 553 -231 553 -265 ct 
553 -297 544 -324 528 -346 ct 512 -368 491 -379 466 -379 ct p
297 -267 m  282 -305 266 -334 248 -353 ct 230 -372 210 -382 186 -382 ct 161 -382 141 -371 125 -349 ct 
109 -327 102 -299 102 -266 ct 102 -233 109 -205 125 -184 ct 140 -163 161 -152 187 -152 ct 
208 -152 227 -162 245 -180 ct 263 -199 281 -228 297 -267 ct p ef
pom
pum
7392 9994 t
615 -264 m  615 -215 601 -173 575 -140 ct 548 -107 515 -91 476 -91 ct 415 -91 365 -133 326 -217 ct 
305 -177 282 -147 257 -126 ct 231 -104 205 -94 179 -94 ct 138 -94 104 -109 78 -141 ct 
52 -172 39 -214 39 -267 ct 39 -318 52 -360 79 -392 ct 105 -424 139 -440 179 -440 ct 
239 -440 288 -398 326 -313 ct 346 -352 368 -383 394 -405 ct 420 -427 447 -438 476 -438 ct 
518 -438 552 -422 577 -390 ct 602 -358 615 -316 615 -264 ct p
466 -379 m  445 -379 425 -369 408 -351 ct 390 -332 373 -303 356 -264 ct 371 -226 388 -197 405 -178 ct 
423 -159 444 -150 467 -150 ct 491 -150 512 -160 528 -182 ct 544 -204 553 -231 553 -265 ct 
553 -297 544 -324 528 -346 ct 512 -368 491 -379 466 -379 ct p
297 -267 m  282 -305 266 -334 248 -353 ct 230 -372 210 -382 186 -382 ct 161 -382 141 -371 125 -349 ct 
109 -327 102 -299 102 -266 ct 102 -233 109 -205 125 -184 ct 140 -163 161 -152 187 -152 ct 
208 -152 227 -162 245 -180 ct 263 -199 281 -228 297 -267 ct p ef
pom
pum
9450 6094 t
615 -264 m  615 -215 601 -173 575 -140 ct 548 -107 515 -91 476 -91 ct 415 -91 365 -133 326 -217 ct 
305 -177 282 -147 257 -126 ct 231 -104 205 -94 179 -94 ct 138 -94 104 -109 78 -141 ct 
52 -172 39 -214 39 -267 ct 39 -318 52 -360 79 -392 ct 105 -424 139 -440 179 -440 ct 
239 -440 288 -398 326 -313 ct 346 -352 368 -383 394 -405 ct 420 -427 447 -438 476 -438 ct 
518 -438 552 -422 577 -390 ct 602 -358 615 -316 615 -264 ct p
466 -379 m  445 -379 425 -369 408 -351 ct 390 -332 373 -303 356 -264 ct 371 -226 388 -197 405 -178 ct 
423 -159 444 -150 467 -150 ct 491 -150 512 -160 528 -182 ct 544 -204 553 -231 553 -265 ct 
553 -297 544 -324 528 -346 ct 512 -368 491 -379 466 -379 ct p
297 -267 m  282 -305 266 -334 248 -353 ct 230 -372 210 -382 186 -382 ct 161 -382 141 -371 125 -349 ct 
109 -327 102 -299 102 -266 ct 102 -233 109 -205 125 -184 ct 140 -163 161 -152 187 -152 ct 
208 -152 227 -162 245 -180 ct 263 -199 281 -228 297 -267 ct p ef
pom
pum
13091 2494 t
615 -264 m  615 -215 601 -173 575 -140 ct 548 -107 515 -91 476 -91 ct 415 -91 365 -133 326 -217 ct 
305 -177 282 -147 257 -126 ct 231 -104 205 -94 179 -94 ct 138 -94 104 -109 78 -141 ct 
52 -172 39 -214 39 -267 ct 39 -318 52 -360 79 -392 ct 105 -424 139 -440 179 -440 ct 
239 -440 288 -398 326 -313 ct 346 -352 368 -383 394 -405 ct 420 -427 447 -438 476 -438 ct 
518 -438 552 -422 577 -390 ct 602 -358 615 -316 615 -264 ct p
466 -379 m  445 -379 425 -369 408 -351 ct 390 -332 373 -303 356 -264 ct 371 -226 388 -197 405 -178 ct 
423 -159 444 -150 467 -150 ct 491 -150 512 -160 528 -182 ct 544 -204 553 -231 553 -265 ct 
553 -297 544 -324 528 -346 ct 512 -368 491 -379 466 -379 ct p
297 -267 m  282 -305 266 -334 248 -353 ct 230 -372 210 -382 186 -382 ct 161 -382 141 -371 125 -349 ct 
109 -327 102 -299 102 -266 ct 102 -233 109 -205 125 -184 ct 140 -163 161 -152 187 -152 ct 
208 -152 227 -162 245 -180 ct 263 -199 281 -228 297 -267 ct p ef
pom
pum
7250 1794 t
615 -264 m  615 -215 601 -173 575 -140 ct 548 -107 515 -91 476 -91 ct 415 -91 365 -133 326 -217 ct 
305 -177 282 -147 257 -126 ct 231 -104 205 -94 179 -94 ct 138 -94 104 -109 78 -141 ct 
52 -172 39 -214 39 -267 ct 39 -318 52 -360 79 -392 ct 105 -424 139 -440 179 -440 ct 
239 -440 288 -398 326 -313 ct 346 -352 368 -383 394 -405 ct 420 -427 447 -438 476 -438 ct 
518 -438 552 -422 577 -390 ct 602 -358 615 -316 615 -264 ct p
466 -379 m  445 -379 425 -369 408 -351 ct 390 -332 373 -303 356 -264 ct 371 -226 388 -197 405 -178 ct 
423 -159 444 -150 467 -150 ct 491 -150 512 -160 528 -182 ct 544 -204 553 -231 553 -265 ct 
553 -297 544 -324 528 -346 ct 512 -368 491 -379 466 -379 ct p
297 -267 m  282 -305 266 -334 248 -353 ct 230 -372 210 -382 186 -382 ct 161 -382 141 -371 125 -349 ct 
109 -327 102 -299 102 -266 ct 102 -233 109 -205 125 -184 ct 140 -163 161 -152 187 -152 ct 
208 -152 227 -162 245 -180 ct 263 -199 281 -228 297 -267 ct p ef
pom
gs
249.98916 lw 1 lj 18111 4367 m  18458 4367 18724 4610 18724 4929 ct 18724 5248 18458 5492 18111 5492 ct 
17764 5492 17499 5248 17499 4929 ct 17499 4610 17764 4367 18111 4367 ct pc
gr
gs
249.98916 lw 1 lj 17499 4367 m  17499 4367 l  pc
gr
gs
249.98916 lw 1 lj 18725 5493 m  18725 5493 l  pc
gr
pum
17936 5093 t
48 0 m  48 -47 l  160 -47 l  160 -384 l  61 -314 l  61 -366 l  164 -438 l 
216 -438 l  216 -47 l  322 -47 l  322 0 l  48 0 l  p ef
pom
gs
0 lw 1 lj 23886 4886 m  24233 4886 24499 5129 24499 5448 ct 24499 5767 24233 6011 23886 6011 ct 
23539 6011 23274 5767 23274 5448 ct 23274 5129 23539 4886 23886 4886 ct pc
gr
gs
0 lw 1 lj 23274 4886 m  23274 4886 l  pc
gr
gs
0 lw 1 lj 24500 6012 m  24500 6012 l  pc
gr
pum
23711 5612 t
32 0 m  32 -39 l  42 -64 55 -85 71 -104 ct 86 -122 102 -139 118 -154 ct 135 -169 152 -183 168 -196 ct 
185 -208 199 -221 213 -234 ct 226 -247 237 -260 245 -274 ct 253 -289 257 -304 257 -322 ct 
257 -346 250 -365 236 -378 ct 222 -391 202 -398 177 -398 ct 154 -398 134 -392 119 -379 ct 
103 -366 94 -348 91 -324 ct 34 -329 l  39 -364 53 -392 79 -413 ct 104 -434 137 -444 177 -444 ct 
221 -444 255 -434 279 -413 ct 303 -392 314 -362 314 -324 ct 314 -307 311 -290 303 -274 ct 
295 -257 283 -240 268 -223 ct 253 -206 224 -180 180 -145 ct 157 -126 138 -108 124 -93 ct 
110 -77 100 -62 93 -47 ct 321 -47 l  321 0 l  32 0 l  p ef
pom
gs
0 lw 1 lj 20561 8261 m  20908 8261 21174 8505 21174 8823 ct 21174 9141 20908 9385 20561 9385 ct 
20214 9385 19949 9141 19949 8823 ct 19949 8505 20214 8261 20561 8261 ct pc
gr
gs
0 lw 1 lj 19949 8261 m  19949 8261 l  pc
gr
gs
0 lw 1 lj 21175 9386 m  21175 9386 l  pc
gr
pum
20386 8987 t
273 -99 m  273 0 l  220 0 l  220 -99 l  15 -99 l  15 -142 l  215 -438 l 
273 -438 l  273 -143 l  335 -143 l  335 -99 l  273 -99 l  p
220 -374 m  220 -373 217 -368 212 -358 ct 206 -348 202 -341 200 -338 ct 88 -172 l 
71 -149 l  66 -143 l  220 -143 l  220 -374 l  p ef
pom
gs
0 lw 1 lj 21436 1599 m  21783 1599 22049 1842 22049 2161 ct 22049 2480 21783 2724 21436 2724 ct 
21089 2724 20824 2480 20824 2161 ct 20824 1842 21089 1599 21436 1599 ct pc
gr
gs
0 lw 1 lj 20824 1599 m  20824 1599 l  pc
gr
gs
0 lw 1 lj 22050 2725 m  22050 2725 l  pc
gr
pum
21261 2325 t
325 -121 m  325 -81 312 -49 287 -27 ct 261 -5 225 6 177 6 ct 133 6 98 -4 71 -24 ct 
45 -44 29 -73 24 -113 ct 82 -118 l  89 -66 121 -40 177 -40 ct 205 -40 227 -47 243 -61 ct 
259 -75 267 -96 267 -123 ct 267 -147 258 -165 240 -179 ct 222 -192 195 -199 161 -199 ct 
129 -199 l  129 -247 l  159 -247 l  190 -247 214 -254 231 -267 ct 247 -280 256 -299 256 -322 ct 
256 -346 249 -364 235 -378 ct 221 -391 201 -398 174 -398 ct 149 -398 129 -392 114 -379 ct 
99 -367 90 -349 88 -326 ct 32 -330 l  36 -366 51 -394 76 -414 ct 102 -434 134 -444 175 -444 ct 
218 -444 252 -434 277 -413 ct 301 -393 313 -365 313 -328 ct 313 -300 305 -278 290 -260 ct 
274 -243 251 -231 222 -225 ct 222 -223 l  254 -220 280 -209 298 -191 ct 316 -172 325 -149 325 -121 ct 
p ef
pom
gs
0 lw 1 lj 24411 7569 m  24758 7569 25024 7813 25024 8131 ct 25024 8449 24758 8693 24411 8693 ct 
24064 8693 23799 8449 23799 8131 ct 23799 7813 24064 7569 24411 7569 ct pc
gr
gs
0 lw 1 lj 23799 7569 m  23799 7569 l  pc
gr
gs
0 lw 1 lj 25025 8694 m  25025 8694 l  pc
gr
pum
24236 8295 t
325 -143 m  325 -97 313 -61 288 -34 ct 263 -7 228 6 184 6 ct 135 6 97 -12 71 -49 ct 
45 -86 32 -139 32 -209 ct 32 -284 46 -343 73 -383 ct 100 -424 139 -444 189 -444 ct 
254 -444 296 -414 313 -355 ct 260 -345 l  249 -381 225 -399 188 -399 ct 156 -399 131 -384 114 -354 ct 
96 -324 88 -282 88 -225 ct 98 -244 112 -258 131 -268 ct 149 -278 170 -283 194 -283 ct 
234 -283 266 -270 290 -245 ct 313 -220 325 -186 325 -143 ct p
269 -141 m  269 -173 261 -197 245 -214 ct 230 -231 208 -240 180 -240 ct 154 -240 133 -232 117 -217 ct 
101 -202 93 -181 93 -154 ct 93 -120 102 -93 118 -71 ct 135 -50 156 -39 182 -39 ct 
209 -39 230 -48 246 -66 ct 261 -84 269 -109 269 -141 ct p ef
pom
gs
0 lw 1 lj 25460 1946 m  25807 1946 26073 2190 26073 2508 ct 26073 2826 25807 3070 25460 3070 ct 
25114 3070 24849 2826 24849 2508 ct 24849 2190 25114 1946 25460 1946 ct pc
gr
gs
0 lw 1 lj 24849 1946 m  24849 1946 l  pc
gr
gs
0 lw 1 lj 26074 3071 m  26074 3071 l  pc
gr
pum
25286 2672 t
326 -143 m  326 -96 313 -60 285 -34 ct 258 -7 220 6 171 6 ct 131 6 98 -3 73 -21 ct 
48 -38 32 -64 25 -98 ct 82 -104 l  94 -61 124 -40 173 -40 ct 203 -40 226 -49 243 -67 ct 
260 -85 269 -110 269 -141 ct 269 -169 260 -191 243 -208 ct 226 -225 203 -233 174 -233 ct 
159 -233 145 -231 132 -226 ct 119 -221 106 -213 93 -202 ct 38 -202 l  53 -437 l 
301 -437 l  301 -390 l  104 -390 l  95 -251 l  119 -270 149 -279 185 -279 ct 
228 -279 263 -266 288 -241 ct 314 -216 326 -183 326 -143 ct p ef
pom
gs
0 lw 1 lj 18546 4532 m  21004 2561 l  ps
gr
gs
0 lw 1 lj 18546 5329 m  20129 8425 l  ps
gr
gs
0 lw 1 lj 18725 4931 m  25029 2906 l  ps
gr
gs
0 lw 1 lj [ 26.94999 457 ] 0 ld
22050 2163 m  24850 2508 l  ps
gr
gs
0 lw 1 lj [ 26.94999 457 ] 0 ld
21175 8823 m  23979 8529 l  ps
gr
gs
0 lw 1 lj [ 26.94999 457 ] 0 ld
24413 7569 m  23888 6012 l  ps
gr
gs
0 lw 1 lj [ 26.94999 457 ] 0 ld
23888 4887 m  25462 3070 l  ps
gr
gs
0 lw 1 lj [ 26.94999 457 ] 0 ld
25025 8131 m  25895 2906 l  ps
gr
pum
18928 7252 t
326 -143 m  326 -96 313 -60 285 -34 ct 258 -7 220 6 171 6 ct 131 6 98 -3 73 -21 ct 
48 -38 32 -64 25 -98 ct 82 -104 l  94 -61 124 -40 173 -40 ct 203 -40 226 -49 243 -67 ct 
260 -85 269 -110 269 -141 ct 269 -169 260 -191 243 -208 ct 226 -225 203 -233 174 -233 ct 
159 -233 145 -231 132 -226 ct 119 -221 106 -213 93 -202 ct 38 -202 l  53 -437 l 
301 -437 l  301 -390 l  104 -390 l  95 -251 l  119 -270 149 -279 185 -279 ct 
228 -279 263 -266 288 -241 ct 314 -216 326 -183 326 -143 ct p ef
pom
pum
22341 9328 t
273 -99 m  273 0 l  220 0 l  220 -99 l  15 -99 l  15 -142 l  215 -438 l 
273 -438 l  273 -143 l  335 -143 l  335 -99 l  273 -99 l  p
220 -374 m  220 -373 217 -368 212 -358 ct 206 -348 202 -341 200 -338 ct 88 -172 l 
71 -149 l  66 -143 l  220 -143 l  220 -374 l  p ef
pom
pum
21771 4571 t
48 0 m  48 -47 l  160 -47 l  160 -384 l  61 -314 l  61 -366 l  164 -438 l 
216 -438 l  216 -47 l  322 -47 l  322 0 l  48 0 l  p ef
677 -143 m  677 -96 664 -60 636 -34 ct 609 -7 571 6 522 6 ct 482 6 449 -3 424 -21 ct 
399 -38 383 -64 376 -98 ct 433 -104 l  445 -61 475 -40 524 -40 ct 554 -40 577 -49 594 -67 ct 
611 -85 620 -110 620 -141 ct 620 -169 611 -191 594 -208 ct 577 -225 554 -233 525 -233 ct 
510 -233 496 -231 483 -226 ct 470 -221 457 -213 444 -202 ct 389 -202 l  404 -437 l 
652 -437 l  652 -390 l  455 -390 l  446 -251 l  470 -270 500 -279 536 -279 ct 
579 -279 614 -266 639 -241 ct 665 -216 677 -183 677 -143 ct p ef
pom
pum
19321 3446 t
48 0 m  48 -47 l  160 -47 l  160 -384 l  61 -314 l  61 -366 l  164 -438 l 
216 -438 l  216 -47 l  322 -47 l  322 0 l  48 0 l  p ef
672 -392 m  628 -324 596 -270 578 -232 ct 559 -193 545 -155 536 -117 ct 527 -79 522 -40 522 0 ct 
464 0 l  464 -56 476 -115 500 -177 ct 523 -238 563 -309 618 -390 ct 384 -390 l 
384 -437 l  672 -437 l  672 -392 l  p ef
pom
pum
25796 5609 t
32 0 m  32 -39 l  42 -64 55 -85 71 -104 ct 86 -122 102 -139 118 -154 ct 135 -169 152 -183 168 -196 ct 
185 -208 199 -221 213 -234 ct 226 -247 237 -260 245 -274 ct 253 -289 257 -304 257 -322 ct 
257 -346 250 -365 236 -378 ct 222 -391 202 -398 177 -398 ct 154 -398 134 -392 119 -379 ct 
103 -366 94 -348 91 -324 ct 34 -329 l  39 -364 53 -392 79 -413 ct 104 -434 137 -444 177 -444 ct 
221 -444 255 -434 279 -413 ct 303 -392 314 -362 314 -324 ct 314 -307 311 -290 303 -274 ct 
295 -257 283 -240 268 -223 ct 253 -206 224 -180 180 -145 ct 157 -126 138 -108 124 -93 ct 
110 -77 100 -62 93 -47 ct 321 -47 l  321 0 l  32 0 l  p ef
399 0 m  399 -47 l  511 -47 l  511 -384 l  412 -314 l  412 -366 l  515 -438 l 
567 -438 l  567 -47 l  673 -47 l  673 0 l  399 0 l  p ef
pom
pum
24791 4658 t
321 -392 m  277 -324 245 -270 227 -232 ct 208 -193 194 -155 185 -117 ct 176 -79 171 -40 171 0 ct 
113 0 l  113 -56 125 -115 149 -177 ct 172 -238 212 -309 267 -390 ct 33 -390 l 
33 -437 l  321 -437 l  321 -392 l  p ef
pom
pum
23304 2360 t
32 0 m  32 -39 l  42 -64 55 -85 71 -104 ct 86 -122 102 -139 118 -154 ct 135 -169 152 -183 168 -196 ct 
185 -208 199 -221 213 -234 ct 226 -247 237 -260 245 -274 ct 253 -289 257 -304 257 -322 ct 
257 -346 250 -365 236 -378 ct 222 -391 202 -398 177 -398 ct 154 -398 134 -392 119 -379 ct 
103 -366 94 -348 91 -324 ct 34 -329 l  39 -364 53 -392 79 -413 ct 104 -434 137 -444 177 -444 ct 
221 -444 255 -434 279 -413 ct 303 -392 314 -362 314 -324 ct 314 -307 311 -290 303 -274 ct 
295 -257 283 -240 268 -223 ct 253 -206 224 -180 180 -145 ct 157 -126 138 -108 124 -93 ct 
110 -77 100 -62 93 -47 ct 321 -47 l  321 0 l  32 0 l  p ef
pom
pum
23787 7031 t
325 -121 m  325 -81 312 -49 287 -27 ct 261 -5 225 6 177 6 ct 133 6 98 -4 71 -24 ct 
45 -44 29 -73 24 -113 ct 82 -118 l  89 -66 121 -40 177 -40 ct 205 -40 227 -47 243 -61 ct 
259 -75 267 -96 267 -123 ct 267 -147 258 -165 240 -179 ct 222 -192 195 -199 161 -199 ct 
129 -199 l  129 -247 l  159 -247 l  190 -247 214 -254 231 -267 ct 247 -280 256 -299 256 -322 ct 
256 -346 249 -364 235 -378 ct 221 -391 201 -398 174 -398 ct 149 -398 129 -392 114 -379 ct 
99 -367 90 -349 88 -326 ct 32 -330 l  36 -366 51 -394 76 -414 ct 102 -434 134 -444 175 -444 ct 
218 -444 252 -434 277 -413 ct 301 -393 313 -365 313 -328 ct 313 -300 305 -278 290 -260 ct 
274 -243 251 -231 222 -225 ct 222 -223 l  254 -220 280 -209 298 -191 ct 316 -172 325 -149 325 -121 ct 
p ef
pom
pum
17097 4639 t
328 -219 m  328 -146 315 -90 290 -52 ct 264 -13 226 6 176 6 ct 126 6 88 -13 63 -51 ct 
37 -90 25 -146 25 -219 ct 25 -294 37 -350 62 -388 ct 86 -425 125 -444 178 -444 ct 
229 -444 267 -425 292 -387 ct 316 -349 328 -293 328 -219 ct p
272 -219 m  272 -282 264 -328 250 -356 ct 235 -385 211 -399 178 -399 ct 143 -399 119 -385 104 -357 ct 
89 -329 81 -283 81 -219 ct 81 -157 89 -112 104 -83 ct 119 -54 143 -40 176 -40 ct 
209 -40 233 -54 249 -84 ct 264 -113 272 -158 272 -219 ct p ef
pom
pum
24692 9280 t
615 -264 m  615 -215 601 -173 575 -140 ct 548 -107 515 -91 476 -91 ct 415 -91 365 -133 326 -217 ct 
305 -177 282 -147 257 -126 ct 231 -104 205 -94 179 -94 ct 138 -94 104 -109 78 -141 ct 
52 -172 39 -214 39 -267 ct 39 -318 52 -360 79 -392 ct 105 -424 139 -440 179 -440 ct 
239 -440 288 -398 326 -313 ct 346 -352 368 -383 394 -405 ct 420 -427 447 -438 476 -438 ct 
518 -438 552 -422 577 -390 ct 602 -358 615 -316 615 -264 ct p
466 -379 m  445 -379 425 -369 408 -351 ct 390 -332 373 -303 356 -264 ct 371 -226 388 -197 405 -178 ct 
423 -159 444 -150 467 -150 ct 491 -150 512 -160 528 -182 ct 544 -204 553 -231 553 -265 ct 
553 -297 544 -324 528 -346 ct 512 -368 491 -379 466 -379 ct p
297 -267 m  282 -305 266 -334 248 -353 ct 230 -372 210 -382 186 -382 ct 161 -382 141 -371 125 -349 ct 
109 -327 102 -299 102 -266 ct 102 -233 109 -205 125 -184 ct 140 -163 161 -152 187 -152 ct 
208 -152 227 -162 245 -180 ct 263 -199 281 -228 297 -267 ct p ef
pom
pum
20492 10187 t
326 -143 m  326 -96 313 -60 285 -34 ct 258 -7 220 6 171 6 ct 131 6 98 -3 73 -21 ct 
48 -38 32 -64 25 -98 ct 82 -104 l  94 -61 124 -40 173 -40 ct 203 -40 226 -49 243 -67 ct 
260 -85 269 -110 269 -141 ct 269 -169 260 -191 243 -208 ct 226 -225 203 -233 174 -233 ct 
159 -233 145 -231 132 -226 ct 119 -221 106 -213 93 -202 ct 38 -202 l  53 -437 l 
301 -437 l  301 -390 l  104 -390 l  95 -251 l  119 -270 149 -279 185 -279 ct 
228 -279 263 -266 288 -241 ct 314 -216 326 -183 326 -143 ct p ef
pom
pum
22450 6095 t
615 -264 m  615 -215 601 -173 575 -140 ct 548 -107 515 -91 476 -91 ct 415 -91 365 -133 326 -217 ct 
305 -177 282 -147 257 -126 ct 231 -104 205 -94 179 -94 ct 138 -94 104 -109 78 -141 ct 
52 -172 39 -214 39 -267 ct 39 -318 52 -360 79 -392 ct 105 -424 139 -440 179 -440 ct 
239 -440 288 -398 326 -313 ct 346 -352 368 -383 394 -405 ct 420 -427 447 -438 476 -438 ct 
518 -438 552 -422 577 -390 ct 602 -358 615 -316 615 -264 ct p
466 -379 m  445 -379 425 -369 408 -351 ct 390 -332 373 -303 356 -264 ct 371 -226 388 -197 405 -178 ct 
423 -159 444 -150 467 -150 ct 491 -150 512 -160 528 -182 ct 544 -204 553 -231 553 -265 ct 
553 -297 544 -324 528 -346 ct 512 -368 491 -379 466 -379 ct p
297 -267 m  282 -305 266 -334 248 -353 ct 230 -372 210 -382 186 -382 ct 161 -382 141 -371 125 -349 ct 
109 -327 102 -299 102 -266 ct 102 -233 109 -205 125 -184 ct 140 -163 161 -152 187 -152 ct 
208 -152 227 -162 245 -180 ct 263 -199 281 -228 297 -267 ct p ef
pom
pum
26392 2287 t
48 0 m  48 -47 l  160 -47 l  160 -384 l  61 -314 l  61 -366 l  164 -438 l 
216 -438 l  216 -47 l  322 -47 l  322 0 l  48 0 l  p ef
677 -143 m  677 -96 664 -60 636 -34 ct 609 -7 571 6 522 6 ct 482 6 449 -3 424 -21 ct 
399 -38 383 -64 376 -98 ct 433 -104 l  445 -61 475 -40 524 -40 ct 554 -40 577 -49 594 -67 ct 
611 -85 620 -110 620 -141 ct 620 -169 611 -191 594 -208 ct 577 -225 554 -233 525 -233 ct 
510 -233 496 -231 483 -226 ct 470 -221 457 -213 444 -202 ct 389 -202 l  404 -437 l 
652 -437 l  652 -390 l  455 -390 l  446 -251 l  470 -270 500 -279 536 -279 ct 
579 -279 614 -266 639 -241 ct 665 -216 677 -183 677 -143 ct p ef
pom
pum
20350 1587 t
48 0 m  48 -47 l  160 -47 l  160 -384 l  61 -314 l  61 -366 l  164 -438 l 
216 -438 l  216 -47 l  322 -47 l  322 0 l  48 0 l  p ef
672 -392 m  628 -324 596 -270 578 -232 ct 559 -193 545 -155 536 -117 ct 527 -79 522 -40 522 0 ct 
464 0 l  464 -56 476 -115 500 -177 ct 523 -238 563 -309 618 -390 ct 384 -390 l 
384 -437 l  672 -437 l  672 -392 l  p ef
pom
gs
249.98916 lw 1 lj 5012 15268 m  5359 15268 5625 15511 5625 15830 ct 5625 16149 5359 16393 5012 16393 ct 
4665 16393 4400 16149 4400 15830 ct 4400 15511 4665 15268 5012 15268 ct pc
gr
gs
249.98916 lw 1 lj 4400 15268 m  4400 15268 l  pc
gr
gs
249.98916 lw 1 lj 5626 16394 m  5626 16394 l  pc
gr
pum
4838 15993 t
48 0 m  48 -47 l  160 -47 l  160 -384 l  61 -314 l  61 -366 l  164 -438 l 
216 -438 l  216 -47 l  322 -47 l  322 0 l  48 0 l  p ef
pom
gs
0 lw 1 lj 10787 15787 m  11134 15787 11400 16030 11400 16349 ct 11400 16668 11134 16912 10787 16912 ct 
10440 16912 10175 16668 10175 16349 ct 10175 16030 10440 15787 10787 15787 ct 
pc
gr
gs
0 lw 1 lj 10175 15787 m  10175 15787 l  pc
gr
gs
0 lw 1 lj 11401 16913 m  11401 16913 l  pc
gr
pum
10613 16512 t
32 0 m  32 -39 l  42 -64 55 -85 71 -104 ct 86 -122 102 -139 118 -154 ct 135 -169 152 -183 168 -196 ct 
185 -208 199 -221 213 -234 ct 226 -247 237 -260 245 -274 ct 253 -289 257 -304 257 -322 ct 
257 -346 250 -365 236 -378 ct 222 -391 202 -398 177 -398 ct 154 -398 134 -392 119 -379 ct 
103 -366 94 -348 91 -324 ct 34 -329 l  39 -364 53 -392 79 -413 ct 104 -434 137 -444 177 -444 ct 
221 -444 255 -434 279 -413 ct 303 -392 314 -362 314 -324 ct 314 -307 311 -290 303 -274 ct 
295 -257 283 -240 268 -223 ct 253 -206 224 -180 180 -145 ct 157 -126 138 -108 124 -93 ct 
110 -77 100 -62 93 -47 ct 321 -47 l  321 0 l  32 0 l  p ef
pom
gs
249.98916 lw 1 lj 7462 19162 m  7809 19162 8075 19406 8075 19724 ct 8075 20042 7809 20286 7462 20286 ct 
7115 20286 6850 20042 6850 19724 ct 6850 19406 7115 19162 7462 19162 ct pc
gr
gs
249.98916 lw 1 lj 6850 19162 m  6850 19162 l  pc
gr
gs
249.98916 lw 1 lj 8076 20287 m  8076 20287 l  pc
gr
pum
7288 19887 t
273 -99 m  273 0 l  220 0 l  220 -99 l  15 -99 l  15 -142 l  215 -438 l 
273 -438 l  273 -143 l  335 -143 l  335 -99 l  273 -99 l  p
220 -374 m  220 -373 217 -368 212 -358 ct 206 -348 202 -341 200 -338 ct 88 -172 l 
71 -149 l  66 -143 l  220 -143 l  220 -374 l  p ef
pom
gs
0 lw 1 lj 8337 12500 m  8684 12500 8950 12743 8950 13062 ct 8950 13381 8684 13625 8337 13625 ct 
7990 13625 7725 13381 7725 13062 ct 7725 12743 7990 12500 8337 12500 ct pc
gr
gs
0 lw 1 lj 7725 12500 m  7725 12500 l  pc
gr
gs
0 lw 1 lj 8951 13626 m  8951 13626 l  pc
gr
pum
8163 13225 t
325 -121 m  325 -81 312 -49 287 -27 ct 261 -5 225 6 177 6 ct 133 6 98 -4 71 -24 ct 
45 -44 29 -73 24 -113 ct 82 -118 l  89 -66 121 -40 177 -40 ct 205 -40 227 -47 243 -61 ct 
259 -75 267 -96 267 -123 ct 267 -147 258 -165 240 -179 ct 222 -192 195 -199 161 -199 ct 
129 -199 l  129 -247 l  159 -247 l  190 -247 214 -254 231 -267 ct 247 -280 256 -299 256 -322 ct 
256 -346 249 -364 235 -378 ct 221 -391 201 -398 174 -398 ct 149 -398 129 -392 114 -379 ct 
99 -367 90 -349 88 -326 ct 32 -330 l  36 -366 51 -394 76 -414 ct 102 -434 134 -444 175 -444 ct 
218 -444 252 -434 277 -413 ct 301 -393 313 -365 313 -328 ct 313 -300 305 -278 290 -260 ct 
274 -243 251 -231 222 -225 ct 222 -223 l  254 -220 280 -209 298 -191 ct 316 -172 325 -149 325 -121 ct 
p ef
pom
gs
0 lw 1 lj 11312 18470 m  11659 18470 11925 18714 11925 19032 ct 11925 19350 11659 19594 11312 19594 ct 
10965 19594 10700 19350 10700 19032 ct 10700 18714 10965 18470 11312 18470 ct 
pc
gr
gs
0 lw 1 lj 10700 18470 m  10700 18470 l  pc
gr
gs
0 lw 1 lj 11926 19595 m  11926 19595 l  pc
gr
pum
11138 19195 t
325 -143 m  325 -97 313 -61 288 -34 ct 263 -7 228 6 184 6 ct 135 6 97 -12 71 -49 ct 
45 -86 32 -139 32 -209 ct 32 -284 46 -343 73 -383 ct 100 -424 139 -444 189 -444 ct 
254 -444 296 -414 313 -355 ct 260 -345 l  249 -381 225 -399 188 -399 ct 156 -399 131 -384 114 -354 ct 
96 -324 88 -282 88 -225 ct 98 -244 112 -258 131 -268 ct 149 -278 170 -283 194 -283 ct 
234 -283 266 -270 290 -245 ct 313 -220 325 -186 325 -143 ct p
269 -141 m  269 -173 261 -197 245 -214 ct 230 -231 208 -240 180 -240 ct 154 -240 133 -232 117 -217 ct 
101 -202 93 -181 93 -154 ct 93 -120 102 -93 118 -71 ct 135 -50 156 -39 182 -39 ct 
209 -39 230 -48 246 -66 ct 261 -84 269 -109 269 -141 ct p ef
pom
gs
0 lw 1 lj 12362 12847 m  12709 12847 12975 13091 12975 13409 ct 12975 13727 12709 13971 12362 13971 ct 
12015 13971 11750 13727 11750 13409 ct 11750 13091 12015 12847 12362 12847 ct 
pc
gr
gs
0 lw 1 lj 11750 12847 m  11750 12847 l  pc
gr
gs
0 lw 1 lj 12976 13972 m  12976 13972 l  pc
gr
pum
12188 13572 t
326 -143 m  326 -96 313 -60 285 -34 ct 258 -7 220 6 171 6 ct 131 6 98 -3 73 -21 ct 
48 -38 32 -64 25 -98 ct 82 -104 l  94 -61 124 -40 173 -40 ct 203 -40 226 -49 243 -67 ct 
260 -85 269 -110 269 -141 ct 269 -169 260 -191 243 -208 ct 226 -225 203 -233 174 -233 ct 
159 -233 145 -231 132 -226 ct 119 -221 106 -213 93 -202 ct 38 -202 l  53 -437 l 
301 -437 l  301 -390 l  104 -390 l  95 -251 l  119 -270 149 -279 185 -279 ct 
228 -279 263 -266 288 -241 ct 314 -216 326 -183 326 -143 ct p ef
pom
gs
0 lw 1 lj 5447 15433 m  7905 13462 l  ps
gr
gs
0 lw 1 lj 5447 16230 m  7030 19326 l  ps
gr
gs
0 lw 1 lj 5626 15832 m  11930 13807 l  ps
gr
gs
0 lw 1 lj [ 26.94999 457 ] 0 ld
8951 13064 m  11751 13409 l  ps
gr
gs
0 lw 1 lj 8076 19724 m  10880 19430 l  ps
gr
gs
0 lw 1 lj [ 26.94999 457 ] 0 ld
11314 18470 m  10789 16913 l  ps
gr
gs
0 lw 1 lj [ 26.94999 457 ] 0 ld
10789 15788 m  12364 13971 l  ps
gr
gs
0 lw 1 lj [ 26.94999 457 ] 0 ld
11926 19032 m  12797 13807 l  ps
gr
pum
5830 18152 t
326 -143 m  326 -96 313 -60 285 -34 ct 258 -7 220 6 171 6 ct 131 6 98 -3 73 -21 ct 
48 -38 32 -64 25 -98 ct 82 -104 l  94 -61 124 -40 173 -40 ct 203 -40 226 -49 243 -67 ct 
260 -85 269 -110 269 -141 ct 269 -169 260 -191 243 -208 ct 226 -225 203 -233 174 -233 ct 
159 -233 145 -231 132 -226 ct 119 -221 106 -213 93 -202 ct 38 -202 l  53 -437 l 
301 -437 l  301 -390 l  104 -390 l  95 -251 l  119 -270 149 -279 185 -279 ct 
228 -279 263 -266 288 -241 ct 314 -216 326 -183 326 -143 ct p ef
pom
pum
9243 20228 t
273 -99 m  273 0 l  220 0 l  220 -99 l  15 -99 l  15 -142 l  215 -438 l 
273 -438 l  273 -143 l  335 -143 l  335 -99 l  273 -99 l  p
220 -374 m  220 -373 217 -368 212 -358 ct 206 -348 202 -341 200 -338 ct 88 -172 l 
71 -149 l  66 -143 l  220 -143 l  220 -374 l  p ef
pom
pum
8673 15471 t
48 0 m  48 -47 l  160 -47 l  160 -384 l  61 -314 l  61 -366 l  164 -438 l 
216 -438 l  216 -47 l  322 -47 l  322 0 l  48 0 l  p ef
677 -143 m  677 -96 664 -60 636 -34 ct 609 -7 571 6 522 6 ct 482 6 449 -3 424 -21 ct 
399 -38 383 -64 376 -98 ct 433 -104 l  445 -61 475 -40 524 -40 ct 554 -40 577 -49 594 -67 ct 
611 -85 620 -110 620 -141 ct 620 -169 611 -191 594 -208 ct 577 -225 554 -233 525 -233 ct 
510 -233 496 -231 483 -226 ct 470 -221 457 -213 444 -202 ct 389 -202 l  404 -437 l 
652 -437 l  652 -390 l  455 -390 l  446 -251 l  470 -270 500 -279 536 -279 ct 
579 -279 614 -266 639 -241 ct 665 -216 677 -183 677 -143 ct p ef
pom
pum
6223 14346 t
48 0 m  48 -47 l  160 -47 l  160 -384 l  61 -314 l  61 -366 l  164 -438 l 
216 -438 l  216 -47 l  322 -47 l  322 0 l  48 0 l  p ef
672 -392 m  628 -324 596 -270 578 -232 ct 559 -193 545 -155 536 -117 ct 527 -79 522 -40 522 0 ct 
464 0 l  464 -56 476 -115 500 -177 ct 523 -238 563 -309 618 -390 ct 384 -390 l 
384 -437 l  672 -437 l  672 -392 l  p ef
pom
pum
12698 16509 t
32 0 m  32 -39 l  42 -64 55 -85 71 -104 ct 86 -122 102 -139 118 -154 ct 135 -169 152 -183 168 -196 ct 
185 -208 199 -221 213 -234 ct 226 -247 237 -260 245 -274 ct 253 -289 257 -304 257 -322 ct 
257 -346 250 -365 236 -378 ct 222 -391 202 -398 177 -398 ct 154 -398 134 -392 119 -379 ct 
103 -366 94 -348 91 -324 ct 34 -329 l  39 -364 53 -392 79 -413 ct 104 -434 137 -444 177 -444 ct 
221 -444 255 -434 279 -413 ct 303 -392 314 -362 314 -324 ct 314 -307 311 -290 303 -274 ct 
295 -257 283 -240 268 -223 ct 253 -206 224 -180 180 -145 ct 157 -126 138 -108 124 -93 ct 
110 -77 100 -62 93 -47 ct 321 -47 l  321 0 l  32 0 l  p ef
399 0 m  399 -47 l  511 -47 l  511 -384 l  412 -314 l  412 -366 l  515 -438 l 
567 -438 l  567 -47 l  673 -47 l  673 0 l  399 0 l  p ef
pom
pum
11693 15558 t
321 -392 m  277 -324 245 -270 227 -232 ct 208 -193 194 -155 185 -117 ct 176 -79 171 -40 171 0 ct 
113 0 l  113 -56 125 -115 149 -177 ct 172 -238 212 -309 267 -390 ct 33 -390 l 
33 -437 l  321 -437 l  321 -392 l  p ef
pom
pum
10206 13260 t
32 0 m  32 -39 l  42 -64 55 -85 71 -104 ct 86 -122 102 -139 118 -154 ct 135 -169 152 -183 168 -196 ct 
185 -208 199 -221 213 -234 ct 226 -247 237 -260 245 -274 ct 253 -289 257 -304 257 -322 ct 
257 -346 250 -365 236 -378 ct 222 -391 202 -398 177 -398 ct 154 -398 134 -392 119 -379 ct 
103 -366 94 -348 91 -324 ct 34 -329 l  39 -364 53 -392 79 -413 ct 104 -434 137 -444 177 -444 ct 
221 -444 255 -434 279 -413 ct 303 -392 314 -362 314 -324 ct 314 -307 311 -290 303 -274 ct 
295 -257 283 -240 268 -223 ct 253 -206 224 -180 180 -145 ct 157 -126 138 -108 124 -93 ct 
110 -77 100 -62 93 -47 ct 321 -47 l  321 0 l  32 0 l  p ef
pom
pum
10689 17931 t
325 -121 m  325 -81 312 -49 287 -27 ct 261 -5 225 6 177 6 ct 133 6 98 -4 71 -24 ct 
45 -44 29 -73 24 -113 ct 82 -118 l  89 -66 121 -40 177 -40 ct 205 -40 227 -47 243 -61 ct 
259 -75 267 -96 267 -123 ct 267 -147 258 -165 240 -179 ct 222 -192 195 -199 161 -199 ct 
129 -199 l  129 -247 l  159 -247 l  190 -247 214 -254 231 -267 ct 247 -280 256 -299 256 -322 ct 
256 -346 249 -364 235 -378 ct 221 -391 201 -398 174 -398 ct 149 -398 129 -392 114 -379 ct 
99 -367 90 -349 88 -326 ct 32 -330 l  36 -366 51 -394 76 -414 ct 102 -434 134 -444 175 -444 ct 
218 -444 252 -434 277 -413 ct 301 -393 313 -365 313 -328 ct 313 -300 305 -278 290 -260 ct 
274 -243 251 -231 222 -225 ct 222 -223 l  254 -220 280 -209 298 -191 ct 316 -172 325 -149 325 -121 ct 
p ef
pom
pum
3999 15539 t
328 -219 m  328 -146 315 -90 290 -52 ct 264 -13 226 6 176 6 ct 126 6 88 -13 63 -51 ct 
37 -90 25 -146 25 -219 ct 25 -294 37 -350 62 -388 ct 86 -425 125 -444 178 -444 ct 
229 -444 267 -425 292 -387 ct 316 -349 328 -293 328 -219 ct p
272 -219 m  272 -282 264 -328 250 -356 ct 235 -385 211 -399 178 -399 ct 143 -399 119 -385 104 -357 ct 
89 -329 81 -283 81 -219 ct 81 -157 89 -112 104 -83 ct 119 -54 143 -40 176 -40 ct 
209 -40 233 -54 249 -84 ct 264 -113 272 -158 272 -219 ct p ef
pom
pum
11594 20072 t
273 -99 m  273 0 l  220 0 l  220 -99 l  15 -99 l  15 -142 l  215 -438 l 
273 -438 l  273 -143 l  335 -143 l  335 -99 l  273 -99 l  p
220 -374 m  220 -373 217 -368 212 -358 ct 206 -348 202 -341 200 -338 ct 88 -172 l 
71 -149 l  66 -143 l  220 -143 l  220 -374 l  p ef
pom
pum
7394 21087 t
326 -143 m  326 -96 313 -60 285 -34 ct 258 -7 220 6 171 6 ct 131 6 98 -3 73 -21 ct 
48 -38 32 -64 25 -98 ct 82 -104 l  94 -61 124 -40 173 -40 ct 203 -40 226 -49 243 -67 ct 
260 -85 269 -110 269 -141 ct 269 -169 260 -191 243 -208 ct 226 -225 203 -233 174 -233 ct 
159 -233 145 -231 132 -226 ct 119 -221 106 -213 93 -202 ct 38 -202 l  53 -437 l 
301 -437 l  301 -390 l  104 -390 l  95 -251 l  119 -270 149 -279 185 -279 ct 
228 -279 263 -266 288 -241 ct 314 -216 326 -183 326 -143 ct p ef
pom
pum
9352 16995 t
615 -264 m  615 -215 601 -173 575 -140 ct 548 -107 515 -91 476 -91 ct 415 -91 365 -133 326 -217 ct 
305 -177 282 -147 257 -126 ct 231 -104 205 -94 179 -94 ct 138 -94 104 -109 78 -141 ct 
52 -172 39 -214 39 -267 ct 39 -318 52 -360 79 -392 ct 105 -424 139 -440 179 -440 ct 
239 -440 288 -398 326 -313 ct 346 -352 368 -383 394 -405 ct 420 -427 447 -438 476 -438 ct 
518 -438 552 -422 577 -390 ct 602 -358 615 -316 615 -264 ct p
466 -379 m  445 -379 425 -369 408 -351 ct 390 -332 373 -303 356 -264 ct 371 -226 388 -197 405 -178 ct 
423 -159 444 -150 467 -150 ct 491 -150 512 -160 528 -182 ct 544 -204 553 -231 553 -265 ct 
553 -297 544 -324 528 -346 ct 512 -368 491 -379 466 -379 ct p
297 -267 m  282 -305 266 -334 248 -353 ct 230 -372 210 -382 186 -382 ct 161 -382 141 -371 125 -349 ct 
109 -327 102 -299 102 -266 ct 102 -233 109 -205 125 -184 ct 140 -163 161 -152 187 -152 ct 
208 -152 227 -162 245 -180 ct 263 -199 281 -228 297 -267 ct p ef
pom
pum
13293 13187 t
48 0 m  48 -47 l  160 -47 l  160 -384 l  61 -314 l  61 -366 l  164 -438 l 
216 -438 l  216 -47 l  322 -47 l  322 0 l  48 0 l  p ef
677 -143 m  677 -96 664 -60 636 -34 ct 609 -7 571 6 522 6 ct 482 6 449 -3 424 -21 ct 
399 -38 383 -64 376 -98 ct 433 -104 l  445 -61 475 -40 524 -40 ct 554 -40 577 -49 594 -67 ct 
611 -85 620 -110 620 -141 ct 620 -169 611 -191 594 -208 ct 577 -225 554 -233 525 -233 ct 
510 -233 496 -231 483 -226 ct 470 -221 457 -213 444 -202 ct 389 -202 l  404 -437 l 
652 -437 l  652 -390 l  455 -390 l  446 -251 l  470 -270 500 -279 536 -279 ct 
579 -279 614 -266 639 -241 ct 665 -216 677 -183 677 -143 ct p ef
pom
pum
7252 12487 t
48 0 m  48 -47 l  160 -47 l  160 -384 l  61 -314 l  61 -366 l  164 -438 l 
216 -438 l  216 -47 l  322 -47 l  322 0 l  48 0 l  p ef
672 -392 m  628 -324 596 -270 578 -232 ct 559 -193 545 -155 536 -117 ct 527 -79 522 -40 522 0 ct 
464 0 l  464 -56 476 -115 500 -177 ct 523 -238 563 -309 618 -390 ct 384 -390 l 
384 -437 l  672 -437 l  672 -392 l  p ef
pom
gs
249.98916 lw 1 lj 18112 15268 m  18459 15268 18725 15511 18725 15830 ct 
18725 16149 18459 16393 18112 16393 ct 17765 16393 17500 16149 17500 15830 ct 
17500 15511 17765 15268 18112 15268 ct pc
gr
gs
249.98916 lw 1 lj 17500 15268 m  17500 15268 l  pc
gr
gs
249.98916 lw 1 lj 18726 16394 m  18726 16394 l  pc
gr
pum
17937 15993 t
48 0 m  48 -47 l  160 -47 l  160 -384 l  61 -314 l  61 -366 l  164 -438 l 
216 -438 l  216 -47 l  322 -47 l  322 0 l  48 0 l  p ef
pom
gs
0 lw 1 lj 23887 15787 m  24234 15787 24500 16030 24500 16349 ct 24500 16668 24234 16912 23887 16912 ct 
23540 16912 23275 16668 23275 16349 ct 23275 16030 23540 15787 23887 15787 ct 
pc
gr
gs
0 lw 1 lj 23275 15787 m  23275 15787 l  pc
gr
gs
0 lw 1 lj 24501 16913 m  24501 16913 l  pc
gr
pum
23712 16512 t
32 0 m  32 -39 l  42 -64 55 -85 71 -104 ct 86 -122 102 -139 118 -154 ct 135 -169 152 -183 168 -196 ct 
185 -208 199 -221 213 -234 ct 226 -247 237 -260 245 -274 ct 253 -289 257 -304 257 -322 ct 
257 -346 250 -365 236 -378 ct 222 -391 202 -398 177 -398 ct 154 -398 134 -392 119 -379 ct 
103 -366 94 -348 91 -324 ct 34 -329 l  39 -364 53 -392 79 -413 ct 104 -434 137 -444 177 -444 ct 
221 -444 255 -434 279 -413 ct 303 -392 314 -362 314 -324 ct 314 -307 311 -290 303 -274 ct 
295 -257 283 -240 268 -223 ct 253 -206 224 -180 180 -145 ct 157 -126 138 -108 124 -93 ct 
110 -77 100 -62 93 -47 ct 321 -47 l  321 0 l  32 0 l  p ef
pom
gs
249.98916 lw 1 lj 20562 19162 m  20909 19162 21175 19406 21175 19724 ct 
21175 20042 20909 20286 20562 20286 ct 20215 20286 19950 20042 19950 19724 ct 
19950 19406 20215 19162 20562 19162 ct pc
gr
gs
249.98916 lw 1 lj 19950 19162 m  19950 19162 l  pc
gr
gs
249.98916 lw 1 lj 21176 20287 m  21176 20287 l  pc
gr
pum
20387 19887 t
273 -99 m  273 0 l  220 0 l  220 -99 l  15 -99 l  15 -142 l  215 -438 l 
273 -438 l  273 -143 l  335 -143 l  335 -99 l  273 -99 l  p
220 -374 m  220 -373 217 -368 212 -358 ct 206 -348 202 -341 200 -338 ct 88 -172 l 
71 -149 l  66 -143 l  220 -143 l  220 -374 l  p ef
pom
gs
0 lw 1 lj 21437 12500 m  21784 12500 22050 12743 22050 13062 ct 22050 13381 21784 13625 21437 13625 ct 
21090 13625 20825 13381 20825 13062 ct 20825 12743 21090 12500 21437 12500 ct 
pc
gr
gs
0 lw 1 lj 20825 12500 m  20825 12500 l  pc
gr
gs
0 lw 1 lj 22051 13626 m  22051 13626 l  pc
gr
pum
21262 13225 t
325 -121 m  325 -81 312 -49 287 -27 ct 261 -5 225 6 177 6 ct 133 6 98 -4 71 -24 ct 
45 -44 29 -73 24 -113 ct 82 -118 l  89 -66 121 -40 177 -40 ct 205 -40 227 -47 243 -61 ct 
259 -75 267 -96 267 -123 ct 267 -147 258 -165 240 -179 ct 222 -192 195 -199 161 -199 ct 
129 -199 l  129 -247 l  159 -247 l  190 -247 214 -254 231 -267 ct 247 -280 256 -299 256 -322 ct 
256 -346 249 -364 235 -378 ct 221 -391 201 -398 174 -398 ct 149 -398 129 -392 114 -379 ct 
99 -367 90 -349 88 -326 ct 32 -330 l  36 -366 51 -394 76 -414 ct 102 -434 134 -444 175 -444 ct 
218 -444 252 -434 277 -413 ct 301 -393 313 -365 313 -328 ct 313 -300 305 -278 290 -260 ct 
274 -243 251 -231 222 -225 ct 222 -223 l  254 -220 280 -209 298 -191 ct 316 -172 325 -149 325 -121 ct 
p ef
pom
gs
249.98916 lw 1 lj 24412 18470 m  24759 18470 25025 18714 25025 19032 ct 
25025 19350 24759 19594 24412 19594 ct 24065 19594 23800 19350 23800 19032 ct 
23800 18714 24065 18470 24412 18470 ct pc
gr
gs
249.98916 lw 1 lj 23800 18470 m  23800 18470 l  pc
gr
gs
249.98916 lw 1 lj 25026 19595 m  25026 19595 l  pc
gr
pum
24237 19195 t
325 -143 m  325 -97 313 -61 288 -34 ct 263 -7 228 6 184 6 ct 135 6 97 -12 71 -49 ct 
45 -86 32 -139 32 -209 ct 32 -284 46 -343 73 -383 ct 100 -424 139 -444 189 -444 ct 
254 -444 296 -414 313 -355 ct 260 -345 l  249 -381 225 -399 188 -399 ct 156 -399 131 -384 114 -354 ct 
96 -324 88 -282 88 -225 ct 98 -244 112 -258 131 -268 ct 149 -278 170 -283 194 -283 ct 
234 -283 266 -270 290 -245 ct 313 -220 325 -186 325 -143 ct p
269 -141 m  269 -173 261 -197 245 -214 ct 230 -231 208 -240 180 -240 ct 154 -240 133 -232 117 -217 ct 
101 -202 93 -181 93 -154 ct 93 -120 102 -93 118 -71 ct 135 -50 156 -39 182 -39 ct 
209 -39 230 -48 246 -66 ct 261 -84 269 -109 269 -141 ct p ef
pom
gs
0 lw 1 lj 25461 12847 m  25808 12847 26074 13091 26074 13409 ct 26074 13727 25808 13971 25461 13971 ct 
25115 13971 24850 13727 24850 13409 ct 24850 13091 25115 12847 25461 12847 ct 
pc
gr
gs
0 lw 1 lj 24850 12847 m  24850 12847 l  pc
gr
gs
0 lw 1 lj 26075 13972 m  26075 13972 l  pc
gr
pum
25287 13572 t
326 -143 m  326 -96 313 -60 285 -34 ct 258 -7 220 6 171 6 ct 131 6 98 -3 73 -21 ct 
48 -38 32 -64 25 -98 ct 82 -104 l  94 -61 124 -40 173 -40 ct 203 -40 226 -49 243 -67 ct 
260 -85 269 -110 269 -141 ct 269 -169 260 -191 243 -208 ct 226 -225 203 -233 174 -233 ct 
159 -233 145 -231 132 -226 ct 119 -221 106 -213 93 -202 ct 38 -202 l  53 -437 l 
301 -437 l  301 -390 l  104 -390 l  95 -251 l  119 -270 149 -279 185 -279 ct 
228 -279 263 -266 288 -241 ct 314 -216 326 -183 326 -143 ct p ef
pom
gs
0 lw 1 lj 18547 15433 m  21005 13462 l  ps
gr
gs
0 lw 1 lj 18547 16230 m  20130 19326 l  ps
gr
gs
0 lw 1 lj 18726 15832 m  25030 13807 l  ps
gr
gs
0 lw 1 lj [ 26.94999 457 ] 0 ld
22051 13064 m  24851 13409 l  ps
gr
gs
0 lw 1 lj 21176 19724 m  23980 19430 l  ps
gr
gs
0 lw 1 lj 24414 18470 m  23889 16913 l  ps
gr
gs
0 lw 1 lj [ 26.94999 457 ] 0 ld
23889 15788 m  25463 13971 l  ps
gr
gs
0 lw 1 lj [ 26.94999 457 ] 0 ld
25026 19032 m  25896 13807 l  ps
gr
pum
18929 18152 t
326 -143 m  326 -96 313 -60 285 -34 ct 258 -7 220 6 171 6 ct 131 6 98 -3 73 -21 ct 
48 -38 32 -64 25 -98 ct 82 -104 l  94 -61 124 -40 173 -40 ct 203 -40 226 -49 243 -67 ct 
260 -85 269 -110 269 -141 ct 269 -169 260 -191 243 -208 ct 226 -225 203 -233 174 -233 ct 
159 -233 145 -231 132 -226 ct 119 -221 106 -213 93 -202 ct 38 -202 l  53 -437 l 
301 -437 l  301 -390 l  104 -390 l  95 -251 l  119 -270 149 -279 185 -279 ct 
228 -279 263 -266 288 -241 ct 314 -216 326 -183 326 -143 ct p ef
pom
pum
22342 20228 t
273 -99 m  273 0 l  220 0 l  220 -99 l  15 -99 l  15 -142 l  215 -438 l 
273 -438 l  273 -143 l  335 -143 l  335 -99 l  273 -99 l  p
220 -374 m  220 -373 217 -368 212 -358 ct 206 -348 202 -341 200 -338 ct 88 -172 l 
71 -149 l  66 -143 l  220 -143 l  220 -374 l  p ef
pom
pum
21772 15471 t
48 0 m  48 -47 l  160 -47 l  160 -384 l  61 -314 l  61 -366 l  164 -438 l 
216 -438 l  216 -47 l  322 -47 l  322 0 l  48 0 l  p ef
677 -143 m  677 -96 664 -60 636 -34 ct 609 -7 571 6 522 6 ct 482 6 449 -3 424 -21 ct 
399 -38 383 -64 376 -98 ct 433 -104 l  445 -61 475 -40 524 -40 ct 554 -40 577 -49 594 -67 ct 
611 -85 620 -110 620 -141 ct 620 -169 611 -191 594 -208 ct 577 -225 554 -233 525 -233 ct 
510 -233 496 -231 483 -226 ct 470 -221 457 -213 444 -202 ct 389 -202 l  404 -437 l 
652 -437 l  652 -390 l  455 -390 l  446 -251 l  470 -270 500 -279 536 -279 ct 
579 -279 614 -266 639 -241 ct 665 -216 677 -183 677 -143 ct p ef
pom
pum
19322 14346 t
48 0 m  48 -47 l  160 -47 l  160 -384 l  61 -314 l  61 -366 l  164 -438 l 
216 -438 l  216 -47 l  322 -47 l  322 0 l  48 0 l  p ef
672 -392 m  628 -324 596 -270 578 -232 ct 559 -193 545 -155 536 -117 ct 527 -79 522 -40 522 0 ct 
464 0 l  464 -56 476 -115 500 -177 ct 523 -238 563 -309 618 -390 ct 384 -390 l 
384 -437 l  672 -437 l  672 -392 l  p ef
pom
pum
25797 16509 t
32 0 m  32 -39 l  42 -64 55 -85 71 -104 ct 86 -122 102 -139 118 -154 ct 135 -169 152 -183 168 -196 ct 
185 -208 199 -221 213 -234 ct 226 -247 237 -260 245 -274 ct 253 -289 257 -304 257 -322 ct 
257 -346 250 -365 236 -378 ct 222 -391 202 -398 177 -398 ct 154 -398 134 -392 119 -379 ct 
103 -366 94 -348 91 -324 ct 34 -329 l  39 -364 53 -392 79 -413 ct 104 -434 137 -444 177 -444 ct 
221 -444 255 -434 279 -413 ct 303 -392 314 -362 314 -324 ct 314 -307 311 -290 303 -274 ct 
295 -257 283 -240 268 -223 ct 253 -206 224 -180 180 -145 ct 157 -126 138 -108 124 -93 ct 
110 -77 100 -62 93 -47 ct 321 -47 l  321 0 l  32 0 l  p ef
399 0 m  399 -47 l  511 -47 l  511 -384 l  412 -314 l  412 -366 l  515 -438 l 
567 -438 l  567 -47 l  673 -47 l  673 0 l  399 0 l  p ef
pom
pum
24792 15558 t
321 -392 m  277 -324 245 -270 227 -232 ct 208 -193 194 -155 185 -117 ct 176 -79 171 -40 171 0 ct 
113 0 l  113 -56 125 -115 149 -177 ct 172 -238 212 -309 267 -390 ct 33 -390 l 
33 -437 l  321 -437 l  321 -392 l  p ef
pom
pum
23305 13260 t
32 0 m  32 -39 l  42 -64 55 -85 71 -104 ct 86 -122 102 -139 118 -154 ct 135 -169 152 -183 168 -196 ct 
185 -208 199 -221 213 -234 ct 226 -247 237 -260 245 -274 ct 253 -289 257 -304 257 -322 ct 
257 -346 250 -365 236 -378 ct 222 -391 202 -398 177 -398 ct 154 -398 134 -392 119 -379 ct 
103 -366 94 -348 91 -324 ct 34 -329 l  39 -364 53 -392 79 -413 ct 104 -434 137 -444 177 -444 ct 
221 -444 255 -434 279 -413 ct 303 -392 314 -362 314 -324 ct 314 -307 311 -290 303 -274 ct 
295 -257 283 -240 268 -223 ct 253 -206 224 -180 180 -145 ct 157 -126 138 -108 124 -93 ct 
110 -77 100 -62 93 -47 ct 321 -47 l  321 0 l  32 0 l  p ef
pom
pum
23788 17931 t
325 -121 m  325 -81 312 -49 287 -27 ct 261 -5 225 6 177 6 ct 133 6 98 -4 71 -24 ct 
45 -44 29 -73 24 -113 ct 82 -118 l  89 -66 121 -40 177 -40 ct 205 -40 227 -47 243 -61 ct 
259 -75 267 -96 267 -123 ct 267 -147 258 -165 240 -179 ct 222 -192 195 -199 161 -199 ct 
129 -199 l  129 -247 l  159 -247 l  190 -247 214 -254 231 -267 ct 247 -280 256 -299 256 -322 ct 
256 -346 249 -364 235 -378 ct 221 -391 201 -398 174 -398 ct 149 -398 129 -392 114 -379 ct 
99 -367 90 -349 88 -326 ct 32 -330 l  36 -366 51 -394 76 -414 ct 102 -434 134 -444 175 -444 ct 
218 -444 252 -434 277 -413 ct 301 -393 313 -365 313 -328 ct 313 -300 305 -278 290 -260 ct 
274 -243 251 -231 222 -225 ct 222 -223 l  254 -220 280 -209 298 -191 ct 316 -172 325 -149 325 -121 ct 
p ef
pom
pum
17098 15539 t
328 -219 m  328 -146 315 -90 290 -52 ct 264 -13 226 6 176 6 ct 126 6 88 -13 63 -51 ct 
37 -90 25 -146 25 -219 ct 25 -294 37 -350 62 -388 ct 86 -425 125 -444 178 -444 ct 
229 -444 267 -425 292 -387 ct 316 -349 328 -293 328 -219 ct p
272 -219 m  272 -282 264 -328 250 -356 ct 235 -385 211 -399 178 -399 ct 143 -399 119 -385 104 -357 ct 
89 -329 81 -283 81 -219 ct 81 -157 89 -112 104 -83 ct 119 -54 143 -40 176 -40 ct 
209 -40 233 -54 249 -84 ct 264 -113 272 -158 272 -219 ct p ef
pom
pum
24693 20072 t
273 -99 m  273 0 l  220 0 l  220 -99 l  15 -99 l  15 -142 l  215 -438 l 
273 -438 l  273 -143 l  335 -143 l  335 -99 l  273 -99 l  p
220 -374 m  220 -373 217 -368 212 -358 ct 206 -348 202 -341 200 -338 ct 88 -172 l 
71 -149 l  66 -143 l  220 -143 l  220 -374 l  p ef
pom
pum
20493 21087 t
326 -143 m  326 -96 313 -60 285 -34 ct 258 -7 220 6 171 6 ct 131 6 98 -3 73 -21 ct 
48 -38 32 -64 25 -98 ct 82 -104 l  94 -61 124 -40 173 -40 ct 203 -40 226 -49 243 -67 ct 
260 -85 269 -110 269 -141 ct 269 -169 260 -191 243 -208 ct 226 -225 203 -233 174 -233 ct 
159 -233 145 -231 132 -226 ct 119 -221 106 -213 93 -202 ct 38 -202 l  53 -437 l 
301 -437 l  301 -390 l  104 -390 l  95 -251 l  119 -270 149 -279 185 -279 ct 
228 -279 263 -266 288 -241 ct 314 -216 326 -183 326 -143 ct p ef
pom
pum
22851 16787 t
325 -121 m  325 -81 312 -49 287 -27 ct 261 -5 225 6 177 6 ct 133 6 98 -4 71 -24 ct 
45 -44 29 -73 24 -113 ct 82 -118 l  89 -66 121 -40 177 -40 ct 205 -40 227 -47 243 -61 ct 
259 -75 267 -96 267 -123 ct 267 -147 258 -165 240 -179 ct 222 -192 195 -199 161 -199 ct 
129 -199 l  129 -247 l  159 -247 l  190 -247 214 -254 231 -267 ct 247 -280 256 -299 256 -322 ct 
256 -346 249 -364 235 -378 ct 221 -391 201 -398 174 -398 ct 149 -398 129 -392 114 -379 ct 
99 -367 90 -349 88 -326 ct 32 -330 l  36 -366 51 -394 76 -414 ct 102 -434 134 -444 175 -444 ct 
218 -444 252 -434 277 -413 ct 301 -393 313 -365 313 -328 ct 313 -300 305 -278 290 -260 ct 
274 -243 251 -231 222 -225 ct 222 -223 l  254 -220 280 -209 298 -191 ct 316 -172 325 -149 325 -121 ct 
p ef
pom
pum
26393 13187 t
48 0 m  48 -47 l  160 -47 l  160 -384 l  61 -314 l  61 -366 l  164 -438 l 
216 -438 l  216 -47 l  322 -47 l  322 0 l  48 0 l  p ef
677 -143 m  677 -96 664 -60 636 -34 ct 609 -7 571 6 522 6 ct 482 6 449 -3 424 -21 ct 
399 -38 383 -64 376 -98 ct 433 -104 l  445 -61 475 -40 524 -40 ct 554 -40 577 -49 594 -67 ct 
611 -85 620 -110 620 -141 ct 620 -169 611 -191 594 -208 ct 577 -225 554 -233 525 -233 ct 
510 -233 496 -231 483 -226 ct 470 -221 457 -213 444 -202 ct 389 -202 l  404 -437 l 
652 -437 l  652 -390 l  455 -390 l  446 -251 l  470 -270 500 -279 536 -279 ct 
579 -279 614 -266 639 -241 ct 665 -216 677 -183 677 -143 ct p ef
pom
pum
20351 12487 t
48 0 m  48 -47 l  160 -47 l  160 -384 l  61 -314 l  61 -366 l  164 -438 l 
216 -438 l  216 -47 l  322 -47 l  322 0 l  48 0 l  p ef
672 -392 m  628 -324 596 -270 578 -232 ct 559 -193 545 -155 536 -117 ct 527 -79 522 -40 522 0 ct 
464 0 l  464 -56 476 -115 500 -177 ct 523 -238 563 -309 618 -390 ct 384 -390 l 
384 -437 l  672 -437 l  672 -392 l  p ef
pom
pum
9042 10826 t
39 -165 m  39 -224 49 -278 67 -326 ct 86 -373 115 -418 154 -460 ct 208 -460 l 
169 -417 141 -371 123 -323 ct 105 -274 96 -222 96 -164 ct 96 -107 104 -54 122 -6 ct 
140 42 169 88 208 132 ct 154 132 l  115 90 86 45 67 -3 ct 49 -50 39 -104 39 -163 ct 
39 -165 l  p ef
340 6 m  307 6 281 -3 264 -21 ct 247 -38 239 -63 239 -94 ct 239 -129 250 -155 273 -174 ct 
296 -192 333 -202 384 -204 ct 459 -205 l  459 -223 l  459 -250 453 -270 442 -282 ct 
430 -294 412 -299 387 -299 ct 362 -299 344 -295 333 -287 ct 321 -278 314 -265 312 -246 ct 
254 -251 l  263 -312 308 -342 388 -342 ct 431 -342 462 -332 484 -313 ct 505 -294 516 -266 516 -229 ct 
516 -85 l  516 -68 518 -55 522 -47 ct 526 -39 535 -35 547 -35 ct 552 -35 558 -35 565 -37 ct 
565 -2 l  551 1 537 3 522 3 ct 501 3 486 -2 477 -13 ct 468 -24 462 -41 461 -64 ct 
459 -64 l  445 -39 428 -21 409 -10 ct 390 1 367 6 340 6 ct p
353 -36 m  374 -36 392 -41 408 -50 ct 424 -59 436 -72 445 -88 ct 455 -104 459 -121 459 -138 ct 
459 -166 l  398 -165 l  372 -164 352 -161 338 -157 ct 325 -152 314 -144 307 -134 ct 
300 -123 296 -110 296 -93 ct 296 -75 301 -61 311 -51 ct 321 -41 335 -36 353 -36 ct 
p ef
735 -163 m  735 -104 726 -50 707 -2 ct 688 45 660 90 621 132 ct 567 132 l  606 89 634 43 652 -5 ct 
670 -53 679 -106 679 -164 ct 679 -222 670 -275 652 -323 ct 634 -371 605 -417 567 -460 ct 
621 -460 l  660 -418 689 -373 707 -325 ct 726 -278 735 -224 735 -165 ct 735 -163 l 
p ef
pom
pum
22042 10827 t
39 -165 m  39 -224 49 -278 67 -326 ct 86 -373 115 -418 154 -460 ct 208 -460 l 
169 -417 141 -371 123 -323 ct 105 -274 96 -222 96 -164 ct 96 -107 104 -54 122 -6 ct 
140 42 169 88 208 132 ct 154 132 l  115 90 86 45 67 -3 ct 49 -50 39 -104 39 -163 ct 
39 -165 l  p ef
538 -169 m  538 -52 497 7 415 7 ct 390 7 369 2 352 -7 ct 335 -16 321 -31 311 -51 ct 
310 -51 l  310 -45 310 -35 309 -22 ct 308 -9 307 -1 307 1 ct 253 1 l  254 -10 255 -33 255 -68 ct 
255 -460 l  311 -460 l  311 -328 l  311 -315 310 -299 309 -281 ct 311 -281 l 
321 -302 335 -318 352 -327 ct 369 -336 390 -341 415 -341 ct 457 -341 489 -327 509 -298 ct 
529 -270 538 -227 538 -169 ct p
480 -167 m  480 -214 474 -247 461 -268 ct 449 -288 429 -298 401 -298 ct 369 -298 347 -287 332 -266 ct 
318 -244 311 -210 311 -163 ct 311 -119 318 -87 332 -66 ct 346 -45 369 -34 400 -34 ct 
428 -34 449 -45 461 -65 ct 474 -86 480 -120 480 -167 ct p ef
735 -163 m  735 -104 726 -50 707 -2 ct 688 45 660 90 621 132 ct 567 132 l  606 89 634 43 652 -5 ct 
670 -53 679 -106 679 -164 ct 679 -222 670 -275 652 -323 ct 634 -371 605 -417 567 -460 ct 
621 -460 l  660 -418 689 -373 707 -325 ct 726 -278 735 -224 735 -165 ct 735 -163 l 
p ef
pom
pum
9042 21827 t
39 -165 m  39 -224 49 -278 67 -326 ct 86 -373 115 -418 154 -460 ct 208 -460 l 
169 -417 141 -371 123 -323 ct 105 -274 96 -222 96 -164 ct 96 -107 104 -54 122 -6 ct 
140 42 169 88 208 132 ct 154 132 l  115 90 86 45 67 -3 ct 49 -50 39 -104 39 -163 ct 
39 -165 l  p ef
297 -170 m  297 -125 304 -92 318 -70 ct 332 -49 354 -38 382 -38 ct 402 -38 418 -43 432 -54 ct 
445 -65 453 -81 456 -104 ct 513 -100 l  508 -68 495 -42 472 -23 ct 448 -4 419 6 383 6 ct 
337 6 301 -9 276 -39 ct 251 -68 239 -111 239 -168 ct 239 -225 251 -268 276 -297 ct 
301 -327 337 -342 383 -342 ct 417 -342 446 -333 468 -315 ct 491 -298 505 -273 511 -242 ct 
454 -237 l  451 -256 443 -271 432 -282 ct 420 -293 403 -298 381 -298 ct 352 -298 330 -288 317 -269 ct 
304 -249 297 -216 297 -170 ct p ef
701 -163 m  701 -104 692 -50 673 -2 ct 654 45 626 90 587 132 ct 533 132 l  572 89 600 43 618 -5 ct 
636 -53 645 -106 645 -164 ct 645 -222 636 -275 618 -323 ct 600 -371 571 -417 533 -460 ct 
587 -460 l  626 -418 655 -373 673 -325 ct 692 -278 701 -224 701 -165 ct 701 -163 l 
p ef
pom
pum
23042 21828 t
39 -165 m  39 -224 49 -278 67 -326 ct 86 -373 115 -418 154 -460 ct 208 -460 l 
169 -417 141 -371 123 -323 ct 105 -274 96 -222 96 -164 ct 96 -107 104 -54 122 -6 ct 
140 42 169 88 208 132 ct 154 132 l  115 90 86 45 67 -3 ct 49 -50 39 -104 39 -163 ct 
39 -165 l  p ef
467 -53 m  456 -32 443 -16 425 -7 ct 408 2 387 7 362 7 ct 320 7 289 -7 269 -36 ct 
249 -64 239 -108 239 -166 ct 239 -283 280 -341 362 -341 ct 387 -341 409 -337 426 -327 ct 
443 -318 456 -303 467 -283 ct 467 -283 l  467 -321 l  467 -460 l  522 -460 l 
522 -68 l  522 -33 523 -10 524 1 ct 471 1 l  470 -3 470 -10 469 -22 ct 468 -34 468 -45 468 -53 ct 
467 -53 l  p
297 -167 m  297 -120 303 -87 316 -67 ct 328 -46 348 -36 376 -36 ct 408 -36 431 -47 445 -69 ct 
459 -91 467 -125 467 -171 ct 467 -216 459 -248 445 -269 ct 431 -290 408 -300 377 -300 ct 
349 -300 329 -290 316 -269 ct 304 -248 297 -214 297 -167 ct p ef
735 -163 m  735 -104 726 -50 707 -2 ct 688 45 660 90 621 132 ct 567 132 l  606 89 634 43 652 -5 ct 
670 -53 679 -106 679 -164 ct 679 -222 670 -275 652 -323 ct 634 -371 605 -417 567 -460 ct 
621 -460 l  660 -418 689 -373 707 -325 ct 726 -278 735 -224 735 -165 ct 735 -163 l 
p ef
pom
0 21091 t 
pom
count op_count sub {pop} repeat countdictstack dict_count sub {end} repeat b4_inc_state restore
%%PageTrailer
%%Trailer
%%EOF
