%!PS-Adobe-3.0 EPSF-3.0 
%%BoundingBox: 0 0 371 278
%%Pages: 0
%%Creator: LibreOffice 5.4
%%Title: none
%%CreationDate: none
%%LanguageLevel: 2
%%EndComments
%%BeginProlog
%%BeginResource: procset SDRes-Prolog 1.0 0
/b4_inc_state save def
/dict_count countdictstack def
/op_count count 1 sub def
userdict begin
0 setgray 0 setlinecap 1 setlinewidth 0 setlinejoin 10 setmiterlimit[] 0 setdash newpath
/languagelevel where {pop languagelevel 1 ne {false setstrokeadjust false setoverprint} if} if
/bdef {bind def} bind def
/c {setgray} bdef
/l {neg lineto} bdef
/rl {neg rlineto} bdef
/lc {setlinecap} bdef
/lj {setlinejoin} bdef
/lw {setlinewidth} bdef
/ml {setmiterlimit} bdef
/ld {setdash} bdef
/m {neg moveto} bdef
/ct {6 2 roll neg 6 2 roll neg 6 2 roll neg curveto} bdef
/r {rotate} bdef
/t {neg translate} bdef
/s {scale} bdef
/sw {show} bdef
/gs {gsave} bdef
/gr {grestore} bdef
/f {findfont dup length dict begin
{1 index /FID ne {def} {pop pop} ifelse} forall /Encoding ISOLatin1Encoding def
currentdict end /NFont exch definefont pop /NFont findfont} bdef
/p {closepath} bdef
/sf {scalefont setfont} bdef
/ef {eofill}bdef
/pc {closepath stroke}bdef
/ps {stroke}bdef
/pum {matrix currentmatrix}bdef
/pom {setmatrix}bdef
/bs {/aString exch def /nXOfs exch def /nWidth exch def currentpoint nXOfs 0 rmoveto pum nWidth aString stringwidth pop div 1 scale aString show pom moveto} bdef
%%EndResource
%%EndProlog
%%BeginSetup
%%EndSetup
%%Page: 1 1
%%BeginPageSetup
%%EndPageSetup
pum
0.02831 0.02836 s 
0 -9802 t
/tm matrix currentmatrix def
tm setmatrix
-4098 -5698 t 
1 1 s 
0 lw 1 lj 0.000 c 4699 8498 m  5039 8498 5299 8758 5299 9098 ct 5299 9438 5039 9698 4699 9698 ct 
4359 9698 4099 9438 4099 9098 ct 4099 8758 4359 8498 4699 8498 ct pc
4099 8498 m  4099 8498 l  pc
5300 9699 m  5300 9699 l  pc
pum
4523 9263 t
48 0 m  48 -47 l  160 -47 l  160 -384 l  61 -314 l  61 -366 l  164 -438 l 
216 -438 l  216 -47 l  322 -47 l  322 0 l  48 0 l  p ef
pom
8998 5698 m  9338 5698 9598 5958 9598 6298 ct 9598 6638 9338 6898 8998 6898 ct 
8658 6898 8398 6638 8398 6298 ct 8398 5958 8658 5698 8998 5698 ct pc
8398 5698 m  8398 5698 l  pc
9599 6899 m  9599 6899 l  pc
pum
8823 6464 t
32 0 m  32 -39 l  42 -64 55 -85 71 -104 ct 86 -122 102 -139 118 -154 ct 135 -169 152 -183 168 -196 ct 
185 -208 199 -221 213 -234 ct 226 -247 237 -260 245 -274 ct 253 -289 257 -304 257 -322 ct 
257 -346 250 -365 236 -378 ct 222 -391 202 -398 177 -398 ct 154 -398 134 -392 119 -379 ct 
103 -366 94 -348 91 -324 ct 34 -329 l  39 -364 53 -392 79 -413 ct 104 -434 137 -444 177 -444 ct 
221 -444 255 -434 279 -413 ct 303 -392 314 -362 314 -324 ct 314 -307 311 -290 303 -274 ct 
295 -257 283 -240 268 -223 ct 253 -206 224 -180 180 -145 ct 157 -126 138 -108 124 -93 ct 
110 -77 100 -62 93 -47 ct 321 -47 l  321 0 l  32 0 l  p ef
pom
9498 14297 m  9838 14297 10098 14557 10098 14896 ct 10098 15236 9838 15496 9498 15496 ct 
9158 15496 8898 15236 8898 14896 ct 8898 14557 9158 14297 9498 14297 ct pc
8898 14297 m  8898 14297 l  pc
10099 15497 m  10099 15497 l  pc
pum
9323 15062 t
325 -121 m  325 -81 312 -49 287 -27 ct 261 -5 225 6 177 6 ct 133 6 98 -4 71 -24 ct 
45 -44 29 -73 24 -113 ct 82 -118 l  89 -66 121 -40 177 -40 ct 205 -40 227 -47 243 -61 ct 
259 -75 267 -96 267 -123 ct 267 -147 258 -165 240 -179 ct 222 -192 195 -199 161 -199 ct 
129 -199 l  129 -247 l  159 -247 l  190 -247 214 -254 231 -267 ct 247 -280 256 -299 256 -322 ct 
256 -346 249 -364 235 -378 ct 221 -391 201 -398 174 -398 ct 149 -398 129 -392 114 -379 ct 
99 -367 90 -349 88 -326 ct 32 -330 l  36 -366 51 -394 76 -414 ct 102 -434 134 -444 175 -444 ct 
218 -444 252 -434 277 -413 ct 301 -393 313 -365 313 -328 ct 313 -300 305 -278 290 -260 ct 
274 -243 251 -231 222 -225 ct 222 -223 l  254 -220 280 -209 298 -191 ct 316 -172 325 -149 325 -121 ct 
p ef
pom
16597 13197 m  16937 13197 17197 13457 17197 13797 ct 17197 14137 16937 14397 16597 14397 ct 
16257 14397 15997 14137 15997 13797 ct 15997 13457 16257 13197 16597 13197 ct 
pc
15997 13197 m  15997 13197 l  pc
17198 14398 m  17198 14398 l  pc
pum
16421 13962 t
273 -99 m  273 0 l  220 0 l  220 -99 l  15 -99 l  15 -142 l  215 -438 l 
273 -438 l  273 -143 l  335 -143 l  335 -99 l  273 -99 l  p
220 -374 m  220 -373 217 -368 212 -358 ct 206 -348 202 -341 200 -338 ct 88 -172 l 
71 -149 l  66 -143 l  220 -143 l  220 -374 l  p ef
pom
15397 7198 m  15737 7198 15997 7458 15997 7798 ct 15997 8138 15737 8398 15397 8398 ct 
15057 8398 14797 8138 14797 7798 ct 14797 7458 15057 7198 15397 7198 ct pc
14797 7198 m  14797 7198 l  pc
15998 8399 m  15998 8399 l  pc
pum
15222 7963 t
326 -143 m  326 -96 313 -60 285 -34 ct 258 -7 220 6 171 6 ct 131 6 98 -3 73 -21 ct 
48 -38 32 -64 25 -98 ct 82 -104 l  94 -61 124 -40 173 -40 ct 203 -40 226 -49 243 -67 ct 
260 -85 269 -110 269 -141 ct 269 -169 260 -191 243 -208 ct 226 -225 203 -233 174 -233 ct 
159 -233 145 -231 132 -226 ct 119 -221 106 -213 93 -202 ct 38 -202 l  53 -437 l 
301 -437 l  301 -390 l  104 -390 l  95 -251 l  119 -270 149 -279 185 -279 ct 
228 -279 263 -266 288 -241 ct 314 -216 326 -183 326 -143 ct p ef
pom
4699 8498 m  8398 6298 l  ps
pum
6198 7563 t
48 0 m  48 -47 l  160 -47 l  160 -384 l  61 -314 l  61 -366 l  164 -438 l 
216 -438 l  216 -47 l  322 -47 l  322 0 l  48 0 l  p ef
679 -219 m  679 -146 666 -90 641 -52 ct 615 -13 577 6 527 6 ct 477 6 439 -13 414 -51 ct 
388 -90 376 -146 376 -219 ct 376 -294 388 -350 413 -388 ct 437 -425 476 -444 529 -444 ct 
580 -444 618 -425 643 -387 ct 667 -349 679 -293 679 -219 ct p
623 -219 m  623 -282 615 -328 601 -356 ct 586 -385 562 -399 529 -399 ct 494 -399 470 -385 455 -357 ct 
440 -329 432 -283 432 -219 ct 432 -157 440 -112 455 -83 ct 470 -54 494 -40 527 -40 ct 
560 -40 584 -54 600 -84 ct 615 -113 623 -158 623 -219 ct p ef
pom
5124 9523 m  9073 14472 l  ps
pum
6924 12163 t
326 -122 m  326 -82 313 -50 287 -28 ct 261 -5 225 6 177 6 ct 130 6 93 -5 67 -27 ct 
41 -49 28 -81 28 -121 ct 28 -150 36 -174 52 -193 ct 68 -213 89 -225 115 -229 ct 
115 -230 l  91 -236 72 -248 58 -266 ct 45 -285 38 -307 38 -332 ct 38 -365 50 -392 75 -413 ct 
100 -434 134 -444 176 -444 ct 218 -444 252 -434 277 -414 ct 302 -393 315 -366 315 -331 ct 
315 -306 308 -284 294 -266 ct 280 -247 261 -235 237 -231 ct 237 -229 l  265 -225 287 -213 302 -194 ct 
318 -175 326 -151 326 -122 ct p
257 -328 m  257 -378 230 -402 176 -402 ct 149 -402 129 -396 115 -384 ct 102 -371 95 -353 95 -328 ct 
95 -303 102 -284 116 -271 ct 130 -258 150 -251 176 -251 ct 202 -251 222 -257 236 -269 ct 
250 -281 257 -301 257 -328 ct p
268 -127 m  268 -154 260 -175 243 -189 ct 227 -202 205 -209 176 -209 ct 147 -209 125 -202 109 -187 ct 
93 -172 85 -152 85 -126 ct 85 -66 116 -36 177 -36 ct 208 -36 230 -43 245 -58 ct 
260 -72 268 -96 268 -127 ct p ef
pom
5299 9098 m  15997 13797 l  ps
pum
10473 11613 t
323 -228 m  323 -153 309 -95 282 -55 ct 255 -14 216 6 165 6 ct 131 6 104 -1 83 -16 ct 
62 -30 48 -53 39 -85 ct 92 -94 l  103 -57 128 -39 166 -39 ct 198 -39 223 -54 240 -84 ct 
258 -114 267 -156 268 -212 ct 260 -193 245 -178 225 -167 ct 205 -156 183 -150 159 -150 ct 
120 -150 89 -163 65 -190 ct 42 -217 30 -253 30 -297 ct 30 -343 43 -379 68 -405 ct 
94 -431 130 -444 175 -444 ct 224 -444 261 -426 286 -390 ct 311 -354 323 -300 323 -228 ct 
p
262 -282 m  262 -317 254 -345 238 -367 ct 222 -388 200 -399 173 -399 ct 146 -399 125 -390 110 -371 ct 
94 -353 87 -328 87 -297 ct 87 -265 94 -240 110 -222 ct 125 -203 146 -194 173 -194 ct 
189 -194 204 -198 218 -205 ct 232 -212 242 -223 250 -236 ct 258 -250 262 -265 262 -282 ct 
p ef
pom
5124 8673 m  14797 7798 l  ps
pum
9786 8400 t
321 -392 m  277 -324 245 -270 227 -232 ct 208 -193 194 -155 185 -117 ct 176 -79 171 -40 171 0 ct 
113 0 l  113 -56 125 -115 149 -177 ct 172 -238 212 -309 267 -390 ct 33 -390 l 
33 -437 l  321 -437 l  321 -392 l  p ef
pom
9598 6298 m  14972 7373 l  ps
pum
12110 7001 t
325 -143 m  325 -97 313 -61 288 -34 ct 263 -7 228 6 184 6 ct 135 6 97 -12 71 -49 ct 
45 -86 32 -139 32 -209 ct 32 -284 46 -343 73 -383 ct 100 -424 139 -444 189 -444 ct 
254 -444 296 -414 313 -355 ct 260 -345 l  249 -381 225 -399 188 -399 ct 156 -399 131 -384 114 -354 ct 
96 -324 88 -282 88 -225 ct 98 -244 112 -258 131 -268 ct 149 -278 170 -283 194 -283 ct 
234 -283 266 -270 290 -245 ct 313 -220 325 -186 325 -143 ct p
269 -141 m  269 -173 261 -197 245 -214 ct 230 -231 208 -240 180 -240 ct 154 -240 133 -232 117 -217 ct 
101 -202 93 -181 93 -154 ct 93 -120 102 -93 118 -71 ct 135 -50 156 -39 182 -39 ct 
209 -39 230 -48 246 -66 ct 261 -84 269 -109 269 -141 ct p ef
pom
8998 6898 m  9498 14297 l  ps
pum
8898 10763 t
48 0 m  48 -47 l  160 -47 l  160 -384 l  61 -314 l  61 -366 l  164 -438 l 
216 -438 l  216 -47 l  322 -47 l  322 0 l  48 0 l  p ef
679 -219 m  679 -146 666 -90 641 -52 ct 615 -13 577 6 527 6 ct 477 6 439 -13 414 -51 ct 
388 -90 376 -146 376 -219 ct 376 -294 388 -350 413 -388 ct 437 -425 476 -444 529 -444 ct 
580 -444 618 -425 643 -387 ct 667 -349 679 -293 679 -219 ct p
623 -219 m  623 -282 615 -328 601 -356 ct 586 -385 562 -399 529 -399 ct 494 -399 470 -385 455 -357 ct 
440 -329 432 -283 432 -219 ct 432 -157 440 -112 455 -83 ct 470 -54 494 -40 527 -40 ct 
560 -40 584 -54 600 -84 ct 615 -113 623 -158 623 -219 ct p ef
pom
9423 6723 m  16172 13372 l  ps
pum
12623 10213 t
326 -143 m  326 -96 313 -60 285 -34 ct 258 -7 220 6 171 6 ct 131 6 98 -3 73 -21 ct 
48 -38 32 -64 25 -98 ct 82 -104 l  94 -61 124 -40 173 -40 ct 203 -40 226 -49 243 -67 ct 
260 -85 269 -110 269 -141 ct 269 -169 260 -191 243 -208 ct 226 -225 203 -233 174 -233 ct 
159 -233 145 -231 132 -226 ct 119 -221 106 -213 93 -202 ct 38 -202 l  53 -437 l 
301 -437 l  301 -390 l  104 -390 l  95 -251 l  119 -270 149 -279 185 -279 ct 
228 -279 263 -266 288 -241 ct 314 -216 326 -183 326 -143 ct p ef
pom
10098 14896 m  16172 14222 l  ps
pum
12960 14724 t
326 -122 m  326 -82 313 -50 287 -28 ct 261 -5 225 6 177 6 ct 130 6 93 -5 67 -27 ct 
41 -49 28 -81 28 -121 ct 28 -150 36 -174 52 -193 ct 68 -213 89 -225 115 -229 ct 
115 -230 l  91 -236 72 -248 58 -266 ct 45 -285 38 -307 38 -332 ct 38 -365 50 -392 75 -413 ct 
100 -434 134 -444 176 -444 ct 218 -444 252 -434 277 -414 ct 302 -393 315 -366 315 -331 ct 
315 -306 308 -284 294 -266 ct 280 -247 261 -235 237 -231 ct 237 -229 l  265 -225 287 -213 302 -194 ct 
318 -175 326 -151 326 -122 ct p
257 -328 m  257 -378 230 -402 176 -402 ct 149 -402 129 -396 115 -384 ct 102 -371 95 -353 95 -328 ct 
95 -303 102 -284 116 -271 ct 130 -258 150 -251 176 -251 ct 202 -251 222 -257 236 -269 ct 
250 -281 257 -301 257 -328 ct p
268 -127 m  268 -154 260 -175 243 -189 ct 227 -202 205 -209 176 -209 ct 147 -209 125 -202 109 -187 ct 
93 -172 85 -152 85 -126 ct 85 -66 116 -36 177 -36 ct 208 -36 230 -43 245 -58 ct 
260 -72 268 -96 268 -127 ct p ef
pom
9923 14472 m  14972 8223 l  ps
pum
12273 11513 t
323 -228 m  323 -153 309 -95 282 -55 ct 255 -14 216 6 165 6 ct 131 6 104 -1 83 -16 ct 
62 -30 48 -53 39 -85 ct 92 -94 l  103 -57 128 -39 166 -39 ct 198 -39 223 -54 240 -84 ct 
258 -114 267 -156 268 -212 ct 260 -193 245 -178 225 -167 ct 205 -156 183 -150 159 -150 ct 
120 -150 89 -163 65 -190 ct 42 -217 30 -253 30 -297 ct 30 -343 43 -379 68 -405 ct 
94 -431 130 -444 175 -444 ct 224 -444 261 -426 286 -390 ct 311 -354 323 -300 323 -228 ct 
p
262 -282 m  262 -317 254 -345 238 -367 ct 222 -388 200 -399 173 -399 ct 146 -399 125 -390 110 -371 ct 
94 -353 87 -328 87 -297 ct 87 -265 94 -240 110 -222 ct 125 -203 146 -194 173 -194 ct 
189 -194 204 -198 218 -205 ct 232 -212 242 -223 250 -236 ct 258 -250 262 -265 262 -282 ct 
p ef
pom
16597 13197 m  15397 8398 l  ps
pum
15823 10963 t
325 -143 m  325 -97 313 -61 288 -34 ct 263 -7 228 6 184 6 ct 135 6 97 -12 71 -49 ct 
45 -86 32 -139 32 -209 ct 32 -284 46 -343 73 -383 ct 100 -424 139 -444 189 -444 ct 
254 -444 296 -414 313 -355 ct 260 -345 l  249 -381 225 -399 188 -399 ct 156 -399 131 -384 114 -354 ct 
96 -324 88 -282 88 -225 ct 98 -244 112 -258 131 -268 ct 149 -278 170 -283 194 -283 ct 
234 -283 266 -270 290 -245 ct 313 -220 325 -186 325 -143 ct p
269 -141 m  269 -173 261 -197 245 -214 ct 230 -231 208 -240 180 -240 ct 154 -240 133 -232 117 -217 ct 
101 -202 93 -181 93 -154 ct 93 -120 102 -93 118 -71 ct 135 -50 156 -39 182 -39 ct 
209 -39 230 -48 246 -66 ct 261 -84 269 -109 269 -141 ct p ef
pom
0 9802 t 
pom
count op_count sub {pop} repeat countdictstack dict_count sub {end} repeat b4_inc_state restore
%%PageTrailer
%%Trailer
%%EOF
