%!PS-Adobe-3.0 EPSF-3.0 
%%BoundingBox: 0 0 247 171
%%Pages: 0
%%Creator: LibreOffice 5.4
%%Title: none
%%CreationDate: none
%%LanguageLevel: 2
%%EndComments
%%BeginProlog
%%BeginResource: procset SDRes-Prolog 1.0 0
/b4_inc_state save def
/dict_count countdictstack def
/op_count count 1 sub def
userdict begin
0 setgray 0 setlinecap 1 setlinewidth 0 setlinejoin 10 setmiterlimit[] 0 setdash newpath
/languagelevel where {pop languagelevel 1 ne {false setstrokeadjust false setoverprint} if} if
/bdef {bind def} bind def
/c {setgray} bdef
/l {neg lineto} bdef
/rl {neg rlineto} bdef
/lc {setlinecap} bdef
/lj {setlinejoin} bdef
/lw {setlinewidth} bdef
/ml {setmiterlimit} bdef
/ld {setdash} bdef
/m {neg moveto} bdef
/ct {6 2 roll neg 6 2 roll neg 6 2 roll neg curveto} bdef
/r {rotate} bdef
/t {neg translate} bdef
/s {scale} bdef
/sw {show} bdef
/gs {gsave} bdef
/gr {grestore} bdef
/f {findfont dup length dict begin
{1 index /FID ne {def} {pop pop} ifelse} forall /Encoding ISOLatin1Encoding def
currentdict end /NFont exch definefont pop /NFont findfont} bdef
/p {closepath} bdef
/sf {scalefont setfont} bdef
/ef {eofill}bdef
/pc {closepath stroke}bdef
/ps {stroke}bdef
/pum {matrix currentmatrix}bdef
/pom {setmatrix}bdef
/bs {/aString exch def /nXOfs exch def /nWidth exch def currentpoint nXOfs 0 rmoveto pum nWidth aString stringwidth pop div 1 scale aString show pom moveto} bdef
%%EndResource
%%EndProlog
%%BeginSetup
%%EndSetup
%%Page: 1 1
%%BeginPageSetup
%%EndPageSetup
pum
0.02829 0.02829 s 
0 -6044 t
/tm matrix currentmatrix def
tm setmatrix
-6298 -5097 t 
1 1 s 
0 lw 1 lj 0.000 c 10547 6097 m  6298 6097 l  6298 5098 l  14796 5098 l  14796 6097 l 
10547 6097 l  pc
pum
6548 5784 t
325 -121 m  325 -81 312 -49 287 -27 ct 261 -5 225 6 177 6 ct 133 6 98 -4 71 -24 ct 
45 -44 29 -73 24 -113 ct 82 -118 l  89 -66 121 -40 177 -40 ct 205 -40 227 -47 243 -61 ct 
259 -75 267 -96 267 -123 ct 267 -147 258 -165 240 -179 ct 222 -192 195 -199 161 -199 ct 
129 -199 l  129 -247 l  159 -247 l  190 -247 214 -254 231 -267 ct 247 -280 256 -299 256 -322 ct 
256 -346 249 -364 235 -378 ct 221 -391 201 -398 174 -398 ct 149 -398 129 -392 114 -379 ct 
99 -367 90 -349 88 -326 ct 32 -330 l  36 -366 51 -394 76 -414 ct 102 -434 134 -444 175 -444 ct 
218 -444 252 -434 277 -413 ct 301 -393 313 -365 313 -328 ct 313 -300 305 -278 290 -260 ct 
274 -243 251 -231 222 -225 ct 222 -223 l  254 -220 280 -209 298 -191 ct 316 -172 325 -149 325 -121 ct 
p ef
pom
pum
7449 5784 t
326 -143 m  326 -96 313 -60 285 -34 ct 258 -7 220 6 171 6 ct 131 6 98 -3 73 -21 ct 
48 -38 32 -64 25 -98 ct 82 -104 l  94 -61 124 -40 173 -40 ct 203 -40 226 -49 243 -67 ct 
260 -85 269 -110 269 -141 ct 269 -169 260 -191 243 -208 ct 226 -225 203 -233 174 -233 ct 
159 -233 145 -231 132 -226 ct 119 -221 106 -213 93 -202 ct 38 -202 l  53 -437 l 
301 -437 l  301 -390 l  104 -390 l  95 -251 l  119 -270 149 -279 185 -279 ct 
228 -279 263 -266 288 -241 ct 314 -216 326 -183 326 -143 ct p ef
pom
pum
6549 5784 t
325 -121 m  325 -81 312 -49 287 -27 ct 261 -5 225 6 177 6 ct 133 6 98 -4 71 -24 ct 
45 -44 29 -73 24 -113 ct 82 -118 l  89 -66 121 -40 177 -40 ct 205 -40 227 -47 243 -61 ct 
259 -75 267 -96 267 -123 ct 267 -147 258 -165 240 -179 ct 222 -192 195 -199 161 -199 ct 
129 -199 l  129 -247 l  159 -247 l  190 -247 214 -254 231 -267 ct 247 -280 256 -299 256 -322 ct 
256 -346 249 -364 235 -378 ct 221 -391 201 -398 174 -398 ct 149 -398 129 -392 114 -379 ct 
99 -367 90 -349 88 -326 ct 32 -330 l  36 -366 51 -394 76 -414 ct 102 -434 134 -444 175 -444 ct 
218 -444 252 -434 277 -413 ct 301 -393 313 -365 313 -328 ct 313 -300 305 -278 290 -260 ct 
274 -243 251 -231 222 -225 ct 222 -223 l  254 -220 280 -209 298 -191 ct 316 -172 325 -149 325 -121 ct 
p ef
pom
pum
8350 5784 t
48 0 m  48 -47 l  160 -47 l  160 -384 l  61 -314 l  61 -366 l  164 -438 l 
216 -438 l  216 -47 l  322 -47 l  322 0 l  48 0 l  p ef
677 -143 m  677 -96 664 -60 636 -34 ct 609 -7 571 6 522 6 ct 482 6 449 -3 424 -21 ct 
399 -38 383 -64 376 -98 ct 433 -104 l  445 -61 475 -40 524 -40 ct 554 -40 577 -49 594 -67 ct 
611 -85 620 -110 620 -141 ct 620 -169 611 -191 594 -208 ct 577 -225 554 -233 525 -233 ct 
510 -233 496 -231 483 -226 ct 470 -221 457 -213 444 -202 ct 389 -202 l  404 -437 l 
652 -437 l  652 -390 l  455 -390 l  446 -251 l  470 -270 500 -279 536 -279 ct 
579 -279 614 -266 639 -241 ct 665 -216 677 -183 677 -143 ct p ef
pom
pum
9651 5784 t
48 0 m  48 -47 l  160 -47 l  160 -384 l  61 -314 l  61 -366 l  164 -438 l 
216 -438 l  216 -47 l  322 -47 l  322 0 l  48 0 l  p ef
679 -219 m  679 -146 666 -90 641 -52 ct 615 -13 577 6 527 6 ct 477 6 439 -13 414 -51 ct 
388 -90 376 -146 376 -219 ct 376 -294 388 -350 413 -388 ct 437 -425 476 -444 529 -444 ct 
580 -444 618 -425 643 -387 ct 667 -349 679 -293 679 -219 ct p
623 -219 m  623 -282 615 -328 601 -356 ct 586 -385 562 -399 529 -399 ct 494 -399 470 -385 455 -357 ct 
440 -329 432 -283 432 -219 ct 432 -157 440 -112 455 -83 ct 470 -54 494 -40 527 -40 ct 
560 -40 584 -54 600 -84 ct 615 -113 623 -158 623 -219 ct p ef
pom
pum
10852 5784 t
321 -392 m  277 -324 245 -270 227 -232 ct 208 -193 194 -155 185 -117 ct 176 -79 171 -40 171 0 ct 
113 0 l  113 -56 125 -115 149 -177 ct 172 -238 212 -309 267 -390 ct 33 -390 l 
33 -437 l  321 -437 l  321 -392 l  p ef
pom
pum
11852 5784 t
32 0 m  32 -39 l  42 -64 55 -85 71 -104 ct 86 -122 102 -139 118 -154 ct 135 -169 152 -183 168 -196 ct 
185 -208 199 -221 213 -234 ct 226 -247 237 -260 245 -274 ct 253 -289 257 -304 257 -322 ct 
257 -346 250 -365 236 -378 ct 222 -391 202 -398 177 -398 ct 154 -398 134 -392 119 -379 ct 
103 -366 94 -348 91 -324 ct 34 -329 l  39 -364 53 -392 79 -413 ct 104 -434 137 -444 177 -444 ct 
221 -444 255 -434 279 -413 ct 303 -392 314 -362 314 -324 ct 314 -307 311 -290 303 -274 ct 
295 -257 283 -240 268 -223 ct 253 -206 224 -180 180 -145 ct 157 -126 138 -108 124 -93 ct 
110 -77 100 -62 93 -47 ct 321 -47 l  321 0 l  32 0 l  p ef
pom
pum
12753 5784 t
48 0 m  48 -47 l  160 -47 l  160 -384 l  61 -314 l  61 -366 l  164 -438 l 
216 -438 l  216 -47 l  322 -47 l  322 0 l  48 0 l  p ef
353 0 m  353 -47 l  465 -47 l  465 -384 l  366 -314 l  366 -366 l  469 -438 l 
521 -438 l  521 -47 l  627 -47 l  627 0 l  353 0 l  p ef
pom
pum
13953 5784 t
48 0 m  48 -47 l  160 -47 l  160 -384 l  61 -314 l  61 -366 l  164 -438 l 
216 -438 l  216 -47 l  322 -47 l  322 0 l  48 0 l  p ef
383 0 m  383 -39 l  393 -64 406 -85 422 -104 ct 437 -122 453 -139 469 -154 ct 
486 -169 503 -183 519 -196 ct 536 -208 550 -221 564 -234 ct 577 -247 588 -260 596 -274 ct 
604 -289 608 -304 608 -322 ct 608 -346 601 -365 587 -378 ct 573 -391 553 -398 528 -398 ct 
505 -398 485 -392 470 -379 ct 454 -366 445 -348 442 -324 ct 385 -329 l  390 -364 404 -392 430 -413 ct 
455 -434 488 -444 528 -444 ct 572 -444 606 -434 630 -413 ct 654 -392 665 -362 665 -324 ct 
665 -307 662 -290 654 -274 ct 646 -257 634 -240 619 -223 ct 604 -206 575 -180 531 -145 ct 
508 -126 489 -108 475 -93 ct 461 -77 451 -62 444 -47 ct 672 -47 l  672 0 l  383 0 l 
p ef
pom
7448 10196 m  6298 10196 l  6298 6997 l  8598 6997 l  8598 10196 l  7448 10196 l 
pc
10547 10196 m  9397 10196 l  9397 6997 l  11697 6997 l  11697 10196 l 
10547 10196 l  pc
13746 10196 m  12597 10196 l  12597 6997 l  14896 6997 l  14896 10196 l 
13746 10196 l  pc
pum
6750 7883 t
325 -121 m  325 -81 312 -49 287 -27 ct 261 -5 225 6 177 6 ct 133 6 98 -4 71 -24 ct 
45 -44 29 -73 24 -113 ct 82 -118 l  89 -66 121 -40 177 -40 ct 205 -40 227 -47 243 -61 ct 
259 -75 267 -96 267 -123 ct 267 -147 258 -165 240 -179 ct 222 -192 195 -199 161 -199 ct 
129 -199 l  129 -247 l  159 -247 l  190 -247 214 -254 231 -267 ct 247 -280 256 -299 256 -322 ct 
256 -346 249 -364 235 -378 ct 221 -391 201 -398 174 -398 ct 149 -398 129 -392 114 -379 ct 
99 -367 90 -349 88 -326 ct 32 -330 l  36 -366 51 -394 76 -414 ct 102 -434 134 -444 175 -444 ct 
218 -444 252 -434 277 -413 ct 301 -393 313 -365 313 -328 ct 313 -300 305 -278 290 -260 ct 
274 -243 251 -231 222 -225 ct 222 -223 l  254 -220 280 -209 298 -191 ct 316 -172 325 -149 325 -121 ct 
p ef
pom
pum
7450 8583 t
326 -143 m  326 -96 313 -60 285 -34 ct 258 -7 220 6 171 6 ct 131 6 98 -3 73 -21 ct 
48 -38 32 -64 25 -98 ct 82 -104 l  94 -61 124 -40 173 -40 ct 203 -40 226 -49 243 -67 ct 
260 -85 269 -110 269 -141 ct 269 -169 260 -191 243 -208 ct 226 -225 203 -233 174 -233 ct 
159 -233 145 -231 132 -226 ct 119 -221 106 -213 93 -202 ct 38 -202 l  53 -437 l 
301 -437 l  301 -390 l  104 -390 l  95 -251 l  119 -270 149 -279 185 -279 ct 
228 -279 263 -266 288 -241 ct 314 -216 326 -183 326 -143 ct p ef
pom
pum
13350 7783 t
48 0 m  48 -47 l  160 -47 l  160 -384 l  61 -314 l  61 -366 l  164 -438 l 
216 -438 l  216 -47 l  322 -47 l  322 0 l  48 0 l  p ef
677 -143 m  677 -96 664 -60 636 -34 ct 609 -7 571 6 522 6 ct 482 6 449 -3 424 -21 ct 
399 -38 383 -64 376 -98 ct 433 -104 l  445 -61 475 -40 524 -40 ct 554 -40 577 -49 594 -67 ct 
611 -85 620 -110 620 -141 ct 620 -169 611 -191 594 -208 ct 577 -225 554 -233 525 -233 ct 
510 -233 496 -231 483 -226 ct 470 -221 457 -213 444 -202 ct 389 -202 l  404 -437 l 
652 -437 l  652 -390 l  455 -390 l  446 -251 l  470 -270 500 -279 536 -279 ct 
579 -279 614 -266 639 -241 ct 665 -216 677 -183 677 -143 ct p ef
pom
pum
9652 8083 t
48 0 m  48 -47 l  160 -47 l  160 -384 l  61 -314 l  61 -366 l  164 -438 l 
216 -438 l  216 -47 l  322 -47 l  322 0 l  48 0 l  p ef
679 -219 m  679 -146 666 -90 641 -52 ct 615 -13 577 6 527 6 ct 477 6 439 -13 414 -51 ct 
388 -90 376 -146 376 -219 ct 376 -294 388 -350 413 -388 ct 437 -425 476 -444 529 -444 ct 
580 -444 618 -425 643 -387 ct 667 -349 679 -293 679 -219 ct p
623 -219 m  623 -282 615 -328 601 -356 ct 586 -385 562 -399 529 -399 ct 494 -399 470 -385 455 -357 ct 
440 -329 432 -283 432 -219 ct 432 -157 440 -112 455 -83 ct 470 -54 494 -40 527 -40 ct 
560 -40 584 -54 600 -84 ct 615 -113 623 -158 623 -219 ct p ef
pom
pum
10553 8983 t
321 -392 m  277 -324 245 -270 227 -232 ct 208 -193 194 -155 185 -117 ct 176 -79 171 -40 171 0 ct 
113 0 l  113 -56 125 -115 149 -177 ct 172 -238 212 -309 267 -390 ct 33 -390 l 
33 -437 l  321 -437 l  321 -392 l  p ef
pom
pum
6754 9183 t
32 0 m  32 -39 l  42 -64 55 -85 71 -104 ct 86 -122 102 -139 118 -154 ct 135 -169 152 -183 168 -196 ct 
185 -208 199 -221 213 -234 ct 226 -247 237 -260 245 -274 ct 253 -289 257 -304 257 -322 ct 
257 -346 250 -365 236 -378 ct 222 -391 202 -398 177 -398 ct 154 -398 134 -392 119 -379 ct 
103 -366 94 -348 91 -324 ct 34 -329 l  39 -364 53 -392 79 -413 ct 104 -434 137 -444 177 -444 ct 
221 -444 255 -434 279 -413 ct 303 -392 314 -362 314 -324 ct 314 -307 311 -290 303 -274 ct 
295 -257 283 -240 268 -223 ct 253 -206 224 -180 180 -145 ct 157 -126 138 -108 124 -93 ct 
110 -77 100 -62 93 -47 ct 321 -47 l  321 0 l  32 0 l  p ef
pom
pum
12853 8783 t
48 0 m  48 -47 l  160 -47 l  160 -384 l  61 -314 l  61 -366 l  164 -438 l 
216 -438 l  216 -47 l  322 -47 l  322 0 l  48 0 l  p ef
353 0 m  353 -47 l  465 -47 l  465 -384 l  366 -314 l  366 -366 l  469 -438 l 
521 -438 l  521 -47 l  627 -47 l  627 0 l  353 0 l  p ef
pom
pum
13854 9783 t
48 0 m  48 -47 l  160 -47 l  160 -384 l  61 -314 l  61 -366 l  164 -438 l 
216 -438 l  216 -47 l  322 -47 l  322 0 l  48 0 l  p ef
383 0 m  383 -39 l  393 -64 406 -85 422 -104 ct 437 -122 453 -139 469 -154 ct 
486 -169 503 -183 519 -196 ct 536 -208 550 -221 564 -234 ct 577 -247 588 -260 596 -274 ct 
604 -289 608 -304 608 -322 ct 608 -346 601 -365 587 -378 ct 573 -391 553 -398 528 -398 ct 
505 -398 485 -392 470 -379 ct 454 -366 445 -348 442 -324 ct 385 -329 l  390 -364 404 -392 430 -413 ct 
455 -434 488 -444 528 -444 ct 572 -444 606 -434 630 -413 ct 654 -392 665 -362 665 -324 ct 
665 -307 662 -290 654 -274 ct 646 -257 634 -240 619 -223 ct 604 -206 575 -180 531 -145 ct 
508 -126 489 -108 475 -93 ct 461 -77 451 -62 444 -47 ct 672 -47 l  672 0 l  383 0 l 
p ef
pom
pum
6850 10882 t
328 -219 m  328 -146 315 -90 290 -52 ct 264 -13 226 6 176 6 ct 126 6 88 -13 63 -51 ct 
37 -90 25 -146 25 -219 ct 25 -294 37 -350 62 -388 ct 86 -425 125 -444 178 -444 ct 
229 -444 267 -425 292 -387 ct 316 -349 328 -293 328 -219 ct p
272 -219 m  272 -282 264 -328 250 -356 ct 235 -385 211 -399 178 -399 ct 143 -399 119 -385 104 -357 ct 
89 -329 81 -283 81 -219 ct 81 -157 89 -112 104 -83 ct 119 -54 143 -40 176 -40 ct 
209 -40 233 -54 249 -84 ct 264 -113 272 -158 272 -219 ct p ef
557 -144 m  557 -194 l  712 -194 l  712 -144 l  557 -144 l  p ef
1245 -143 m  1245 -96 1232 -60 1204 -34 ct 1177 -7 1139 6 1090 6 ct 1050 6 1017 -3 992 -21 ct 
967 -38 951 -64 944 -98 ct 1001 -104 l  1013 -61 1043 -40 1092 -40 ct 1122 -40 1145 -49 1162 -67 ct 
1179 -85 1188 -110 1188 -141 ct 1188 -169 1179 -191 1162 -208 ct 1145 -225 1122 -233 1093 -233 ct 
1078 -233 1064 -231 1051 -226 ct 1038 -221 1025 -213 1012 -202 ct 957 -202 l 
972 -437 l  1220 -437 l  1220 -390 l  1023 -390 l  1014 -251 l  1038 -270 1068 -279 1104 -279 ct 
1147 -279 1182 -266 1207 -241 ct 1233 -216 1245 -183 1245 -143 ct p ef
pom
pum
9750 10882 t
325 -143 m  325 -97 313 -61 288 -34 ct 263 -7 228 6 184 6 ct 135 6 97 -12 71 -49 ct 
45 -86 32 -139 32 -209 ct 32 -284 46 -343 73 -383 ct 100 -424 139 -444 189 -444 ct 
254 -444 296 -414 313 -355 ct 260 -345 l  249 -381 225 -399 188 -399 ct 156 -399 131 -384 114 -354 ct 
96 -324 88 -282 88 -225 ct 98 -244 112 -258 131 -268 ct 149 -278 170 -283 194 -283 ct 
234 -283 266 -270 290 -245 ct 313 -220 325 -186 325 -143 ct p
269 -141 m  269 -173 261 -197 245 -214 ct 230 -231 208 -240 180 -240 ct 154 -240 133 -232 117 -217 ct 
101 -202 93 -181 93 -154 ct 93 -120 102 -93 118 -71 ct 135 -50 156 -39 182 -39 ct 
209 -39 230 -48 246 -66 ct 261 -84 269 -109 269 -141 ct p ef
557 -144 m  557 -194 l  712 -194 l  712 -144 l  557 -144 l  p ef
967 0 m  967 -47 l  1079 -47 l  1079 -384 l  980 -314 l  980 -366 l  1083 -438 l 
1135 -438 l  1135 -47 l  1241 -47 l  1241 0 l  967 0 l  p ef
1598 -219 m  1598 -146 1585 -90 1560 -52 ct 1534 -13 1496 6 1446 6 ct 1396 6 1358 -13 1333 -51 ct 
1307 -90 1295 -146 1295 -219 ct 1295 -294 1307 -350 1332 -388 ct 1356 -425 1395 -444 1448 -444 ct 
1499 -444 1537 -425 1562 -387 ct 1586 -349 1598 -293 1598 -219 ct p
1542 -219 m  1542 -282 1534 -328 1520 -356 ct 1505 -385 1481 -399 1448 -399 ct 
1413 -399 1389 -385 1374 -357 ct 1359 -329 1351 -283 1351 -219 ct 1351 -157 1359 -112 1374 -83 ct 
1389 -54 1413 -40 1446 -40 ct 1479 -40 1503 -54 1519 -84 ct 1534 -113 1542 -158 1542 -219 ct 
p ef
pom
pum
12850 10882 t
48 0 m  48 -47 l  160 -47 l  160 -384 l  61 -314 l  61 -366 l  164 -438 l 
216 -438 l  216 -47 l  322 -47 l  322 0 l  48 0 l  p ef
353 0 m  353 -47 l  465 -47 l  465 -384 l  366 -314 l  366 -366 l  469 -438 l 
521 -438 l  521 -47 l  627 -47 l  627 0 l  353 0 l  p ef
862 -144 m  862 -194 l  1017 -194 l  1017 -144 l  862 -144 l  p ef
1271 0 m  1271 -47 l  1383 -47 l  1383 -384 l  1284 -314 l  1284 -366 l 
1387 -438 l  1439 -438 l  1439 -47 l  1545 -47 l  1545 0 l  1271 0 l  p ef
1901 -143 m  1901 -96 1888 -60 1860 -34 ct 1833 -7 1795 6 1746 6 ct 1706 6 1673 -3 1648 -21 ct 
1623 -38 1607 -64 1600 -98 ct 1657 -104 l  1669 -61 1699 -40 1748 -40 ct 1778 -40 1801 -49 1818 -67 ct 
1835 -85 1844 -110 1844 -141 ct 1844 -169 1835 -191 1818 -208 ct 1801 -225 1778 -233 1749 -233 ct 
1734 -233 1720 -231 1707 -226 ct 1694 -221 1681 -213 1668 -202 ct 1613 -202 l 
1628 -437 l  1876 -437 l  1876 -390 l  1679 -390 l  1670 -251 l  1694 -270 1724 -279 1760 -279 ct 
1803 -279 1838 -266 1863 -241 ct 1889 -216 1901 -183 1901 -143 ct p ef
pom
0 6044 t 
pom
count op_count sub {pop} repeat countdictstack dict_count sub {end} repeat b4_inc_state restore
%%PageTrailer
%%Trailer
%%EOF
