%!PS-Adobe-3.0 EPSF-3.0 
%%BoundingBox: 0 0 289 258
%%Pages: 0
%%Creator: LibreOffice 5.4
%%Title: none
%%CreationDate: none
%%LanguageLevel: 2
%%EndComments
%%BeginProlog
%%BeginResource: procset SDRes-Prolog 1.0 0
/b4_inc_state save def
/dict_count countdictstack def
/op_count count 1 sub def
userdict begin
0 setgray 0 setlinecap 1 setlinewidth 0 setlinejoin 10 setmiterlimit[] 0 setdash newpath
/languagelevel where {pop languagelevel 1 ne {false setstrokeadjust false setoverprint} if} if
/bdef {bind def} bind def
/c {setgray} bdef
/l {neg lineto} bdef
/rl {neg rlineto} bdef
/lc {setlinecap} bdef
/lj {setlinejoin} bdef
/lw {setlinewidth} bdef
/ml {setmiterlimit} bdef
/ld {setdash} bdef
/m {neg moveto} bdef
/ct {6 2 roll neg 6 2 roll neg 6 2 roll neg curveto} bdef
/r {rotate} bdef
/t {neg translate} bdef
/s {scale} bdef
/sw {show} bdef
/gs {gsave} bdef
/gr {grestore} bdef
/f {findfont dup length dict begin
{1 index /FID ne {def} {pop pop} ifelse} forall /Encoding ISOLatin1Encoding def
currentdict end /NFont exch definefont pop /NFont findfont} bdef
/p {closepath} bdef
/sf {scalefont setfont} bdef
/ef {eofill}bdef
/pc {closepath stroke}bdef
/ps {stroke}bdef
/pum {matrix currentmatrix}bdef
/pom {setmatrix}bdef
/bs {/aString exch def /nXOfs exch def /nWidth exch def currentpoint nXOfs 0 rmoveto pum nWidth aString stringwidth pop div 1 scale aString show pom moveto} bdef
%%EndResource
%%EndProlog
%%BeginSetup
%%EndSetup
%%Page: 1 1
%%BeginPageSetup
%%EndPageSetup
pum
0.02833 0.02833 s 
0 -9105 t
/tm matrix currentmatrix def
tm setmatrix
-4301 -1599 t 
1 1 s 
0.996 c 9698 1600 m  10038 1600 10298 1860 10298 2200 ct 10298 2539 10038 2799 9698 2799 ct 
9358 2799 9098 2539 9098 2200 ct 9098 1860 9358 1600 9698 1600 ct p
9098 1600 m  9098 1600 l  p
10299 2800 m  10299 2800 l  p ef
0 lw 1 lj 0.000 c 9698 1599 m  10038 1599 10297 1859 10297 2199 ct 10297 2539 10038 2799 9698 2799 ct 
9358 2799 9098 2539 9098 2199 ct 9098 1859 9358 1599 9698 1599 ct pc
9098 1599 m  9098 1599 l  pc
10298 2800 m  10298 2800 l  pc
pum
9522 2364 t
273 -99 m  273 0 l  220 0 l  220 -99 l  15 -99 l  15 -142 l  215 -438 l 
273 -438 l  273 -143 l  335 -143 l  335 -99 l  273 -99 l  p
220 -374 m  220 -373 217 -368 212 -358 ct 206 -348 202 -341 200 -338 ct 88 -172 l 
71 -149 l  66 -143 l  220 -143 l  220 -374 l  p ef
pom
0.996 c 7599 4499 m  7938 4499 8198 4759 8198 5099 ct 8198 5439 7938 5699 7599 5699 ct 
7259 5699 6999 5439 6999 5099 ct 6999 4759 7259 4499 7599 4499 ct p
6999 4499 m  6999 4499 l  p
8199 5700 m  8199 5700 l  p ef
17.99625 lw 0.000 c 7598 4499 m  7938 4499 8198 4758 8198 5098 ct 8198 5438 7938 5698 7598 5698 ct 
7258 5698 6998 5438 6998 5098 ct 6998 4758 7258 4499 7598 4499 ct pc
6998 4499 m  6998 4499 l  pc
8199 5699 m  8199 5699 l  pc
pum
7423 5264 t
323 -228 m  323 -153 309 -95 282 -55 ct 255 -14 216 6 165 6 ct 131 6 104 -1 83 -16 ct 
62 -30 48 -53 39 -85 ct 92 -94 l  103 -57 128 -39 166 -39 ct 198 -39 223 -54 240 -84 ct 
258 -114 267 -156 268 -212 ct 260 -193 245 -178 225 -167 ct 205 -156 183 -150 159 -150 ct 
120 -150 89 -163 65 -190 ct 42 -217 30 -253 30 -297 ct 30 -343 43 -379 68 -405 ct 
94 -431 130 -444 175 -444 ct 224 -444 261 -426 286 -390 ct 311 -354 323 -300 323 -228 ct 
p
262 -282 m  262 -317 254 -345 238 -367 ct 222 -388 200 -399 173 -399 ct 146 -399 125 -390 110 -371 ct 
94 -353 87 -328 87 -297 ct 87 -265 94 -240 110 -222 ct 125 -203 146 -194 173 -194 ct 
189 -194 204 -198 218 -205 ct 232 -212 242 -223 250 -236 ct 258 -250 262 -265 262 -282 ct 
p ef
pom
0.996 c 11698 4499 m  12038 4499 12298 4759 12298 5099 ct 12298 5439 12038 5699 11698 5699 ct 
11358 5699 11098 5439 11098 5099 ct 11098 4759 11358 4499 11698 4499 ct p
11098 4499 m  11098 4499 l  p
12299 5700 m  12299 5700 l  p ef
0 lw 0.000 c 11697 4499 m  12037 4499 12297 4758 12297 5098 ct 12297 5438 12037 5698 11697 5698 ct 
11357 5698 11097 5438 11097 5098 ct 11097 4758 11357 4499 11697 4499 ct pc
11097 4499 m  11097 4499 l  pc
12298 5699 m  12298 5699 l  pc
pum
11522 5264 t
325 -121 m  325 -81 312 -49 287 -27 ct 261 -5 225 6 177 6 ct 133 6 98 -4 71 -24 ct 
45 -44 29 -73 24 -113 ct 82 -118 l  89 -66 121 -40 177 -40 ct 205 -40 227 -47 243 -61 ct 
259 -75 267 -96 267 -123 ct 267 -147 258 -165 240 -179 ct 222 -192 195 -199 161 -199 ct 
129 -199 l  129 -247 l  159 -247 l  190 -247 214 -254 231 -267 ct 247 -280 256 -299 256 -322 ct 
256 -346 249 -364 235 -378 ct 221 -391 201 -398 174 -398 ct 149 -398 129 -392 114 -379 ct 
99 -367 90 -349 88 -326 ct 32 -330 l  36 -366 51 -394 76 -414 ct 102 -434 134 -444 175 -444 ct 
218 -444 252 -434 277 -413 ct 301 -393 313 -365 313 -328 ct 313 -300 305 -278 290 -260 ct 
274 -243 251 -231 222 -225 ct 222 -223 l  254 -220 280 -209 298 -191 ct 316 -172 325 -149 325 -121 ct 
p ef
pom
0.996 c 9500 7300 m  9840 7300 10100 7560 10100 7900 ct 10100 8240 9840 8500 9500 8500 ct 
9160 8500 8900 8240 8900 7900 ct 8900 7560 9160 7300 9500 7300 ct p
8900 7300 m  8900 7300 l  p
10101 8501 m  10101 8501 l  p ef
0.000 c 9500 7300 m  9840 7300 10100 7560 10100 7900 ct 10100 8240 9840 8500 9500 8500 ct 
9160 8500 8900 8240 8900 7900 ct 8900 7560 9160 7300 9500 7300 ct pc
8900 7300 m  8900 7300 l  pc
10101 8501 m  10101 8501 l  pc
pum
9324 8065 t
32 0 m  32 -39 l  42 -64 55 -85 71 -104 ct 86 -122 102 -139 118 -154 ct 135 -169 152 -183 168 -196 ct 
185 -208 199 -221 213 -234 ct 226 -247 237 -260 245 -274 ct 253 -289 257 -304 257 -322 ct 
257 -346 250 -365 236 -378 ct 222 -391 202 -398 177 -398 ct 154 -398 134 -392 119 -379 ct 
103 -366 94 -348 91 -324 ct 34 -329 l  39 -364 53 -392 79 -413 ct 104 -434 137 -444 177 -444 ct 
221 -444 255 -434 279 -413 ct 303 -392 314 -362 314 -324 ct 314 -307 311 -290 303 -274 ct 
295 -257 283 -240 268 -223 ct 253 -206 224 -180 180 -145 ct 157 -126 138 -108 124 -93 ct 
110 -77 100 -62 93 -47 ct 321 -47 l  321 0 l  32 0 l  p ef
pom
0.996 c 13899 7300 m  14239 7300 14499 7560 14499 7900 ct 14499 8240 14239 8500 13899 8500 ct 
13559 8500 13299 8240 13299 7900 ct 13299 7560 13559 7300 13899 7300 ct p
13299 7300 m  13299 7300 l  p
14500 8501 m  14500 8501 l  p ef
0.000 c 13899 7300 m  14239 7300 14499 7560 14499 7900 ct 14499 8240 14239 8500 13899 8500 ct 
13559 8500 13299 8240 13299 7900 ct 13299 7560 13559 7300 13899 7300 ct pc
13299 7300 m  13299 7300 l  pc
14500 8501 m  14500 8501 l  pc
pum
13547 8065 t
32 0 m  32 -39 l  42 -64 55 -85 71 -104 ct 86 -122 102 -139 118 -154 ct 135 -169 152 -183 168 -196 ct 
185 -208 199 -221 213 -234 ct 226 -247 237 -260 245 -274 ct 253 -289 257 -304 257 -322 ct 
257 -346 250 -365 236 -378 ct 222 -391 202 -398 177 -398 ct 154 -398 134 -392 119 -379 ct 
103 -366 94 -348 91 -324 ct 34 -329 l  39 -364 53 -392 79 -413 ct 104 -434 137 -444 177 -444 ct 
221 -444 255 -434 279 -413 ct 303 -392 314 -362 314 -324 ct 314 -307 311 -290 303 -274 ct 
295 -257 283 -240 268 -223 ct 253 -206 224 -180 180 -145 ct 157 -126 138 -108 124 -93 ct 
110 -77 100 -62 93 -47 ct 321 -47 l  321 0 l  32 0 l  p ef
676 -121 m  676 -81 663 -49 638 -27 ct 612 -5 576 6 528 6 ct 484 6 449 -4 422 -24 ct 
396 -44 380 -73 375 -113 ct 433 -118 l  440 -66 472 -40 528 -40 ct 556 -40 578 -47 594 -61 ct 
610 -75 618 -96 618 -123 ct 618 -147 609 -165 591 -179 ct 573 -192 546 -199 512 -199 ct 
480 -199 l  480 -247 l  510 -247 l  541 -247 565 -254 582 -267 ct 598 -280 607 -299 607 -322 ct 
607 -346 600 -364 586 -378 ct 572 -391 552 -398 525 -398 ct 500 -398 480 -392 465 -379 ct 
450 -367 441 -349 439 -326 ct 383 -330 l  387 -366 402 -394 427 -414 ct 453 -434 485 -444 526 -444 ct 
569 -444 603 -434 628 -413 ct 652 -393 664 -365 664 -328 ct 664 -300 656 -278 641 -260 ct 
625 -243 602 -231 573 -225 ct 573 -223 l  605 -220 631 -209 649 -191 ct 667 -172 676 -149 676 -121 ct 
p ef
pom
9273 2624 m  7598 4499 l  ps
10123 2624 m  11697 4499 l  ps
11272 5523 m  9500 7300 l  ps
12122 5523 m  13899 7300 l  ps
0.996 c 4902 7301 m  5242 7301 5502 7561 5502 7901 ct 5502 8241 5242 8501 4902 8501 ct 
4562 8501 4302 8241 4302 7901 ct 4302 7561 4562 7301 4902 7301 ct p
4302 7301 m  4302 7301 l  p
5503 8502 m  5503 8502 l  p ef
0.000 c 4902 7301 m  5241 7301 5501 7561 5501 7901 ct 5501 8241 5241 8501 4902 8501 ct 
4562 8501 4302 8241 4302 7901 ct 4302 7561 4562 7301 4902 7301 ct pc
4302 7301 m  4302 7301 l  pc
5502 8502 m  5502 8502 l  pc
pum
4550 8066 t
325 -121 m  325 -81 312 -49 287 -27 ct 261 -5 225 6 177 6 ct 133 6 98 -4 71 -24 ct 
45 -44 29 -73 24 -113 ct 82 -118 l  89 -66 121 -40 177 -40 ct 205 -40 227 -47 243 -61 ct 
259 -75 267 -96 267 -123 ct 267 -147 258 -165 240 -179 ct 222 -192 195 -199 161 -199 ct 
129 -199 l  129 -247 l  159 -247 l  190 -247 214 -254 231 -267 ct 247 -280 256 -299 256 -322 ct 
256 -346 249 -364 235 -378 ct 221 -391 201 -398 174 -398 ct 149 -398 129 -392 114 -379 ct 
99 -367 90 -349 88 -326 ct 32 -330 l  36 -366 51 -394 76 -414 ct 102 -434 134 -444 175 -444 ct 
218 -444 252 -434 277 -413 ct 301 -393 313 -365 313 -328 ct 313 -300 305 -278 290 -260 ct 
274 -243 251 -231 222 -225 ct 222 -223 l  254 -220 280 -209 298 -191 ct 316 -172 325 -149 325 -121 ct 
p ef
399 0 m  399 -47 l  511 -47 l  511 -384 l  412 -314 l  412 -366 l  515 -438 l 
567 -438 l  567 -47 l  673 -47 l  673 0 l  399 0 l  p ef
pom
4902 7301 m  7173 5523 l  ps
0.996 c 7801 9501 m  8141 9501 8401 9761 8401 10101 ct 8401 10441 8141 10701 7801 10701 ct 
7462 10701 7202 10441 7202 10101 ct 7202 9761 7462 9501 7801 9501 ct p
7202 9501 m  7202 9501 l  p
8402 10702 m  8402 10702 l  p ef
0.000 c 7801 9500 m  8141 9500 8401 9760 8401 10100 ct 8401 10440 8141 10700 7801 10700 ct 
7461 10700 7201 10440 7201 10100 ct 7201 9760 7461 9500 7801 9500 ct pc
7201 9500 m  7201 9500 l  pc
8402 10701 m  8402 10701 l  pc
pum
7298 10266 t
48 0 m  48 -47 l  160 -47 l  160 -384 l  61 -314 l  61 -366 l  164 -438 l 
216 -438 l  216 -47 l  322 -47 l  322 0 l  48 0 l  p ef
353 0 m  353 -47 l  465 -47 l  465 -384 l  366 -314 l  366 -366 l  469 -438 l 
521 -438 l  521 -47 l  627 -47 l  627 0 l  353 0 l  p ef
977 -392 m  933 -324 901 -270 883 -232 ct 864 -193 850 -155 841 -117 ct 832 -79 827 -40 827 0 ct 
769 0 l  769 -56 781 -115 805 -177 ct 828 -238 868 -309 923 -390 ct 689 -390 l 
689 -437 l  977 -437 l  977 -392 l  p ef
pom
0.996 c 12201 9501 m  12541 9501 12800 9761 12800 10101 ct 12800 10441 12541 10701 12201 10701 ct 
11861 10701 11601 10441 11601 10101 ct 11601 9761 11861 9501 12201 9501 ct p
11601 9501 m  11601 9501 l  p
12801 10702 m  12801 10702 l  p ef
0.000 c 12200 9500 m  12540 9500 12800 9760 12800 10100 ct 12800 10440 12540 10700 12200 10700 ct 
11860 10700 11600 10440 11600 10100 ct 11600 9760 11860 9500 12200 9500 ct pc
11600 9500 m  11600 9500 l  pc
12801 10701 m  12801 10701 l  pc
pum
11849 10266 t
325 -121 m  325 -81 312 -49 287 -27 ct 261 -5 225 6 177 6 ct 133 6 98 -4 71 -24 ct 
45 -44 29 -73 24 -113 ct 82 -118 l  89 -66 121 -40 177 -40 ct 205 -40 227 -47 243 -61 ct 
259 -75 267 -96 267 -123 ct 267 -147 258 -165 240 -179 ct 222 -192 195 -199 161 -199 ct 
129 -199 l  129 -247 l  159 -247 l  190 -247 214 -254 231 -267 ct 247 -280 256 -299 256 -322 ct 
256 -346 249 -364 235 -378 ct 221 -391 201 -398 174 -398 ct 149 -398 129 -392 114 -379 ct 
99 -367 90 -349 88 -326 ct 32 -330 l  36 -366 51 -394 76 -414 ct 102 -434 134 -444 175 -444 ct 
218 -444 252 -434 277 -413 ct 301 -393 313 -365 313 -328 ct 313 -300 305 -278 290 -260 ct 
274 -243 251 -231 222 -225 ct 222 -223 l  254 -220 280 -209 298 -191 ct 316 -172 325 -149 325 -121 ct 
p ef
383 0 m  383 -39 l  393 -64 406 -85 422 -104 ct 437 -122 453 -139 469 -154 ct 
486 -169 503 -183 519 -196 ct 536 -208 550 -221 564 -234 ct 577 -247 588 -260 596 -274 ct 
604 -289 608 -304 608 -322 ct 608 -346 601 -365 587 -378 ct 573 -391 553 -398 528 -398 ct 
505 -398 485 -392 470 -379 ct 454 -366 445 -348 442 -324 ct 385 -329 l  390 -364 404 -392 430 -413 ct 
455 -434 488 -444 528 -444 ct 572 -444 606 -434 630 -413 ct 654 -392 665 -362 665 -324 ct 
665 -307 662 -290 654 -274 ct 646 -257 634 -240 619 -223 ct 604 -206 575 -180 531 -145 ct 
508 -126 489 -108 475 -93 ct 461 -77 451 -62 444 -47 ct 672 -47 l  672 0 l  383 0 l 
p ef
pom
7801 9500 m  9075 8325 l  ps
9925 8325 m  12200 9500 l  ps
0 9105 t 
pom
count op_count sub {pop} repeat countdictstack dict_count sub {end} repeat b4_inc_state restore
%%PageTrailer
%%Trailer
%%EOF
