%!PS-Adobe-3.0 EPSF-3.0 
%%BoundingBox: 0 0 275 47
%%Pages: 0
%%Creator: LibreOffice 5.3
%%Title: none
%%CreationDate: none
%%LanguageLevel: 2
%%EndComments
%%BeginProlog
%%BeginResource: procset SDRes-Prolog 1.0 0
/b4_inc_state save def
/dict_count countdictstack def
/op_count count 1 sub def
userdict begin
0 setgray 0 setlinecap 1 setlinewidth 0 setlinejoin 10 setmiterlimit[] 0 setdash newpath
/languagelevel where {pop languagelevel 1 ne {false setstrokeadjust false setoverprint} if} if
/bdef {bind def} bind def
/c {setgray} bdef
/l {neg lineto} bdef
/rl {neg rlineto} bdef
/lc {setlinecap} bdef
/lj {setlinejoin} bdef
/lw {setlinewidth} bdef
/ml {setmiterlimit} bdef
/ld {setdash} bdef
/m {neg moveto} bdef
/ct {6 2 roll neg 6 2 roll neg 6 2 roll neg curveto} bdef
/r {rotate} bdef
/t {neg translate} bdef
/s {scale} bdef
/sw {show} bdef
/gs {gsave} bdef
/gr {grestore} bdef
/f {findfont dup length dict begin
{1 index /FID ne {def} {pop pop} ifelse} forall /Encoding ISOLatin1Encoding def
currentdict end /NFont exch definefont pop /NFont findfont} bdef
/p {closepath} bdef
/sf {scalefont setfont} bdef
/ef {eofill}bdef
/pc {closepath stroke}bdef
/ps {stroke}bdef
/pum {matrix currentmatrix}bdef
/pom {setmatrix}bdef
/bs {/aString exch def /nXOfs exch def /nWidth exch def currentpoint nXOfs 0 rmoveto pum nWidth aString stringwidth pop div 1 scale aString show pom moveto} bdef
%%EndResource
%%EndProlog
%%BeginSetup
%%EndSetup
%%Page: 1 1
%%BeginPageSetup
%%EndPageSetup
pum
0.02839 0.02829 s 
0 -1661 t
/tm matrix currentmatrix def
tm setmatrix
-8130 -14039 t 
1 1 s 
0.996 c 10948 15681 m  9098 15681 l  9098 14083 l  12797 14083 l  12797 15681 l 
10948 15681 l  p ef
34.97533 lw 1 lj 0.000 c 10947 15681 m  9098 15681 l  9098 14083 l  12797 14083 l 
12797 15681 l  10947 15681 l  pc
0.996 c 10000 14285 m  10340 14285 10600 14544 10600 14884 ct 10600 15224 10340 15483 10000 15483 ct 
9660 15483 9400 15224 9400 14884 ct 9400 14544 9660 14285 10000 14285 ct p
9400 14285 m  9400 14285 l  p
10601 15484 m  10601 15484 l  p ef
0.000 c 9999 14284 m  10339 14284 10599 14544 10599 14884 ct 10599 15223 10339 15483 9999 15483 ct 
9660 15483 9400 15223 9400 14884 ct 9400 14544 9660 14284 9999 14284 ct pc
9400 14284 m  9400 14284 l  pc
10600 15484 m  10600 15484 l  pc
pum
9621 14944 t
150 7 m  107 7 76 -7 56 -36 ct 37 -65 27 -108 27 -165 ct 27 -282 68 -340 150 -340 ct 
175 -340 196 -336 213 -327 ct 229 -318 243 -303 254 -282 ct 255 -282 l  255 -288 255 -299 256 -314 ct 
257 -330 258 -337 258 -337 ct 312 -337 l  311 -325 310 -295 310 -246 ct 310 132 l 
254 132 l  254 -4 l  255 -54 l  255 -54 l  244 -32 230 -16 214 -7 ct 197 2 176 7 150 7 ct 
p
254 -171 m  254 -214 247 -246 233 -267 ct 219 -288 196 -299 165 -299 ct 136 -299 116 -288 104 -267 ct 
91 -246 85 -213 85 -167 ct 85 -120 91 -87 104 -66 ct 116 -46 136 -36 164 -36 ct 
196 -36 219 -47 233 -70 ct 247 -92 254 -126 254 -171 ct p ef
pom
pum
9972 15211 t
190 -126 m  190 -84 183 -52 168 -29 ct 153 -7 131 4 102 4 ct 73 4 51 -7 36 -29 ct 
22 -51 14 -84 14 -126 ct 14 -170 21 -202 36 -224 ct 50 -245 72 -256 103 -256 ct 
133 -256 155 -245 169 -223 ct 183 -202 190 -169 190 -126 ct p
157 -126 m  157 -163 153 -189 145 -205 ct 136 -222 122 -230 103 -230 ct 83 -230 69 -222 60 -206 ct 
51 -190 47 -163 47 -126 ct 47 -90 51 -64 60 -47 ct 69 -31 83 -22 102 -22 ct 121 -22 135 -31 144 -48 ct 
153 -65 157 -91 157 -126 ct p ef
231 0 m  231 -27 l  296 -27 l  296 -222 l  238 -181 l  238 -212 l  298 -253 l 
328 -253 l  328 -27 l  390 -27 l  390 0 l  231 0 l  p ef
pom
0.996 c 11900 14285 m  12239 14285 12499 14544 12499 14884 ct 12499 15224 12239 15483 11900 15483 ct 
11560 15483 11300 15224 11300 14884 ct 11300 14544 11560 14285 11900 14285 ct 
p
11300 14285 m  11300 14285 l  p
12500 15484 m  12500 15484 l  p ef
0.000 c 11899 14284 m  12239 14284 12499 14544 12499 14884 ct 12499 15223 12239 15483 11899 15483 ct 
11559 15483 11299 15223 11299 14884 ct 11299 14544 11559 14284 11899 14284 ct 
pc
11299 14284 m  11299 14284 l  pc
12500 15484 m  12500 15484 l  pc
pum
11572 14944 t
150 7 m  107 7 76 -7 56 -36 ct 37 -65 27 -108 27 -165 ct 27 -282 68 -340 150 -340 ct 
175 -340 196 -336 213 -327 ct 229 -318 243 -303 254 -282 ct 255 -282 l  255 -288 255 -299 256 -314 ct 
257 -330 258 -337 258 -337 ct 312 -337 l  311 -325 310 -295 310 -246 ct 310 132 l 
254 132 l  254 -4 l  255 -54 l  255 -54 l  244 -32 230 -16 214 -7 ct 197 2 176 7 150 7 ct 
p
254 -171 m  254 -214 247 -246 233 -267 ct 219 -288 196 -299 165 -299 ct 136 -299 116 -288 104 -267 ct 
91 -246 85 -213 85 -167 ct 85 -120 91 -87 104 -66 ct 116 -46 136 -36 164 -36 ct 
196 -36 219 -47 233 -70 ct 247 -92 254 -126 254 -171 ct p ef
pom
pum
11923 15211 t
65 -170 m  65 0 l  33 0 l  33 -170 l  5 -170 l  5 -194 l  33 -194 l  33 -216 l 
33 -234 36 -247 44 -254 ct 52 -262 64 -266 80 -266 ct 89 -266 97 -265 103 -264 ct 
103 -239 l  97 -240 93 -241 88 -241 ct 80 -241 74 -239 70 -234 ct 67 -230 65 -223 65 -211 ct 
65 -194 l  103 -194 l  103 -170 l  65 -170 l  p ef
130 0 m  130 -27 l  195 -27 l  195 -222 l  137 -181 l  137 -212 l  197 -253 l 
227 -253 l  227 -27 l  289 -27 l  289 0 l  130 0 l  p ef
pom
0.996 c 15947 15681 m  14097 15681 l  14097 14083 l  17796 14083 l  17796 15681 l 
15947 15681 l  p ef
0.000 c 15946 15681 m  14097 15681 l  14097 14083 l  17796 14083 l  17796 15681 l 
15946 15681 l  pc
0.996 c 14999 14285 m  15339 14285 15599 14544 15599 14884 ct 15599 15224 15339 15483 14999 15483 ct 
14659 15483 14399 15224 14399 14884 ct 14399 14544 14659 14285 14999 14285 ct 
p
14399 14285 m  14399 14285 l  p
15600 15484 m  15600 15484 l  p ef
0.000 c 14998 14284 m  15338 14284 15598 14544 15598 14884 ct 15598 15223 15338 15483 14998 15483 ct 
14658 15483 14399 15223 14399 14884 ct 14399 14544 14658 14284 14998 14284 ct 
pc
14399 14284 m  14399 14284 l  pc
15599 15484 m  15599 15484 l  pc
pum
14620 14944 t
150 7 m  107 7 76 -7 56 -36 ct 37 -65 27 -108 27 -165 ct 27 -282 68 -340 150 -340 ct 
175 -340 196 -336 213 -327 ct 229 -318 243 -303 254 -282 ct 255 -282 l  255 -288 255 -299 256 -314 ct 
257 -330 258 -337 258 -337 ct 312 -337 l  311 -325 310 -295 310 -246 ct 310 132 l 
254 132 l  254 -4 l  255 -54 l  255 -54 l  244 -32 230 -16 214 -7 ct 197 2 176 7 150 7 ct 
p
254 -171 m  254 -214 247 -246 233 -267 ct 219 -288 196 -299 165 -299 ct 136 -299 116 -288 104 -267 ct 
91 -246 85 -213 85 -167 ct 85 -120 91 -87 104 -66 ct 116 -46 136 -36 164 -36 ct 
196 -36 219 -47 233 -70 ct 247 -92 254 -126 254 -171 ct p ef
pom
pum
14971 15211 t
190 -126 m  190 -84 183 -52 168 -29 ct 153 -7 131 4 102 4 ct 73 4 51 -7 36 -29 ct 
22 -51 14 -84 14 -126 ct 14 -170 21 -202 36 -224 ct 50 -245 72 -256 103 -256 ct 
133 -256 155 -245 169 -223 ct 183 -202 190 -169 190 -126 ct p
157 -126 m  157 -163 153 -189 145 -205 ct 136 -222 122 -230 103 -230 ct 83 -230 69 -222 60 -206 ct 
51 -190 47 -163 47 -126 ct 47 -90 51 -64 60 -47 ct 69 -31 83 -22 102 -22 ct 121 -22 135 -31 144 -48 ct 
153 -65 157 -91 157 -126 ct p ef
222 0 m  222 -23 l  228 -37 235 -49 244 -60 ct 253 -71 262 -80 272 -89 ct 281 -98 291 -106 300 -113 ct 
310 -121 319 -128 326 -136 ct 334 -143 340 -151 345 -159 ct 350 -167 352 -176 352 -187 ct 
352 -200 348 -211 340 -219 ct 332 -227 320 -230 306 -230 ct 292 -230 281 -227 272 -219 ct 
263 -212 258 -201 256 -188 ct 223 -191 l  225 -211 234 -227 249 -239 ct 264 -251 283 -257 306 -257 ct 
331 -257 351 -251 365 -239 ct 378 -227 385 -210 385 -188 ct 385 -178 383 -168 378 -158 ct 
374 -149 367 -139 358 -129 ct 350 -120 333 -104 308 -84 ct 294 -73 283 -63 275 -54 ct 
267 -45 261 -36 257 -27 ct 389 -27 l  389 0 l  222 0 l  p ef
pom
0.996 c 16899 14285 m  17238 14285 17498 14544 17498 14884 ct 17498 15224 17238 15483 16899 15483 ct 
16559 15483 16299 15224 16299 14884 ct 16299 14544 16559 14285 16899 14285 ct 
p
16299 14285 m  16299 14285 l  p
17499 15484 m  17499 15484 l  p ef
0.000 c 16898 14284 m  17238 14284 17498 14544 17498 14884 ct 17498 15223 17238 15483 16898 15483 ct 
16558 15483 16298 15223 16298 14884 ct 16298 14544 16558 14284 16898 14284 ct 
pc
16298 14284 m  16298 14284 l  pc
17499 15484 m  17499 15484 l  pc
pum
16571 14944 t
150 7 m  107 7 76 -7 56 -36 ct 37 -65 27 -108 27 -165 ct 27 -282 68 -340 150 -340 ct 
175 -340 196 -336 213 -327 ct 229 -318 243 -303 254 -282 ct 255 -282 l  255 -288 255 -299 256 -314 ct 
257 -330 258 -337 258 -337 ct 312 -337 l  311 -325 310 -295 310 -246 ct 310 132 l 
254 132 l  254 -4 l  255 -54 l  255 -54 l  244 -32 230 -16 214 -7 ct 197 2 176 7 150 7 ct 
p
254 -171 m  254 -214 247 -246 233 -267 ct 219 -288 196 -299 165 -299 ct 136 -299 116 -288 104 -267 ct 
91 -246 85 -213 85 -167 ct 85 -120 91 -87 104 -66 ct 116 -46 136 -36 164 -36 ct 
196 -36 219 -47 233 -70 ct 247 -92 254 -126 254 -171 ct p ef
pom
pum
16922 15211 t
65 -170 m  65 0 l  33 0 l  33 -170 l  5 -170 l  5 -194 l  33 -194 l  33 -216 l 
33 -234 36 -247 44 -254 ct 52 -262 64 -266 80 -266 ct 89 -266 97 -265 103 -264 ct 
103 -239 l  97 -240 93 -241 88 -241 ct 80 -241 74 -239 70 -234 ct 67 -230 65 -223 65 -211 ct 
65 -194 l  103 -194 l  103 -170 l  65 -170 l  p ef
121 0 m  121 -23 l  127 -37 134 -49 143 -60 ct 152 -71 161 -80 171 -89 ct 180 -98 190 -106 199 -113 ct 
209 -121 218 -128 225 -136 ct 233 -143 239 -151 244 -159 ct 249 -167 251 -176 251 -187 ct 
251 -200 247 -211 239 -219 ct 231 -227 219 -230 205 -230 ct 191 -230 180 -227 171 -219 ct 
162 -212 157 -201 155 -188 ct 122 -191 l  124 -211 133 -227 148 -239 ct 163 -251 182 -257 205 -257 ct 
230 -257 250 -251 264 -239 ct 277 -227 284 -210 284 -188 ct 284 -178 282 -168 277 -158 ct 
273 -149 266 -139 257 -129 ct 249 -120 232 -104 207 -84 ct 193 -73 182 -63 174 -54 ct 
166 -45 160 -36 156 -27 ct 288 -27 l  288 0 l  121 0 l  p ef
pom
pum
13327 14824 t
141 -35 m  159 -35 177 -40 194 -49 ct 211 -58 226 -70 238 -85 ct 271 -54 l  254 -34 235 -19 212 -9 ct 
190 1 165 6 137 6 ct 100 6 71 -3 52 -20 ct 32 -37 22 -61 22 -91 ct 22 -114 29 -133 45 -148 ct 
60 -164 80 -172 103 -175 ct 103 -175 l  82 -178 64 -186 51 -200 ct 38 -214 32 -231 32 -252 ct 
32 -278 42 -300 63 -316 ct 84 -333 112 -341 146 -341 ct 198 -341 236 -322 262 -284 ct 
223 -257 l  204 -285 178 -300 146 -300 ct 127 -300 113 -295 103 -286 ct 93 -278 88 -266 88 -250 ct 
88 -232 96 -218 112 -209 ct 128 -200 157 -196 199 -196 ct 199 -154 l  167 -154 144 -152 128 -148 ct 
112 -144 100 -138 92 -129 ct 84 -120 80 -108 80 -92 ct 80 -74 85 -60 96 -50 ct 
107 -40 122 -35 141 -35 ct p ef
pom
pum
10628 14524 t
329 0 m  329 -226 l  329 -251 330 -275 331 -298 ct 323 -270 316 -247 310 -231 ct 
222 0 l  190 0 l  101 -231 l  88 -272 l  80 -298 l  80 -272 l  81 -226 l 
81 0 l  40 0 l  40 -339 l  101 -339 l  191 -104 l  194 -94 197 -84 200 -74 ct 
203 -63 205 -55 206 -50 ct 208 -56 210 -66 214 -79 ct 218 -92 221 -101 223 -104 ct 
311 -339 l  370 -339 l  370 0 l  329 0 l  p ef
pom
pum
11039 14730 t
22 0 m  22 -22 l  72 -22 l  72 -174 l  28 -142 l  28 -166 l  74 -198 l 
98 -198 l  98 -22 l  146 -22 l  146 0 l  22 0 l  p ef
pom
pum
15627 14525 t
329 0 m  329 -226 l  329 -251 330 -275 331 -298 ct 323 -270 316 -247 310 -231 ct 
222 0 l  190 0 l  101 -231 l  88 -272 l  80 -298 l  80 -272 l  81 -226 l 
81 0 l  40 0 l  40 -339 l  101 -339 l  191 -104 l  194 -94 197 -84 200 -74 ct 
203 -63 205 -55 206 -50 ct 208 -56 210 -66 214 -79 ct 218 -92 221 -101 223 -104 ct 
311 -339 l  370 -339 l  370 0 l  329 0 l  p ef
pom
pum
16038 14731 t
14 0 m  14 -18 l  19 -29 25 -38 32 -47 ct 39 -55 46 -63 54 -70 ct 61 -76 69 -83 76 -89 ct 
83 -94 90 -100 96 -106 ct 102 -112 107 -118 111 -124 ct 114 -131 116 -138 116 -146 ct 
116 -157 113 -165 107 -171 ct 100 -177 91 -180 80 -180 ct 69 -180 61 -177 54 -171 ct 
47 -166 43 -157 41 -147 ct 16 -149 l  17 -165 24 -178 36 -187 ct 47 -196 62 -201 80 -201 ct 
100 -201 115 -196 126 -187 ct 137 -177 142 -164 142 -147 ct 142 -139 140 -131 137 -124 ct 
133 -116 128 -109 121 -101 ct 114 -93 101 -82 82 -66 ct 71 -57 62 -49 56 -42 ct 
50 -35 45 -28 42 -22 ct 145 -22 l  145 0 l  14 0 l  p ef
pom
36 lw 12499 14884 m  13894 14884 l  ps
14399 14884 m  13871 14708 l  13871 15060 l  14399 14884 l  p ef
8148 14891 m  8895 14887 l  ps
9400 14884 m  8871 14711 l  8873 15063 l  9400 14884 l  p ef
0 1661 t 
pom
count op_count sub {pop} repeat countdictstack dict_count sub {end} repeat b4_inc_state restore
%%PageTrailer
%%Trailer
%%EOF
