%!PS-Adobe-3.0 EPSF-3.0 
%%BoundingBox: 0 0 273 149
%%Pages: 0
%%Creator: LibreOffice 5.3
%%Title: none
%%CreationDate: none
%%LanguageLevel: 2
%%EndComments
%%BeginProlog
%%BeginResource: procset SDRes-Prolog 1.0 0
/b4_inc_state save def
/dict_count countdictstack def
/op_count count 1 sub def
userdict begin
0 setgray 0 setlinecap 1 setlinewidth 0 setlinejoin 10 setmiterlimit[] 0 setdash newpath
/languagelevel where {pop languagelevel 1 ne {false setstrokeadjust false setoverprint} if} if
/bdef {bind def} bind def
/c {setgray} bdef
/l {neg lineto} bdef
/rl {neg rlineto} bdef
/lc {setlinecap} bdef
/lj {setlinejoin} bdef
/lw {setlinewidth} bdef
/ml {setmiterlimit} bdef
/ld {setdash} bdef
/m {neg moveto} bdef
/ct {6 2 roll neg 6 2 roll neg 6 2 roll neg curveto} bdef
/r {rotate} bdef
/t {neg translate} bdef
/s {scale} bdef
/sw {show} bdef
/gs {gsave} bdef
/gr {grestore} bdef
/f {findfont dup length dict begin
{1 index /FID ne {def} {pop pop} ifelse} forall /Encoding ISOLatin1Encoding def
currentdict end /NFont exch definefont pop /NFont findfont} bdef
/p {closepath} bdef
/sf {scalefont setfont} bdef
/ef {eofill}bdef
/pc {closepath stroke}bdef
/ps {stroke}bdef
/pum {matrix currentmatrix}bdef
/pom {setmatrix}bdef
/bs {/aString exch def /nXOfs exch def /nWidth exch def currentpoint nXOfs 0 rmoveto pum nWidth aString stringwidth pop div 1 scale aString show pom moveto} bdef
%%EndResource
%%EndProlog
%%BeginSetup
%%EndSetup
%%Page: 1 1
%%BeginPageSetup
%%EndPageSetup
pum
0.02838 0.02839 s 
0 -5247 t
/tm matrix currentmatrix def
tm setmatrix
-4302 -14195 t 
1 1 s 
0.996 c 10799 14296 m  11139 14296 11399 14555 11399 14895 ct 11399 15235 11139 15495 10799 15495 ct 
10459 15495 10199 15235 10199 14895 ct 10199 14555 10459 14296 10799 14296 ct 
p
10199 14296 m  10199 14296 l  p
11400 15496 m  11400 15496 l  p ef
34.98969 lw 1 lj 0.000 c 10798 14295 m  11138 14295 11398 14555 11398 14895 ct 
11398 15235 11138 15495 10798 15495 ct 10458 15495 10198 15235 10198 14895 ct 
10198 14555 10458 14295 10798 14295 ct pc
10198 14295 m  10198 14295 l  pc
11399 15496 m  11399 15496 l  pc
0.996 c 13099 14297 m  13439 14297 13699 14556 13699 14896 ct 13699 15236 13439 15496 13099 15496 ct 
12759 15496 12499 15236 12499 14896 ct 12499 14556 12759 14297 13099 14297 ct 
p
12499 14297 m  12499 14297 l  p
13700 15497 m  13700 15497 l  p ef
0.000 c 13099 14296 m  13439 14296 13699 14556 13699 14896 ct 13699 15236 13439 15496 13099 15496 ct 
12759 15496 12499 15236 12499 14896 ct 12499 14556 12759 14296 13099 14296 ct 
pc
12499 14296 m  12499 14296 l  pc
13700 15497 m  13700 15497 l  pc
36 lw 11399 14895 m  11995 14896 l  ps
12499 14896 m  11972 14720 l  11972 15072 l  12499 14896 l  p ef
pum
11548 14780 t
128 6 m  95 6 69 -3 52 -21 ct 35 -38 27 -63 27 -94 ct 27 -129 38 -155 61 -174 ct 
84 -192 121 -202 172 -204 ct 247 -205 l  247 -223 l  247 -250 241 -270 230 -282 ct 
218 -294 200 -299 175 -299 ct 150 -299 132 -295 121 -287 ct 109 -278 102 -265 100 -246 ct 
42 -251 l  51 -312 96 -342 176 -342 ct 219 -342 250 -332 272 -313 ct 293 -294 304 -266 304 -229 ct 
304 -85 l  304 -68 306 -55 310 -47 ct 314 -39 323 -35 335 -35 ct 340 -35 346 -35 353 -37 ct 
353 -2 l  339 1 325 3 310 3 ct 289 3 274 -2 265 -13 ct 256 -24 250 -41 249 -64 ct 
247 -64 l  233 -39 216 -21 197 -10 ct 178 1 155 6 128 6 ct p
141 -36 m  162 -36 180 -41 196 -50 ct 212 -59 224 -72 233 -88 ct 243 -104 247 -121 247 -138 ct 
247 -166 l  186 -165 l  160 -164 140 -161 126 -157 ct 113 -152 102 -144 95 -134 ct 
88 -123 84 -110 84 -93 ct 84 -75 89 -61 99 -51 ct 109 -41 123 -36 141 -36 ct p ef
pom
0.996 c 8500 14297 m  8840 14297 9100 14556 9100 14896 ct 9100 15236 8840 15496 8500 15496 ct 
8160 15496 7900 15236 7900 14896 ct 7900 14556 8160 14297 8500 14297 ct p
7900 14297 m  7900 14297 l  p
9101 15497 m  9101 15497 l  p ef
34.98969 lw 0.000 c 8500 14296 m  8840 14296 9100 14556 9100 14896 ct 9100 15236 8840 15496 8500 15496 ct 
8160 15496 7900 15236 7900 14896 ct 7900 14556 8160 14296 8500 14296 ct pc
7900 14296 m  7900 14296 l  pc
9101 15497 m  9101 15497 l  pc
0.996 c 6101 14297 m  6441 14297 6701 14556 6701 14896 ct 6701 15236 6441 15496 6101 15496 ct 
5761 15496 5501 15236 5501 14896 ct 5501 14556 5761 14297 6101 14297 ct p
5501 14297 m  5501 14297 l  p
6702 15497 m  6702 15497 l  p ef
0.000 c 6100 14296 m  6440 14296 6700 14556 6700 14896 ct 6700 15236 6440 15496 6100 15496 ct 
5760 15496 5500 15236 5500 14896 ct 5500 14556 5760 14296 6100 14296 ct pc
5500 14296 m  5500 14296 l  pc
6701 15497 m  6701 15497 l  pc
36 lw 6701 14896 m  7395 14896 l  ps
7900 14896 m  7372 14720 l  7372 15072 l  7900 14896 l  p ef
9100 14896 m  9694 14895 l  ps
10199 14895 m  9671 14719 l  9671 15071 l  10199 14895 l  p ef
pum
6850 14780 t
128 6 m  95 6 69 -3 52 -21 ct 35 -38 27 -63 27 -94 ct 27 -129 38 -155 61 -174 ct 
84 -192 121 -202 172 -204 ct 247 -205 l  247 -223 l  247 -250 241 -270 230 -282 ct 
218 -294 200 -299 175 -299 ct 150 -299 132 -295 121 -287 ct 109 -278 102 -265 100 -246 ct 
42 -251 l  51 -312 96 -342 176 -342 ct 219 -342 250 -332 272 -313 ct 293 -294 304 -266 304 -229 ct 
304 -85 l  304 -68 306 -55 310 -47 ct 314 -39 323 -35 335 -35 ct 340 -35 346 -35 353 -37 ct 
353 -2 l  339 1 325 3 310 3 ct 289 3 274 -2 265 -13 ct 256 -24 250 -41 249 -64 ct 
247 -64 l  233 -39 216 -21 197 -10 ct 178 1 155 6 128 6 ct p
141 -36 m  162 -36 180 -41 196 -50 ct 212 -59 224 -72 233 -88 ct 243 -104 247 -121 247 -138 ct 
247 -166 l  186 -165 l  160 -164 140 -161 126 -157 ct 113 -152 102 -144 95 -134 ct 
88 -123 84 -110 84 -93 ct 84 -75 89 -61 99 -51 ct 109 -41 123 -36 141 -36 ct p ef
pom
pum
9249 14780 t
141 -36 m  159 -36 177 -40 194 -49 ct 212 -59 226 -71 238 -86 ct 271 -55 l  254 -34 235 -19 212 -9 ct 
190 1 165 6 138 6 ct 100 6 72 -3 52 -20 ct 32 -37 22 -61 22 -92 ct 22 -115 29 -134 45 -149 ct 
60 -164 80 -173 104 -175 ct 104 -176 l  82 -179 64 -187 51 -201 ct 38 -215 32 -232 32 -253 ct 
32 -279 42 -301 63 -317 ct 84 -334 112 -342 146 -342 ct 198 -342 237 -323 263 -285 ct 
223 -257 l  204 -286 178 -300 146 -300 ct 128 -300 113 -296 103 -287 ct 93 -279 88 -267 88 -251 ct 
88 -233 96 -219 113 -210 ct 129 -201 158 -197 199 -197 ct 199 -155 l  168 -155 144 -153 128 -149 ct 
113 -145 101 -138 92 -130 ct 84 -121 80 -108 80 -93 ct 80 -75 85 -61 96 -51 ct 
107 -41 122 -36 141 -36 ct p ef
pom
0.996 c 10818 18221 m  11158 18221 11418 18481 11418 18821 ct 11418 19161 11158 19421 10818 19421 ct 
10478 19421 10218 19161 10218 18821 ct 10218 18481 10478 18221 10818 18221 ct 
p
10218 18221 m  10218 18221 l  p
11419 19422 m  11419 19422 l  p ef
34.98969 lw 0.000 c 10817 18221 m  11157 18221 11417 18480 11417 18820 ct 
11417 19160 11157 19420 10817 19420 ct 10477 19420 10217 19160 10217 18820 ct 
10217 18480 10477 18221 10817 18221 ct pc
10217 18221 m  10217 18221 l  pc
11418 19421 m  11418 19421 l  pc
0.996 c 13118 18222 m  13458 18222 13718 18482 13718 18822 ct 13718 19162 13458 19422 13118 19422 ct 
12778 19422 12518 19162 12518 18822 ct 12518 18482 12778 18222 13118 18222 ct 
p
12518 18222 m  12518 18222 l  p
13719 19423 m  13719 19423 l  p ef
0.000 c 13118 18222 m  13458 18222 13718 18481 13718 18821 ct 13718 19161 13458 19421 13118 19421 ct 
12778 19421 12518 19161 12518 18821 ct 12518 18481 12778 18222 13118 18222 ct 
pc
12518 18222 m  12518 18222 l  pc
13719 19422 m  13719 19422 l  pc
36 lw 11418 18821 m  12014 18822 l  ps
12518 18822 m  11991 18646 l  11991 18998 l  12518 18822 l  p ef
pum
11567 18706 t
326 -169 m  326 -52 285 7 203 7 ct 178 7 157 2 140 -7 ct 123 -16 109 -31 99 -51 ct 
98 -51 l  98 -45 98 -35 97 -22 ct 96 -9 95 -1 95 1 ct 41 1 l  42 -10 43 -33 43 -68 ct 
43 -460 l  99 -460 l  99 -328 l  99 -315 98 -299 97 -281 ct 99 -281 l  109 -302 123 -318 140 -327 ct 
157 -336 178 -341 203 -341 ct 245 -341 277 -327 297 -298 ct 317 -270 326 -227 326 -169 ct 
p
268 -167 m  268 -214 262 -247 249 -268 ct 237 -288 217 -298 189 -298 ct 157 -298 135 -287 120 -266 ct 
106 -244 99 -210 99 -163 ct 99 -119 106 -87 120 -66 ct 134 -45 157 -34 188 -34 ct 
216 -34 237 -45 249 -65 ct 262 -86 268 -120 268 -167 ct p ef
pom
0.996 c 8519 18222 m  8859 18222 9119 18482 9119 18822 ct 9119 19162 8859 19422 8519 19422 ct 
8179 19422 7919 19162 7919 18822 ct 7919 18482 8179 18222 8519 18222 ct p
7919 18222 m  7919 18222 l  p
9120 19423 m  9120 19423 l  p ef
34.98969 lw 0.000 c 8519 18222 m  8859 18222 9119 18481 9119 18821 ct 9119 19161 8859 19421 8519 19421 ct 
8179 19421 7919 19161 7919 18821 ct 7919 18481 8179 18222 8519 18222 ct pc
7919 18222 m  7919 18222 l  pc
9120 19422 m  9120 19422 l  pc
0.996 c 6120 18222 m  6460 18222 6720 18482 6720 18822 ct 6720 19162 6460 19422 6120 19422 ct 
5780 19422 5520 19162 5520 18822 ct 5520 18482 5780 18222 6120 18222 ct p
5520 18222 m  5520 18222 l  p
6721 19423 m  6721 19423 l  p ef
0.000 c 6119 18222 m  6459 18222 6719 18481 6719 18821 ct 6719 19161 6459 19421 6119 19421 ct 
5779 19421 5519 19161 5519 18821 ct 5519 18481 5779 18222 6119 18222 ct pc
5519 18222 m  5519 18222 l  pc
6720 19422 m  6720 19422 l  pc
36 lw 6720 18822 m  7414 18822 l  ps
7919 18822 m  7391 18646 l  7391 18998 l  7919 18822 l  p ef
9119 18822 m  9713 18821 l  ps
10218 18821 m  9690 18645 l  9690 18997 l  10218 18821 l  p ef
pum
6869 18706 t
326 -169 m  326 -52 285 7 203 7 ct 178 7 157 2 140 -7 ct 123 -16 109 -31 99 -51 ct 
98 -51 l  98 -45 98 -35 97 -22 ct 96 -9 95 -1 95 1 ct 41 1 l  42 -10 43 -33 43 -68 ct 
43 -460 l  99 -460 l  99 -328 l  99 -315 98 -299 97 -281 ct 99 -281 l  109 -302 123 -318 140 -327 ct 
157 -336 178 -341 203 -341 ct 245 -341 277 -327 297 -298 ct 317 -270 326 -227 326 -169 ct 
p
268 -167 m  268 -214 262 -247 249 -268 ct 237 -288 217 -298 189 -298 ct 157 -298 135 -287 120 -266 ct 
106 -244 99 -210 99 -163 ct 99 -119 106 -87 120 -66 ct 134 -45 157 -34 188 -34 ct 
216 -34 237 -45 249 -65 ct 262 -86 268 -120 268 -167 ct p ef
pom
pum
9268 18706 t
141 -36 m  159 -36 177 -40 194 -49 ct 212 -59 226 -71 238 -86 ct 271 -55 l  254 -34 235 -19 212 -9 ct 
190 1 165 6 138 6 ct 100 6 72 -3 52 -20 ct 32 -37 22 -61 22 -92 ct 22 -115 29 -134 45 -149 ct 
60 -164 80 -173 104 -175 ct 104 -176 l  82 -179 64 -187 51 -201 ct 38 -215 32 -232 32 -253 ct 
32 -279 42 -301 63 -317 ct 84 -334 112 -342 146 -342 ct 198 -342 237 -323 263 -285 ct 
223 -257 l  204 -286 178 -300 146 -300 ct 128 -300 113 -296 103 -287 ct 93 -279 88 -267 88 -251 ct 
88 -233 96 -219 113 -210 ct 129 -201 158 -197 199 -197 ct 199 -155 l  168 -155 144 -153 128 -149 ct 
113 -145 101 -138 92 -130 ct 84 -121 80 -108 80 -93 ct 80 -75 85 -61 96 -51 ct 
107 -41 122 -36 141 -36 ct p ef
pom
0.996 c 6121 16224 m  6461 16224 6721 16484 6721 16824 ct 6721 17163 6461 17423 6121 17423 ct 
5781 17423 5521 17163 5521 16824 ct 5521 16484 5781 16224 6121 16224 ct p
5521 16224 m  5521 16224 l  p
6722 17424 m  6722 17424 l  p ef
34.98969 lw 0.000 c 6120 16223 m  6460 16223 6720 16483 6720 16823 ct 6720 17163 6460 17423 6120 17423 ct 
5780 17423 5520 17163 5520 16823 ct 5520 16483 5780 16223 6120 16223 ct pc
5520 16223 m  5520 16223 l  pc
6721 17424 m  6721 17424 l  pc
0.996 c 13120 16225 m  13460 16225 13720 16485 13720 16825 ct 13720 17164 13460 17424 13120 17424 ct 
12780 17424 12520 17164 12520 16825 ct 12520 16485 12780 16225 13120 16225 ct 
p
12520 16225 m  12520 16225 l  p
13721 17425 m  13721 17425 l  p ef
105.96878 lw 0.000 c 13120 16224 m  13460 16224 13720 16484 13720 16824 ct 
13720 17164 13460 17424 13120 17424 ct 12780 17424 12520 17164 12520 16824 ct 
12520 16484 12780 16224 13120 16224 ct pc
12520 16224 m  12520 16224 l  pc
13721 17425 m  13721 17425 l  pc
1 lw 4303 16821 m  5091 16823 l  ps
5521 16824 m  5071 16673 l  5071 16973 l  5521 16824 l  p ef
36 lw 6121 16224 m  6115 16000 l  ps
6101 15496 m  5940 16029 l  6291 16019 l  6101 15496 l  p ef
6121 17423 m  6121 17717 l  ps
6120 18222 m  6297 17694 l  5945 17694 l  6120 18222 l  p ef
13099 15496 m  13105 15721 l  ps
13120 16225 m  13281 15692 l  12929 15702 l  13120 16225 l  p ef
13118 18222 m  13119 17929 l  ps
13120 17424 m  12943 17952 l  13295 17952 l  13120 17424 l  p ef
pum
5550 16080 t
141 -36 m  159 -36 177 -40 194 -49 ct 212 -59 226 -71 238 -86 ct 271 -55 l  254 -34 235 -19 212 -9 ct 
190 1 165 6 138 6 ct 100 6 72 -3 52 -20 ct 32 -37 22 -61 22 -92 ct 22 -115 29 -134 45 -149 ct 
60 -164 80 -173 104 -175 ct 104 -176 l  82 -179 64 -187 51 -201 ct 38 -215 32 -232 32 -253 ct 
32 -279 42 -301 63 -317 ct 84 -334 112 -342 146 -342 ct 198 -342 237 -323 263 -285 ct 
223 -257 l  204 -286 178 -300 146 -300 ct 128 -300 113 -296 103 -287 ct 93 -279 88 -267 88 -251 ct 
88 -233 96 -219 113 -210 ct 129 -201 158 -197 199 -197 ct 199 -155 l  168 -155 144 -153 128 -149 ct 
113 -145 101 -138 92 -130 ct 84 -121 80 -108 80 -93 ct 80 -75 85 -61 96 -51 ct 
107 -41 122 -36 141 -36 ct p ef
pom
pum
5550 18079 t
141 -36 m  159 -36 177 -40 194 -49 ct 212 -59 226 -71 238 -86 ct 271 -55 l  254 -34 235 -19 212 -9 ct 
190 1 165 6 138 6 ct 100 6 72 -3 52 -20 ct 32 -37 22 -61 22 -92 ct 22 -115 29 -134 45 -149 ct 
60 -164 80 -173 104 -175 ct 104 -176 l  82 -179 64 -187 51 -201 ct 38 -215 32 -232 32 -253 ct 
32 -279 42 -301 63 -317 ct 84 -334 112 -342 146 -342 ct 198 -342 237 -323 263 -285 ct 
223 -257 l  204 -286 178 -300 146 -300 ct 128 -300 113 -296 103 -287 ct 93 -279 88 -267 88 -251 ct 
88 -233 96 -219 113 -210 ct 129 -201 158 -197 199 -197 ct 199 -155 l  168 -155 144 -153 128 -149 ct 
113 -145 101 -138 92 -130 ct 84 -121 80 -108 80 -93 ct 80 -75 85 -61 96 -51 ct 
107 -41 122 -36 141 -36 ct p ef
pom
pum
13348 18079 t
141 -36 m  159 -36 177 -40 194 -49 ct 212 -59 226 -71 238 -86 ct 271 -55 l  254 -34 235 -19 212 -9 ct 
190 1 165 6 138 6 ct 100 6 72 -3 52 -20 ct 32 -37 22 -61 22 -92 ct 22 -115 29 -134 45 -149 ct 
60 -164 80 -173 104 -175 ct 104 -176 l  82 -179 64 -187 51 -201 ct 38 -215 32 -232 32 -253 ct 
32 -279 42 -301 63 -317 ct 84 -334 112 -342 146 -342 ct 198 -342 237 -323 263 -285 ct 
223 -257 l  204 -286 178 -300 146 -300 ct 128 -300 113 -296 103 -287 ct 93 -279 88 -267 88 -251 ct 
88 -233 96 -219 113 -210 ct 129 -201 158 -197 199 -197 ct 199 -155 l  168 -155 144 -153 128 -149 ct 
113 -145 101 -138 92 -130 ct 84 -121 80 -108 80 -93 ct 80 -75 85 -61 96 -51 ct 
107 -41 122 -36 141 -36 ct p ef
pom
pum
13348 16080 t
141 -36 m  159 -36 177 -40 194 -49 ct 212 -59 226 -71 238 -86 ct 271 -55 l  254 -34 235 -19 212 -9 ct 
190 1 165 6 138 6 ct 100 6 72 -3 52 -20 ct 32 -37 22 -61 22 -92 ct 22 -115 29 -134 45 -149 ct 
60 -164 80 -173 104 -175 ct 104 -176 l  82 -179 64 -187 51 -201 ct 38 -215 32 -232 32 -253 ct 
32 -279 42 -301 63 -317 ct 84 -334 112 -342 146 -342 ct 198 -342 237 -323 263 -285 ct 
223 -257 l  204 -286 178 -300 146 -300 ct 128 -300 113 -296 103 -287 ct 93 -279 88 -267 88 -251 ct 
88 -233 96 -219 113 -210 ct 129 -201 158 -197 199 -197 ct 199 -155 l  168 -155 144 -153 128 -149 ct 
113 -145 101 -138 92 -130 ct 84 -121 80 -108 80 -93 ct 80 -75 85 -61 96 -51 ct 
107 -41 122 -36 141 -36 ct p ef
pom
0 5247 t 
pom
count op_count sub {pop} repeat countdictstack dict_count sub {end} repeat b4_inc_state restore
%%PageTrailer
%%Trailer
%%EOF
