%!PS-Adobe-3.0 EPSF-3.0 
%%BoundingBox: 0 0 262 38
%%Pages: 0
%%Creator: LibreOffice 5.3
%%Title: none
%%CreationDate: none
%%LanguageLevel: 2
%%EndComments
%%BeginProlog
%%BeginResource: procset SDRes-Prolog 1.0 0
/b4_inc_state save def
/dict_count countdictstack def
/op_count count 1 sub def
userdict begin
0 setgray 0 setlinecap 1 setlinewidth 0 setlinejoin 10 setmiterlimit[] 0 setdash newpath
/languagelevel where {pop languagelevel 1 ne {false setstrokeadjust false setoverprint} if} if
/bdef {bind def} bind def
/c {setgray} bdef
/l {neg lineto} bdef
/rl {neg rlineto} bdef
/lc {setlinecap} bdef
/lj {setlinejoin} bdef
/lw {setlinewidth} bdef
/ml {setmiterlimit} bdef
/ld {setdash} bdef
/m {neg moveto} bdef
/ct {6 2 roll neg 6 2 roll neg 6 2 roll neg curveto} bdef
/r {rotate} bdef
/t {neg translate} bdef
/s {scale} bdef
/sw {show} bdef
/gs {gsave} bdef
/gr {grestore} bdef
/f {findfont dup length dict begin
{1 index /FID ne {def} {pop pop} ifelse} forall /Encoding ISOLatin1Encoding def
currentdict end /NFont exch definefont pop /NFont findfont} bdef
/p {closepath} bdef
/sf {scalefont setfont} bdef
/ef {eofill}bdef
/pc {closepath stroke}bdef
/ps {stroke}bdef
/pum {matrix currentmatrix}bdef
/pom {setmatrix}bdef
/bs {/aString exch def /nXOfs exch def /nWidth exch def currentpoint nXOfs 0 rmoveto pum nWidth aString stringwidth pop div 1 scale aString show pom moveto} bdef
%%EndResource
%%EndProlog
%%BeginSetup
%%EndSetup
%%Page: 1 1
%%BeginPageSetup
%%EndPageSetup
pum
0.02836 0.02802 s 
0 -1356 t
/tm matrix currentmatrix def
tm setmatrix
-4518 -14190 t 
1 1 s 
0.996 c 10797 14290 m  11137 14290 11397 14550 11397 14890 ct 11397 15230 11137 15490 10797 15490 ct 
10458 15490 10198 15230 10198 14890 ct 10198 14550 10458 14290 10797 14290 ct 
p
10198 14290 m  10198 14290 l  p
11398 15491 m  11398 15491 l  p ef
34.98142 lw 1 lj 0.000 c 10797 14290 m  11137 14290 11397 14550 11397 14890 ct 
11397 15229 11137 15489 10797 15489 ct 10457 15489 10197 15229 10197 14890 ct 
10197 14550 10457 14290 10797 14290 ct pc
10197 14290 m  10197 14290 l  pc
11398 15490 m  11398 15490 l  pc
0.996 c 13098 14291 m  13438 14291 13698 14551 13698 14891 ct 13698 15231 13438 15491 13098 15491 ct 
12758 15491 12498 15231 12498 14891 ct 12498 14551 12758 14291 13098 14291 ct 
p
12498 14291 m  12498 14291 l  p
13699 15492 m  13699 15492 l  p ef
105.94373 lw 0.000 c 13097 14291 m  13437 14291 13697 14551 13697 14891 ct 
13697 15230 13437 15490 13097 15490 ct 12757 15490 12497 15230 12497 14891 ct 
12497 14551 12757 14291 13097 14291 ct pc
12497 14291 m  12497 14291 l  pc
13698 15491 m  13698 15491 l  pc
36 lw 11397 14890 m  11993 14891 l  ps
12498 14891 m  11970 14715 l  11970 15067 l  12498 14891 l  p ef
pum
11546 14775 t
326 -169 m  326 -52 285 7 203 7 ct 178 7 157 2 140 -7 ct 123 -16 109 -31 99 -51 ct 
98 -51 l  98 -45 98 -35 97 -22 ct 96 -9 95 -1 95 1 ct 41 1 l  42 -10 43 -33 43 -68 ct 
43 -460 l  99 -460 l  99 -328 l  99 -315 98 -299 97 -281 ct 99 -281 l  109 -302 123 -318 140 -327 ct 
157 -336 178 -341 203 -341 ct 245 -341 277 -327 297 -298 ct 317 -270 326 -227 326 -169 ct 
p
268 -167 m  268 -214 262 -247 249 -268 ct 237 -288 217 -298 189 -298 ct 157 -298 135 -287 120 -266 ct 
106 -244 99 -210 99 -163 ct 99 -119 106 -87 120 -66 ct 134 -45 157 -34 188 -34 ct 
216 -34 237 -45 249 -65 ct 262 -86 268 -120 268 -167 ct p ef
pom
0.996 c 8499 14291 m  8839 14291 9099 14551 9099 14891 ct 9099 15231 8839 15491 8499 15491 ct 
8159 15491 7899 15231 7899 14891 ct 7899 14551 8159 14291 8499 14291 ct p
7899 14291 m  7899 14291 l  p
9100 15492 m  9100 15492 l  p ef
34.98142 lw 0.000 c 8499 14291 m  8839 14291 9099 14551 9099 14891 ct 9099 15230 8839 15490 8499 15490 ct 
8159 15490 7899 15230 7899 14891 ct 7899 14551 8159 14291 8499 14291 ct pc
7899 14291 m  7899 14291 l  pc
9100 15491 m  9100 15491 l  pc
0.996 c 6100 14291 m  6440 14291 6700 14551 6700 14891 ct 6700 15231 6440 15491 6100 15491 ct 
5760 15491 5500 15231 5500 14891 ct 5500 14551 5760 14291 6100 14291 ct p
5500 14291 m  5500 14291 l  p
6701 15492 m  6701 15492 l  p ef
0.000 c 6100 14291 m  6439 14291 6699 14551 6699 14891 ct 6699 15230 6439 15490 6100 15490 ct 
5760 15490 5500 15230 5500 14891 ct 5500 14551 5760 14291 6100 14291 ct pc
5500 14291 m  5500 14291 l  pc
6700 15491 m  6700 15491 l  pc
36 lw 6700 14891 m  7395 14891 l  ps
7899 14891 m  7372 14715 l  7372 15067 l  7899 14891 l  p ef
9099 14891 m  9693 14890 l  ps
10198 14890 m  9670 14714 l  9670 15066 l  10198 14890 l  p ef
4536 14899 m  4995 14895 l  ps
5500 14891 m  4971 14719 l  4973 15071 l  5500 14891 l  p ef
pum
6849 14775 t
326 -169 m  326 -52 285 7 203 7 ct 178 7 157 2 140 -7 ct 123 -16 109 -31 99 -51 ct 
98 -51 l  98 -45 98 -35 97 -22 ct 96 -9 95 -1 95 1 ct 41 1 l  42 -10 43 -33 43 -68 ct 
43 -460 l  99 -460 l  99 -328 l  99 -315 98 -299 97 -281 ct 99 -281 l  109 -302 123 -318 140 -327 ct 
157 -336 178 -341 203 -341 ct 245 -341 277 -327 297 -298 ct 317 -270 326 -227 326 -169 ct 
p
268 -167 m  268 -214 262 -247 249 -268 ct 237 -288 217 -298 189 -298 ct 157 -298 135 -287 120 -266 ct 
106 -244 99 -210 99 -163 ct 99 -119 106 -87 120 -66 ct 134 -45 157 -34 188 -34 ct 
216 -34 237 -45 249 -65 ct 262 -86 268 -120 268 -167 ct p ef
pom
pum
9248 14775 t
141 -36 m  159 -36 177 -40 194 -49 ct 212 -59 226 -71 238 -86 ct 271 -55 l  254 -34 235 -19 212 -9 ct 
190 1 165 6 138 6 ct 100 6 72 -3 52 -20 ct 32 -37 22 -61 22 -92 ct 22 -115 29 -134 45 -149 ct 
60 -164 80 -173 104 -175 ct 104 -176 l  82 -179 64 -187 51 -201 ct 38 -215 32 -232 32 -253 ct 
32 -279 42 -301 63 -317 ct 84 -334 112 -342 146 -342 ct 198 -342 237 -323 263 -285 ct 
223 -257 l  204 -286 178 -300 146 -300 ct 128 -300 113 -296 103 -287 ct 93 -279 88 -267 88 -251 ct 
88 -233 96 -219 113 -210 ct 129 -201 158 -197 199 -197 ct 199 -155 l  168 -155 144 -153 128 -149 ct 
113 -145 101 -138 92 -130 ct 84 -121 80 -108 80 -93 ct 80 -75 85 -61 96 -51 ct 
107 -41 122 -36 141 -36 ct p ef
pom
0 1356 t 
pom
count op_count sub {pop} repeat countdictstack dict_count sub {end} repeat b4_inc_state restore
%%PageTrailer
%%Trailer
%%EOF
