%!PS-Adobe-3.0 EPSF-3.0 
%%BoundingBox: 0 0 354 146
%%Pages: 0
%%Creator: LibreOffice 5.4
%%Title: none
%%CreationDate: none
%%LanguageLevel: 2
%%EndComments
%%BeginProlog
%%BeginResource: procset SDRes-Prolog 1.0 0
/b4_inc_state save def
/dict_count countdictstack def
/op_count count 1 sub def
userdict begin
0 setgray 0 setlinecap 1 setlinewidth 0 setlinejoin 10 setmiterlimit[] 0 setdash newpath
/languagelevel where {pop languagelevel 1 ne {false setstrokeadjust false setoverprint} if} if
/bdef {bind def} bind def
/c {setgray} bdef
/l {neg lineto} bdef
/rl {neg rlineto} bdef
/lc {setlinecap} bdef
/lj {setlinejoin} bdef
/lw {setlinewidth} bdef
/ml {setmiterlimit} bdef
/ld {setdash} bdef
/m {neg moveto} bdef
/ct {6 2 roll neg 6 2 roll neg 6 2 roll neg curveto} bdef
/r {rotate} bdef
/t {neg translate} bdef
/s {scale} bdef
/sw {show} bdef
/gs {gsave} bdef
/gr {grestore} bdef
/f {findfont dup length dict begin
{1 index /FID ne {def} {pop pop} ifelse} forall /Encoding ISOLatin1Encoding def
currentdict end /NFont exch definefont pop /NFont findfont} bdef
/p {closepath} bdef
/sf {scalefont setfont} bdef
/ef {eofill}bdef
/pc {closepath stroke}bdef
/ps {stroke}bdef
/pum {matrix currentmatrix}bdef
/pom {setmatrix}bdef
/bs {/aString exch def /nXOfs exch def /nWidth exch def currentpoint nXOfs 0 rmoveto pum nWidth aString stringwidth pop div 1 scale aString show pom moveto} bdef
%%EndResource
%%EndProlog
%%BeginSetup
%%EndSetup
%%Page: 1 1
%%BeginPageSetup
%%EndPageSetup
pum
0.02832 0.02832 s 
0 -5155 t
/tm matrix currentmatrix def
tm setmatrix
-4700 -11192 t 
1 1 s 
0.996 c 8299 12193 m  8639 12193 8899 12453 8899 12793 ct 8899 13132 8639 13392 8299 13392 ct 
7959 13392 7699 13132 7699 12793 ct 7699 12453 7959 12193 8299 12193 ct p
7699 12193 m  7699 12193 l  p
8900 13393 m  8900 13393 l  p ef
0 lw 1 lj 0.000 c 8299 12192 m  8639 12192 8899 12452 8899 12792 ct 8899 13132 8639 13392 8299 13392 ct 
7959 13392 7699 13132 7699 12792 ct 7699 12452 7959 12192 8299 12192 ct pc
7699 12192 m  7699 12192 l  pc
8900 13393 m  8900 13393 l  pc
pum
8022 12853 t
150 6 m  107 6 76 -8 56 -37 ct 37 -66 27 -109 27 -166 ct 27 -283 68 -342 150 -342 ct 
175 -342 196 -338 213 -329 ct 230 -320 243 -305 255 -284 ct 255 -284 l  255 -290 256 -301 256 -316 ct 
257 -332 258 -339 259 -339 ct 313 -339 l  311 -327 310 -297 310 -248 ct 310 132 l 
255 132 l  255 -4 l  256 -55 l  255 -55 l  244 -33 230 -17 214 -8 ct 198 1 176 6 150 6 ct 
p
255 -172 m  255 -216 247 -248 233 -269 ct 219 -290 196 -301 165 -301 ct 137 -301 116 -290 104 -269 ct 
91 -248 85 -214 85 -168 ct 85 -121 92 -88 104 -67 ct 117 -47 137 -37 164 -37 ct 
196 -37 219 -48 233 -71 ct 247 -93 255 -127 255 -172 ct p ef
pom
pum
8373 13119 t
190 -126 m  190 -84 183 -52 168 -29 ct 153 -7 131 4 102 4 ct 73 4 51 -7 36 -29 ct 
22 -51 14 -84 14 -126 ct 14 -170 21 -202 36 -224 ct 50 -245 72 -256 103 -256 ct 
133 -256 155 -245 169 -223 ct 183 -202 190 -169 190 -126 ct p
157 -126 m  157 -163 153 -189 145 -205 ct 136 -222 122 -230 103 -230 ct 83 -230 69 -222 60 -206 ct 
51 -190 47 -163 47 -126 ct 47 -90 51 -64 60 -47 ct 69 -31 83 -22 102 -22 ct 121 -22 135 -31 144 -48 ct 
153 -65 157 -91 157 -126 ct p ef
pom
0.996 c 13599 12193 m  13939 12193 14199 12453 14199 12793 ct 14199 13132 13939 13392 13599 13392 ct 
13259 13392 12999 13132 12999 12793 ct 12999 12453 13259 12193 13599 12193 ct 
p
12999 12193 m  12999 12193 l  p
14200 13393 m  14200 13393 l  p ef
0.000 c 13598 12192 m  13938 12192 14198 12452 14198 12792 ct 14198 13132 13938 13392 13598 13392 ct 
13258 13392 12998 13132 12998 12792 ct 12998 12452 13258 12192 13598 12192 ct 
pc
12998 12192 m  12998 12192 l  pc
14199 13393 m  14199 13393 l  pc
pum
13322 12853 t
150 6 m  107 6 76 -8 56 -37 ct 37 -66 27 -109 27 -166 ct 27 -283 68 -342 150 -342 ct 
175 -342 196 -338 213 -329 ct 230 -320 243 -305 255 -284 ct 255 -284 l  255 -290 256 -301 256 -316 ct 
257 -332 258 -339 259 -339 ct 313 -339 l  311 -327 310 -297 310 -248 ct 310 132 l 
255 132 l  255 -4 l  256 -55 l  255 -55 l  244 -33 230 -17 214 -8 ct 198 1 176 6 150 6 ct 
p
255 -172 m  255 -216 247 -248 233 -269 ct 219 -290 196 -301 165 -301 ct 137 -301 116 -290 104 -269 ct 
91 -248 85 -214 85 -168 ct 85 -121 92 -88 104 -67 ct 117 -47 137 -37 164 -37 ct 
196 -37 219 -48 233 -71 ct 247 -93 255 -127 255 -172 ct p ef
pom
pum
13673 13119 t
28 0 m  28 -27 l  93 -27 l  93 -222 l  35 -181 l  35 -212 l  95 -253 l 
125 -253 l  125 -27 l  187 -27 l  187 0 l  28 0 l  p ef
pom
0.996 c 10800 15092 m  11140 15092 11400 15352 11400 15692 ct 11400 16032 11140 16292 10800 16292 ct 
10460 16292 10200 16032 10200 15692 ct 10200 15352 10460 15092 10800 15092 ct 
p
10200 15092 m  10200 15092 l  p
11401 16293 m  11401 16293 l  p ef
105.96492 lw 0.000 c 10800 15092 m  11140 15092 11400 15352 11400 15691 ct 
11400 16031 11140 16291 10800 16291 ct 10460 16291 10200 16031 10200 15691 ct 
10200 15352 10460 15092 10800 15092 ct pc
10200 15092 m  10200 15092 l  pc
11401 16292 m  11401 16292 l  pc
pum
10573 15752 t
150 6 m  107 6 76 -8 56 -37 ct 37 -66 27 -109 27 -166 ct 27 -283 68 -342 150 -342 ct 
175 -342 196 -338 213 -329 ct 230 -320 243 -305 255 -284 ct 255 -284 l  255 -290 256 -301 256 -316 ct 
257 -332 258 -339 259 -339 ct 313 -339 l  311 -327 310 -297 310 -248 ct 310 132 l 
255 132 l  255 -4 l  256 -55 l  255 -55 l  244 -33 230 -17 214 -8 ct 198 1 176 6 150 6 ct 
p
255 -172 m  255 -216 247 -248 233 -269 ct 219 -290 196 -301 165 -301 ct 137 -301 116 -290 104 -269 ct 
91 -248 85 -214 85 -168 ct 85 -121 92 -88 104 -67 ct 117 -47 137 -37 164 -37 ct 
196 -37 219 -48 233 -71 ct 247 -93 255 -127 255 -172 ct p ef
pom
pum
10924 16019 t
65 -170 m  65 0 l  33 0 l  33 -170 l  5 -170 l  5 -194 l  33 -194 l  33 -216 l 
33 -234 36 -247 44 -254 ct 52 -262 64 -266 80 -266 ct 89 -266 97 -265 103 -264 ct 
103 -239 l  97 -240 93 -241 88 -241 ct 80 -241 74 -239 70 -234 ct 67 -230 65 -223 65 -211 ct 
65 -194 l  103 -194 l  103 -170 l  65 -170 l  p ef
pom
1 lw 8299 11193 m  8299 11763 l  ps
8299 12193 m  8449 11743 l  8149 11743 l  8299 12193 l  p ef
8899 12793 m  12569 12793 l  ps
12999 12793 m  12549 12643 l  12549 12942 l  12999 12793 l  p ef
8724 13217 m  10105 14932 l  ps
10375 15267 m  10210 14822 l  9976 15011 l  10375 15267 l  p ef
13174 13217 m  11521 14955 l  ps
11225 15267 m  11644 15044 l  11426 14837 l  11225 15267 l  p ef
7874 13217 m  7198 13217 l  7198 12368 l  7444 12368 l  ps
7874 12368 m  7424 12218 l  7424 12518 l  7874 12368 l  p ef
14024 13217 m  14701 13217 l  14701 12368 l  14454 12368 l  ps
14024 12368 m  14474 12518 l  14474 12218 l  14024 12368 l  p ef
pum
9749 12679 t
39 -165 m  39 -224 49 -278 67 -326 ct 86 -373 115 -418 154 -460 ct 208 -460 l 
169 -417 141 -371 123 -323 ct 105 -274 96 -222 96 -164 ct 96 -107 104 -54 122 -6 ct 
140 42 169 88 208 132 ct 154 132 l  115 90 86 45 67 -3 ct 49 -50 39 -104 39 -163 ct 
39 -165 l  p ef
538 -169 m  538 -52 497 7 415 7 ct 390 7 369 2 352 -7 ct 335 -16 321 -31 311 -51 ct 
310 -51 l  310 -45 310 -35 309 -22 ct 308 -9 307 -1 307 1 ct 253 1 l  254 -10 255 -33 255 -68 ct 
255 -460 l  311 -460 l  311 -328 l  311 -315 310 -299 309 -281 ct 311 -281 l 
321 -302 335 -318 352 -327 ct 369 -336 390 -341 415 -341 ct 457 -341 489 -327 509 -298 ct 
529 -270 538 -227 538 -169 ct p
480 -167 m  480 -214 474 -247 461 -268 ct 449 -288 429 -298 401 -298 ct 369 -298 347 -287 332 -266 ct 
318 -244 311 -210 311 -163 ct 311 -119 318 -87 332 -66 ct 346 -45 369 -34 400 -34 ct 
428 -34 449 -45 461 -65 ct 474 -86 480 -120 480 -167 ct p ef
682 -68 m  682 -16 l  682 6 680 25 676 39 ct 673 54 666 68 658 82 ct 620 82 l 
639 53 649 26 649 0 ct 622 0 l  622 -68 l  682 -68 l  p ef
1309 -123 m  1309 -84 1295 -54 1267 -32 ct 1238 -11 1199 0 1148 0 ct 971 0 l 
971 -437 l  1130 -437 l  1232 -437 1284 -402 1284 -331 ct 1284 -305 1276 -284 1262 -266 ct 
1247 -248 1227 -236 1201 -230 ct 1235 -226 1262 -215 1281 -196 ct 1300 -176 1309 -152 1309 -123 ct 
p
1224 -324 m  1224 -348 1216 -365 1200 -375 ct 1184 -385 1160 -390 1130 -390 ct 
1030 -390 l  1030 -251 l  1130 -251 l  1161 -251 1185 -257 1201 -269 ct 1216 -281 1224 -299 1224 -324 ct 
p
1249 -128 m  1249 -179 1213 -205 1141 -205 ct 1030 -205 l  1030 -47 l  1145 -47 l 
1182 -47 1208 -54 1224 -68 ct 1241 -81 1249 -101 1249 -128 ct p ef
1461 -68 m  1461 -16 l  1461 6 1459 25 1455 39 ct 1452 54 1445 68 1437 82 ct 
1399 82 l  1418 53 1428 26 1428 0 ct 1401 0 l  1401 -68 l  1461 -68 l  p ef
pom
pum
11447 12679 t
141 -36 m  159 -36 177 -40 194 -49 ct 212 -59 226 -71 238 -86 ct 271 -55 l  254 -34 235 -19 212 -9 ct 
190 1 165 6 138 6 ct 100 6 72 -3 52 -20 ct 32 -37 22 -61 22 -92 ct 22 -115 29 -134 45 -149 ct 
60 -164 80 -173 104 -175 ct 104 -176 l  82 -179 64 -187 51 -201 ct 38 -215 32 -232 32 -253 ct 
32 -279 42 -301 63 -317 ct 84 -334 112 -342 146 -342 ct 198 -342 237 -323 263 -285 ct 
223 -257 l  204 -286 178 -300 146 -300 ct 128 -300 113 -296 103 -287 ct 93 -279 88 -267 88 -251 ct 
88 -233 96 -219 113 -210 ct 129 -201 158 -197 199 -197 ct 199 -155 l  168 -155 144 -153 128 -149 ct 
113 -145 101 -138 92 -130 ct 84 -121 80 -108 80 -93 ct 80 -75 85 -61 96 -51 ct 
107 -41 122 -36 141 -36 ct p ef
pom
pum
11731 12679 t
172 -163 m  172 -104 163 -50 144 -2 ct 125 45 97 90 58 132 ct 4 132 l  43 89 71 43 89 -5 ct 
107 -53 116 -106 116 -164 ct 116 -222 107 -275 89 -323 ct 71 -371 42 -417 4 -460 ct 
58 -460 l  97 -418 126 -373 144 -325 ct 163 -278 172 -224 172 -165 ct 172 -163 l 
p ef
pom
pum
4950 12978 t
39 -165 m  39 -224 49 -278 67 -326 ct 86 -373 115 -418 154 -460 ct 208 -460 l 
169 -417 141 -371 123 -323 ct 105 -274 96 -222 96 -164 ct 96 -107 104 -54 122 -6 ct 
140 42 169 88 208 132 ct 154 132 l  115 90 86 45 67 -3 ct 49 -50 39 -104 39 -163 ct 
39 -165 l  p ef
340 6 m  307 6 281 -3 264 -21 ct 247 -38 239 -63 239 -94 ct 239 -129 250 -155 273 -174 ct 
296 -192 333 -202 384 -204 ct 459 -205 l  459 -223 l  459 -250 453 -270 442 -282 ct 
430 -294 412 -299 387 -299 ct 362 -299 344 -295 333 -287 ct 321 -278 314 -265 312 -246 ct 
254 -251 l  263 -312 308 -342 388 -342 ct 431 -342 462 -332 484 -313 ct 505 -294 516 -266 516 -229 ct 
516 -85 l  516 -68 518 -55 522 -47 ct 526 -39 535 -35 547 -35 ct 552 -35 558 -35 565 -37 ct 
565 -2 l  551 1 537 3 522 3 ct 501 3 486 -2 477 -13 ct 468 -24 462 -41 461 -64 ct 
459 -64 l  445 -39 428 -21 409 -10 ct 390 1 367 6 340 6 ct p
353 -36 m  374 -36 392 -41 408 -50 ct 424 -59 436 -72 445 -88 ct 455 -104 459 -121 459 -138 ct 
459 -166 l  398 -165 l  372 -164 352 -161 338 -157 ct 325 -152 314 -144 307 -134 ct 
300 -123 296 -110 296 -93 ct 296 -75 301 -61 311 -51 ct 321 -41 335 -36 353 -36 ct 
p ef
682 -68 m  682 -16 l  682 6 680 25 676 39 ct 673 54 666 68 658 82 ct 620 82 l 
639 53 649 26 649 0 ct 622 0 l  622 -68 l  682 -68 l  p ef
pom
pum
5869 12978 t
141 -36 m  159 -36 177 -40 194 -49 ct 212 -59 226 -71 238 -86 ct 271 -55 l  254 -34 235 -19 212 -9 ct 
190 1 165 6 138 6 ct 100 6 72 -3 52 -20 ct 32 -37 22 -61 22 -92 ct 22 -115 29 -134 45 -149 ct 
60 -164 80 -173 104 -175 ct 104 -176 l  82 -179 64 -187 51 -201 ct 38 -215 32 -232 32 -253 ct 
32 -279 42 -301 63 -317 ct 84 -334 112 -342 146 -342 ct 198 -342 237 -323 263 -285 ct 
223 -257 l  204 -286 178 -300 146 -300 ct 128 -300 113 -296 103 -287 ct 93 -279 88 -267 88 -251 ct 
88 -233 96 -219 113 -210 ct 129 -201 158 -197 199 -197 ct 199 -155 l  168 -155 144 -153 128 -149 ct 
113 -145 101 -138 92 -130 ct 84 -121 80 -108 80 -93 ct 80 -75 85 -61 96 -51 ct 
107 -41 122 -36 141 -36 ct p ef
403 -68 m  403 -16 l  403 6 401 25 397 39 ct 394 54 387 68 379 82 ct 341 82 l 
360 53 370 26 370 0 ct 343 0 l  343 -68 l  403 -68 l  p ef
1029 -123 m  1029 -84 1015 -54 987 -32 ct 958 -11 919 0 868 0 ct 691 0 l  691 -437 l 
850 -437 l  952 -437 1004 -402 1004 -331 ct 1004 -305 996 -284 982 -266 ct 967 -248 947 -236 921 -230 ct 
955 -226 982 -215 1001 -196 ct 1020 -176 1029 -152 1029 -123 ct p
944 -324 m  944 -348 936 -365 920 -375 ct 904 -385 880 -390 850 -390 ct 750 -390 l 
750 -251 l  850 -251 l  881 -251 905 -257 921 -269 ct 936 -281 944 -299 944 -324 ct 
p
969 -128 m  969 -179 933 -205 861 -205 ct 750 -205 l  750 -47 l  865 -47 l 
902 -47 928 -54 944 -68 ct 961 -81 969 -101 969 -128 ct p ef
pom
pum
6931 12978 t
172 -163 m  172 -104 163 -50 144 -2 ct 125 45 97 90 58 132 ct 4 132 l  43 89 71 43 89 -5 ct 
107 -53 116 -106 116 -164 ct 116 -222 107 -275 89 -323 ct 71 -371 42 -417 4 -460 ct 
58 -460 l  97 -418 126 -373 144 -325 ct 163 -278 172 -224 172 -165 ct 172 -163 l 
p ef
pom
pum
14749 12879 t
39 -165 m  39 -224 49 -278 67 -326 ct 86 -373 115 -418 154 -460 ct 208 -460 l 
169 -417 141 -371 123 -323 ct 105 -274 96 -222 96 -164 ct 96 -107 104 -54 122 -6 ct 
140 42 169 88 208 132 ct 154 132 l  115 90 86 45 67 -3 ct 49 -50 39 -104 39 -163 ct 
39 -165 l  p ef
538 -169 m  538 -52 497 7 415 7 ct 390 7 369 2 352 -7 ct 335 -16 321 -31 311 -51 ct 
310 -51 l  310 -45 310 -35 309 -22 ct 308 -9 307 -1 307 1 ct 253 1 l  254 -10 255 -33 255 -68 ct 
255 -460 l  311 -460 l  311 -328 l  311 -315 310 -299 309 -281 ct 311 -281 l 
321 -302 335 -318 352 -327 ct 369 -336 390 -341 415 -341 ct 457 -341 489 -327 509 -298 ct 
529 -270 538 -227 538 -169 ct p
480 -167 m  480 -214 474 -247 461 -268 ct 449 -288 429 -298 401 -298 ct 369 -298 347 -287 332 -266 ct 
318 -244 311 -210 311 -163 ct 311 -119 318 -87 332 -66 ct 346 -45 369 -34 400 -34 ct 
428 -34 449 -45 461 -65 ct 474 -86 480 -120 480 -167 ct p ef
682 -68 m  682 -16 l  682 6 680 25 676 39 ct 673 54 666 68 658 82 ct 620 82 l 
639 53 649 26 649 0 ct 622 0 l  622 -68 l  682 -68 l  p ef
1309 -123 m  1309 -84 1295 -54 1267 -32 ct 1238 -11 1199 0 1148 0 ct 971 0 l 
971 -437 l  1130 -437 l  1232 -437 1284 -402 1284 -331 ct 1284 -305 1276 -284 1262 -266 ct 
1247 -248 1227 -236 1201 -230 ct 1235 -226 1262 -215 1281 -196 ct 1300 -176 1309 -152 1309 -123 ct 
p
1224 -324 m  1224 -348 1216 -365 1200 -375 ct 1184 -385 1160 -390 1130 -390 ct 
1030 -390 l  1030 -251 l  1130 -251 l  1161 -251 1185 -257 1201 -269 ct 1216 -281 1224 -299 1224 -324 ct 
p
1249 -128 m  1249 -179 1213 -205 1141 -205 ct 1030 -205 l  1030 -47 l  1145 -47 l 
1182 -47 1208 -54 1224 -68 ct 1241 -81 1249 -101 1249 -128 ct p ef
1461 -68 m  1461 -16 l  1461 6 1459 25 1455 39 ct 1452 54 1445 68 1437 82 ct 
1399 82 l  1418 53 1428 26 1428 0 ct 1401 0 l  1401 -68 l  1461 -68 l  p ef
pom
pum
16447 12879 t
141 -36 m  159 -36 177 -40 194 -49 ct 212 -59 226 -71 238 -86 ct 271 -55 l  254 -34 235 -19 212 -9 ct 
190 1 165 6 138 6 ct 100 6 72 -3 52 -20 ct 32 -37 22 -61 22 -92 ct 22 -115 29 -134 45 -149 ct 
60 -164 80 -173 104 -175 ct 104 -176 l  82 -179 64 -187 51 -201 ct 38 -215 32 -232 32 -253 ct 
32 -279 42 -301 63 -317 ct 84 -334 112 -342 146 -342 ct 198 -342 237 -323 263 -285 ct 
223 -257 l  204 -286 178 -300 146 -300 ct 128 -300 113 -296 103 -287 ct 93 -279 88 -267 88 -251 ct 
88 -233 96 -219 113 -210 ct 129 -201 158 -197 199 -197 ct 199 -155 l  168 -155 144 -153 128 -149 ct 
113 -145 101 -138 92 -130 ct 84 -121 80 -108 80 -93 ct 80 -75 85 -61 96 -51 ct 
107 -41 122 -36 141 -36 ct p ef
pom
pum
16731 12879 t
172 -163 m  172 -104 163 -50 144 -2 ct 125 45 97 90 58 132 ct 4 132 l  43 89 71 43 89 -5 ct 
107 -53 116 -106 116 -164 ct 116 -222 107 -275 89 -323 ct 71 -371 42 -417 4 -460 ct 
58 -460 l  97 -418 126 -373 144 -325 ct 163 -278 172 -224 172 -165 ct 172 -163 l 
p ef
pom
pum
12349 14478 t
39 -165 m  39 -224 49 -278 67 -326 ct 86 -373 115 -418 154 -460 ct 208 -460 l 
169 -417 141 -371 123 -323 ct 105 -274 96 -222 96 -164 ct 96 -107 104 -54 122 -6 ct 
140 42 169 88 208 132 ct 154 132 l  115 90 86 45 67 -3 ct 49 -50 39 -104 39 -163 ct 
39 -165 l  p ef
542 -320 m  542 -305 539 -291 535 -279 ct 530 -266 524 -255 515 -245 ct 507 -234 493 -222 474 -208 ct 
449 -190 l  434 -179 423 -168 416 -156 ct 408 -144 405 -131 405 -117 ct 350 -117 l 
351 -131 353 -144 357 -155 ct 361 -165 366 -175 373 -183 ct 379 -191 386 -199 394 -205 ct 
402 -212 411 -218 419 -224 ct 427 -230 435 -236 443 -242 ct 451 -247 458 -254 464 -261 ct 
471 -268 476 -277 479 -286 ct 483 -295 485 -305 485 -318 ct 485 -341 477 -360 461 -374 ct 
445 -387 423 -394 394 -394 ct 365 -394 342 -387 325 -372 ct 308 -358 298 -338 295 -313 ct 
238 -316 l  243 -357 260 -389 286 -411 ct 313 -433 349 -444 393 -444 ct 439 -444 475 -433 502 -411 ct 
528 -389 542 -359 542 -320 ct p
348 0 m  348 -62 l  408 -62 l  408 0 l  348 0 l  p ef
682 -68 m  682 -16 l  682 6 680 25 676 39 ct 673 54 666 68 658 82 ct 620 82 l 
639 53 649 26 649 0 ct 622 0 l  622 -68 l  682 -68 l  p ef
1249 -320 m  1249 -305 1246 -291 1242 -279 ct 1237 -266 1231 -255 1222 -245 ct 
1214 -234 1200 -222 1181 -208 ct 1156 -190 l  1141 -179 1130 -168 1123 -156 ct 
1115 -144 1112 -131 1112 -117 ct 1057 -117 l  1058 -131 1060 -144 1064 -155 ct 
1068 -165 1073 -175 1080 -183 ct 1086 -191 1093 -199 1101 -205 ct 1109 -212 1118 -218 1126 -224 ct 
1134 -230 1142 -236 1150 -242 ct 1158 -247 1165 -254 1171 -261 ct 1178 -268 1183 -277 1186 -286 ct 
1190 -295 1192 -305 1192 -318 ct 1192 -341 1184 -360 1168 -374 ct 1152 -387 1130 -394 1101 -394 ct 
1072 -394 1049 -387 1032 -372 ct 1015 -358 1005 -338 1002 -313 ct 945 -316 l 
950 -357 967 -389 993 -411 ct 1020 -433 1056 -444 1100 -444 ct 1146 -444 1182 -433 1209 -411 ct 
1235 -389 1249 -359 1249 -320 ct p
1055 0 m  1055 -62 l  1115 -62 l  1115 0 l  1055 0 l  p ef
1389 -68 m  1389 -16 l  1389 6 1387 25 1383 39 ct 1380 54 1373 68 1365 82 ct 
1327 82 l  1346 53 1356 26 1356 0 ct 1329 0 l  1329 -68 l  1389 -68 l  p ef
pom
pum
13975 14478 t
141 -36 m  159 -36 177 -40 194 -49 ct 212 -59 226 -71 238 -86 ct 271 -55 l  254 -34 235 -19 212 -9 ct 
190 1 165 6 138 6 ct 100 6 72 -3 52 -20 ct 32 -37 22 -61 22 -92 ct 22 -115 29 -134 45 -149 ct 
60 -164 80 -173 104 -175 ct 104 -176 l  82 -179 64 -187 51 -201 ct 38 -215 32 -232 32 -253 ct 
32 -279 42 -301 63 -317 ct 84 -334 112 -342 146 -342 ct 198 -342 237 -323 263 -285 ct 
223 -257 l  204 -286 178 -300 146 -300 ct 128 -300 113 -296 103 -287 ct 93 -279 88 -267 88 -251 ct 
88 -233 96 -219 113 -210 ct 129 -201 158 -197 199 -197 ct 199 -155 l  168 -155 144 -153 128 -149 ct 
113 -145 101 -138 92 -130 ct 84 -121 80 -108 80 -93 ct 80 -75 85 -61 96 -51 ct 
107 -41 122 -36 141 -36 ct p ef
pom
pum
14259 14478 t
172 -163 m  172 -104 163 -50 144 -2 ct 125 45 97 90 58 132 ct 4 132 l  43 89 71 43 89 -5 ct 
107 -53 116 -106 116 -164 ct 116 -222 107 -275 89 -323 ct 71 -371 42 -417 4 -460 ct 
58 -460 l  97 -418 126 -373 144 -325 ct 163 -278 172 -224 172 -165 ct 172 -163 l 
p ef
pom
pum
7349 14578 t
39 -165 m  39 -224 49 -278 67 -326 ct 86 -373 115 -418 154 -460 ct 208 -460 l 
169 -417 141 -371 123 -323 ct 105 -274 96 -222 96 -164 ct 96 -107 104 -54 122 -6 ct 
140 42 169 88 208 132 ct 154 132 l  115 90 86 45 67 -3 ct 49 -50 39 -104 39 -163 ct 
39 -165 l  p ef
542 -320 m  542 -305 539 -291 535 -279 ct 530 -266 524 -255 515 -245 ct 507 -234 493 -222 474 -208 ct 
449 -190 l  434 -179 423 -168 416 -156 ct 408 -144 405 -131 405 -117 ct 350 -117 l 
351 -131 353 -144 357 -155 ct 361 -165 366 -175 373 -183 ct 379 -191 386 -199 394 -205 ct 
402 -212 411 -218 419 -224 ct 427 -230 435 -236 443 -242 ct 451 -247 458 -254 464 -261 ct 
471 -268 476 -277 479 -286 ct 483 -295 485 -305 485 -318 ct 485 -341 477 -360 461 -374 ct 
445 -387 423 -394 394 -394 ct 365 -394 342 -387 325 -372 ct 308 -358 298 -338 295 -313 ct 
238 -316 l  243 -357 260 -389 286 -411 ct 313 -433 349 -444 393 -444 ct 439 -444 475 -433 502 -411 ct 
528 -389 542 -359 542 -320 ct p
348 0 m  348 -62 l  408 -62 l  408 0 l  348 0 l  p ef
682 -68 m  682 -16 l  682 6 680 25 676 39 ct 673 54 666 68 658 82 ct 620 82 l 
639 53 649 26 649 0 ct 622 0 l  622 -68 l  682 -68 l  p ef
1249 -320 m  1249 -305 1246 -291 1242 -279 ct 1237 -266 1231 -255 1222 -245 ct 
1214 -234 1200 -222 1181 -208 ct 1156 -190 l  1141 -179 1130 -168 1123 -156 ct 
1115 -144 1112 -131 1112 -117 ct 1057 -117 l  1058 -131 1060 -144 1064 -155 ct 
1068 -165 1073 -175 1080 -183 ct 1086 -191 1093 -199 1101 -205 ct 1109 -212 1118 -218 1126 -224 ct 
1134 -230 1142 -236 1150 -242 ct 1158 -247 1165 -254 1171 -261 ct 1178 -268 1183 -277 1186 -286 ct 
1190 -295 1192 -305 1192 -318 ct 1192 -341 1184 -360 1168 -374 ct 1152 -387 1130 -394 1101 -394 ct 
1072 -394 1049 -387 1032 -372 ct 1015 -358 1005 -338 1002 -313 ct 945 -316 l 
950 -357 967 -389 993 -411 ct 1020 -433 1056 -444 1100 -444 ct 1146 -444 1182 -433 1209 -411 ct 
1235 -389 1249 -359 1249 -320 ct p
1055 0 m  1055 -62 l  1115 -62 l  1115 0 l  1055 0 l  p ef
1389 -68 m  1389 -16 l  1389 6 1387 25 1383 39 ct 1380 54 1373 68 1365 82 ct 
1327 82 l  1346 53 1356 26 1356 0 ct 1329 0 l  1329 -68 l  1389 -68 l  p ef
pom
pum
8975 14578 t
141 -36 m  159 -36 177 -40 194 -49 ct 212 -59 226 -71 238 -86 ct 271 -55 l  254 -34 235 -19 212 -9 ct 
190 1 165 6 138 6 ct 100 6 72 -3 52 -20 ct 32 -37 22 -61 22 -92 ct 22 -115 29 -134 45 -149 ct 
60 -164 80 -173 104 -175 ct 104 -176 l  82 -179 64 -187 51 -201 ct 38 -215 32 -232 32 -253 ct 
32 -279 42 -301 63 -317 ct 84 -334 112 -342 146 -342 ct 198 -342 237 -323 263 -285 ct 
223 -257 l  204 -286 178 -300 146 -300 ct 128 -300 113 -296 103 -287 ct 93 -279 88 -267 88 -251 ct 
88 -233 96 -219 113 -210 ct 129 -201 158 -197 199 -197 ct 199 -155 l  168 -155 144 -153 128 -149 ct 
113 -145 101 -138 92 -130 ct 84 -121 80 -108 80 -93 ct 80 -75 85 -61 96 -51 ct 
107 -41 122 -36 141 -36 ct p ef
pom
pum
9259 14578 t
172 -163 m  172 -104 163 -50 144 -2 ct 125 45 97 90 58 132 ct 4 132 l  43 89 71 43 89 -5 ct 
107 -53 116 -106 116 -164 ct 116 -222 107 -275 89 -323 ct 71 -371 42 -417 4 -460 ct 
58 -460 l  97 -418 126 -373 144 -325 ct 163 -278 172 -224 172 -165 ct 172 -163 l 
p ef
pom
0 5155 t 
pom
count op_count sub {pop} repeat countdictstack dict_count sub {end} repeat b4_inc_state restore
%%PageTrailer
%%Trailer
%%EOF
